layer at (0,0) size 800x600
  RenderView at (0,0) size 800x600
layer at (0,0) size 800x600
  RenderBlock {HTML} at (0,0) size 800x600
    RenderBody {BODY} at (8,8) size 784x584
      RenderBlock {P} at (0,0) size 784x32
        RenderText {#text} at (0,0) size 177x16
          text run at (0,0) width 177: "This is a regression test for "
        RenderInline {I} at (0,0) size 755x32
          RenderInline {A} at (0,0) size 355x16 [color=#0000EE]
            RenderText {#text} at (176,0) size 355x16
              text run at (176,0) width 355: "http://bugzilla.opendarwin.org/show_bug.cgi?id=9879"
          RenderText {#text} at (530,0) size 755x32
            text run at (530,0) width 5: " "
            text run at (534,0) width 221: "REGRESSION: Repro crash when"
            text run at (0,16) width 270: "clicking to the side of an anonymous table"
        RenderText {#text} at (269,16) size 5x16
          text run at (269,16) width 5: "."
      RenderBlock {P} at (0,48) size 784x16
        RenderText {#text} at (0,0) size 625x16
          text run at (0,0) width 625: "If the browser does not crash as you click to the right of each of the lines below, it passes the test."
      RenderBlock {HR} at (0,80) size 784x2 [border: (1px inset #EEEEEE)]
      RenderBlock {DIV} at (0,90) size 784x64
        RenderTable at (0,0) size 182x64
          RenderTableSection (anonymous) at (0,16) size 182x32
            RenderTableRow {DIV} at (0,0) size 182x16
              RenderTableCell (anonymous) at (0,0) size 182x16 [r=0 c=0 rs=1 cs=1]
                RenderText {#text} at (0,0) size 182x16
                  text run at (0,0) width 182: "Click to the right of this text"
            RenderTableRow (anonymous) at (0,16) size 182x16
              RenderTableCell {DIV} at (0,16) size 182x16 [r=1 c=0 rs=1 cs=1]
                RenderText {#text} at (0,0) size 182x16
                  text run at (0,0) width 182: "Click to the right of this text"
          RenderBlock {DIV} at (0,0) size 182x16
            RenderText {#text} at (0,0) size 182x16
              text run at (0,0) width 182: "Click to the right of this text"
          RenderTableSection {DIV} at (0,48) size 182x16
            RenderTableRow (anonymous) at (0,0) size 182x16
              RenderTableCell (anonymous) at (0,0) size 182x16 [r=0 c=0 rs=1 cs=1]
                RenderText {#text} at (0,0) size 182x16
                  text run at (0,0) width 182: "Click to the right of this text"
caret: position 40 of child 0 {#text} of child 7 {DIV} of child 7 {DIV} of body
