layer at (0,0) size 800x600 clip at (0,0) size 785x600 scrollHeight 2364
  RenderView at (0,0) size 800x600
layer at (0,0) size 785x2364 backgroundClip at (0,0) size 785x600 clip at (0,0) size 785x600 outlineClip at (0,0) size 785x600
  RenderBlock {HTML} at (0,0) size 785x2364
    RenderBody {BODY} at (8,8) size 769x2348
      RenderTable {TABLE} at (0,0) size 418x112 [border: (2px outset #808080)]
        RenderTableSection {TBODY} at (2,2) size 414x108
          RenderTableRow {TR} at (0,2) size 414x104
            RenderTableCell {TD} at (308,2) size 104x104 [border: (1px inset #808080)] [r=0 c=1 rs=1 cs=1]
              RenderBlock {DIV} at (2,2) size 100x100 [bgcolor=#800080]
      RenderBlock (anonymous) at (0,112) size 769x32
        RenderBR {BR} at (0,0) size 0x16
        RenderBR {BR} at (0,16) size 0x16
      RenderTable {TABLE} at (0,144) size 718x112 [border: (2px outset #808080)]
        RenderTableSection {TBODY} at (2,2) size 714x108
          RenderTableRow {TR} at (0,2) size 714x104
            RenderTableCell {TD} at (608,2) size 104x104 [border: (1px inset #808080)] [r=0 c=1 rs=1 cs=1]
              RenderBlock {DIV} at (2,2) size 100x100 [bgcolor=#800080]
      RenderBlock (anonymous) at (0,256) size 769x32
        RenderBR {BR} at (0,0) size 0x16
        RenderBR {BR} at (0,16) size 0x16
      RenderTable {TABLE} at (0,288) size 718x112 [border: (2px outset #808080)]
        RenderTableSection {TBODY} at (2,2) size 714x108
          RenderTableRow {TR} at (0,2) size 714x104
            RenderTableCell {TD} at (608,2) size 104x104 [border: (1px inset #808080)] [r=0 c=1 rs=1 cs=1]
              RenderBlock {DIV} at (2,2) size 100x100 [bgcolor=#800080]
      RenderBlock (anonymous) at (0,400) size 769x32
        RenderBR {BR} at (0,0) size 0x16
        RenderBR {BR} at (0,16) size 0x16
      RenderTable {TABLE} at (0,432) size 418x112 [border: (2px outset #808080)]
        RenderTableSection {TBODY} at (2,2) size 414x108
          RenderTableRow {TR} at (0,2) size 414x104
            RenderTableCell {TD} at (308,2) size 104x104 [border: (1px inset #808080)] [r=0 c=1 rs=1 cs=1]
              RenderBlock {DIV} at (2,2) size 100x100 [bgcolor=#800080]
      RenderBlock (anonymous) at (0,544) size 769x32
        RenderBR {BR} at (0,0) size 0x16
        RenderBR {BR} at (0,16) size 0x16
      RenderTable {TABLE} at (0,576) size 418x112 [border: (2px outset #808080)]
        RenderTableSection {TBODY} at (2,2) size 414x108
          RenderTableRow {TR} at (0,2) size 414x104
            RenderTableCell {TD} at (2,2) size 104x104 [border: (1px inset #808080)] [r=0 c=0 rs=1 cs=1]
              RenderBlock {DIV} at (2,2) size 100x100 [bgcolor=#800080]
      RenderBlock (anonymous) at (0,688) size 769x32
        RenderBR {BR} at (0,0) size 0x16
        RenderBR {BR} at (0,16) size 0x16
      RenderTable {TABLE} at (0,720) size 618x218 [border: (2px outset #808080)]
        RenderTableSection {TBODY} at (2,2) size 614x214
          RenderTableRow {TR} at (0,2) size 614x104
            RenderTableCell {TD} at (308,2) size 304x104 [border: (1px inset #808080)] [r=0 c=1 rs=1 cs=1]
              RenderBlock {DIV} at (2,2) size 300x100 [bgcolor=#800080]
          RenderTableRow {TR} at (0,108) size 614x104
            RenderTableCell {TD} at (2,108) size 304x104 [border: (1px inset #808080)] [r=1 c=0 rs=1 cs=1]
              RenderBlock {DIV} at (2,2) size 300x100 [bgcolor=#800080]
      RenderBlock (anonymous) at (0,938) size 769x32
        RenderBR {BR} at (0,0) size 0x16
        RenderBR {BR} at (0,16) size 0x16
      RenderTable {TABLE} at (0,970) size 718x112 [border: (2px outset #808080)]
        RenderTableSection {TBODY} at (2,2) size 714x108
          RenderTableRow {TR} at (0,2) size 714x104
            RenderTableCell {TD} at (608,2) size 104x104 [border: (1px inset #808080)] [r=0 c=1 rs=1 cs=1]
              RenderBlock {DIV} at (2,2) size 100x100 [bgcolor=#800080]
      RenderBlock (anonymous) at (0,1082) size 769x32
        RenderBR {BR} at (0,0) size 0x16
        RenderBR {BR} at (0,16) size 0x16
      RenderTable {TABLE} at (0,1114) size 718x112 [border: (2px outset #808080)]
        RenderTableSection {TBODY} at (2,2) size 714x108
          RenderTableRow {TR} at (0,2) size 714x104
            RenderTableCell {TD} at (608,2) size 104x104 [border: (1px inset #808080)] [r=0 c=1 rs=1 cs=1]
              RenderBlock {DIV} at (2,2) size 100x100 [bgcolor=#800080]
      RenderBlock (anonymous) at (0,1226) size 769x32
        RenderBR {BR} at (0,0) size 0x16
        RenderBR {BR} at (0,16) size 0x16
      RenderTable {TABLE} at (0,1258) size 718x112 [border: (2px outset #808080)]
        RenderTableSection {TBODY} at (2,2) size 714x108
          RenderTableRow {TR} at (0,2) size 714x104
            RenderTableCell {TD} at (608,2) size 104x104 [border: (1px inset #808080)] [r=0 c=1 rs=1 cs=1]
              RenderBlock {DIV} at (2,2) size 100x100 [bgcolor=#800080]
      RenderBlock (anonymous) at (0,1370) size 769x32
        RenderBR {BR} at (0,0) size 0x16
        RenderBR {BR} at (0,16) size 0x16
      RenderTable {DIV} at (0,1402) size 400x100
        RenderTableSection (anonymous) at (0,0) size 400x100
          RenderTableRow {DIV} at (0,0) size 400x100
            RenderTableCell {DIV} at (300,0) size 100x100 [r=0 c=1 rs=1 cs=1]
              RenderBlock {DIV} at (0,0) size 100x100 [bgcolor=#800080]
      RenderBlock (anonymous) at (0,1502) size 769x32
        RenderBR {BR} at (0,0) size 0x16
        RenderBR {BR} at (0,16) size 0x16
      RenderTable {DIV} at (0,1534) size 400x100
        RenderTableSection (anonymous) at (0,0) size 400x100
          RenderTableRow {DIV} at (0,0) size 400x100
            RenderTableCell {DIV} at (300,0) size 100x100 [r=0 c=1 rs=1 cs=1]
              RenderBlock {DIV} at (0,0) size 100x100 [bgcolor=#800080]
      RenderBlock (anonymous) at (0,1634) size 769x32
        RenderBR {BR} at (0,0) size 0x16
        RenderBR {BR} at (0,16) size 0x16
      RenderTable {TABLE} at (0,1666) size 715x112 [border: (2px outset #808080)]
        RenderTableSection {TBODY} at (2,2) size 710x107
          RenderTableRow {TR} at (0,0) size 710x107
            RenderTableCell {TD} at (605,0) size 105x107 [border: (3px inset #808080)] [r=0 c=1 rs=1 cs=1]
              RenderBlock {DIV} at (2,4) size 100x100 [bgcolor=#800080]
      RenderBlock (anonymous) at (0,1778) size 769x32
        RenderBR {BR} at (0,0) size 0x16
        RenderBR {BR} at (0,16) size 0x16
      RenderTable {TABLE} at (0,1810) size 715x112 [border: (2px outset #808080)]
        RenderTableSection {TBODY} at (2,2) size 710x107
          RenderTableRow {TR} at (0,0) size 710x107
            RenderTableCell {TD} at (605,0) size 105x107 [border: (3px inset #808080)] [r=0 c=1 rs=1 cs=1]
              RenderBlock {DIV} at (2,4) size 100x100 [bgcolor=#800080]
      RenderBlock (anonymous) at (0,1922) size 769x32
        RenderBR {BR} at (0,0) size 0x16
        RenderBR {BR} at (0,16) size 0x16
      RenderTable {TABLE} at (0,1954) size 418x112 [border: (2px outset #808080)]
        RenderTableSection {TBODY} at (2,2) size 414x108
          RenderTableRow {TR} at (0,2) size 414x104
            RenderTableCell {TD} at (308,2) size 104x104 [border: (1px inset #808080)] [r=0 c=1 rs=1 cs=1]
              RenderBlock {DIV} at (2,2) size 100x100 [bgcolor=#800080]
      RenderBlock (anonymous) at (0,2066) size 769x32
        RenderBR {BR} at (0,0) size 0x16
        RenderBR {BR} at (0,16) size 0x16
      RenderTable {TABLE} at (0,2098) size 433x112 [border: (2px outset #808080)]
        RenderTableSection {TBODY} at (2,2) size 429x108
          RenderTableRow {TR} at (0,2) size 429x104
            RenderTableCell {TD} at (323,2) size 104x104 [border: (1px inset #808080)] [r=0 c=1 rs=1 cs=1]
              RenderBlock {DIV} at (2,2) size 100x100 [bgcolor=#800080]
      RenderBlock (anonymous) at (0,2210) size 769x32
        RenderBR {BR} at (0,0) size 0x16
        RenderBR {BR} at (0,16) size 0x16
      RenderTable {TABLE} at (0,2242) size 470x106
        RenderTableSection {TBODY} at (0,0) size 470x106
          RenderTableRow {TR} at (0,2) size 470x102
            RenderTableCell {TD} at (366,2) size 102x102 [r=0 c=1 rs=1 cs=1]
              RenderBlock {DIV} at (1,1) size 100x100 [bgcolor=#800080]
layer at (12,12) size 304x104 clip at (13,13) size 302x102
  RenderTableCell {TD} at (2,52) size 304x4 [bgcolor=#808080] [border: (1px inset #808080)] [r=0 c=0 rs=1 cs=1]
layer at (12,156) size 604x104 clip at (13,157) size 602x102
  RenderTableCell {TD} at (2,44) size 604x20 [bgcolor=#808080] [border: (1px inset #808080)] [r=0 c=0 rs=1 cs=1]
layer at (12,444) size 304x104 clip at (13,445) size 302x102 scrollWidth 601
  RenderTableCell {TD} at (2,52) size 304x4 [bgcolor=#808080] [border: (1px inset #808080)] [r=0 c=0 rs=1 cs=1]
    RenderBlock {DIV} at (2,-18) size 300x16 [bgcolor=#00FF00]
      RenderBlock {DIV} at (0,0) size 600x16 [bgcolor=#008000]
        RenderText {#text} at (0,0) size 28x16
          text run at (0,0) width 28: "Test"
layer at (118,588) size 304x104 backgroundClip at (118,588) size 304x12 clip at (119,589) size 302x11 outlineClip at (0,0) size 785x600 scrollWidth 601
  RenderTableCell {TD} at (108,52) size 304x4 [bgcolor=#808080] [border: (1px inset #808080)] [r=0 c=1 rs=1 cs=1]
    RenderBlock {DIV} at (2,-18) size 300x16 [bgcolor=#00FF00]
      RenderBlock {DIV} at (0,0) size 600x16 [bgcolor=#008000]
        RenderText {#text} at (0,0) size 84x16
          text run at (0,0) width 84: "Reverse Test"
layer at (12,732) size 304x104 backgroundClip at (0,0) size 0x0 clip at (0,0) size 0x0 outlineClip at (0,0) size 785x600 scrollWidth 601
  RenderTableCell {TD} at (2,52) size 304x4 [bgcolor=#808080] [border: (1px inset #808080)] [r=0 c=0 rs=1 cs=1]
    RenderBlock {DIV} at (2,-18) size 300x16 [bgcolor=#00FF00]
      RenderBlock {DIV} at (0,0) size 600x16 [bgcolor=#008000]
        RenderText {#text} at (0,0) size 83x16
          text run at (0,0) width 83: "Stacked Test"
layer at (318,838) size 304x104 backgroundClip at (0,0) size 0x0 clip at (0,0) size 0x0 outlineClip at (0,0) size 785x600 scrollWidth 601
  RenderTableCell {TD} at (308,158) size 304x4 [bgcolor=#808080] [border: (1px inset #808080)] [r=1 c=1 rs=1 cs=1]
    RenderBlock {DIV} at (2,-18) size 300x16 [bgcolor=#00FF00]
      RenderBlock {DIV} at (0,0) size 600x16 [bgcolor=#008000]
        RenderText {#text} at (0,0) size 52x16
          text run at (0,0) width 52: "Reverse"
layer at (12,982) size 604x104 backgroundClip at (0,0) size 0x0 clip at (0,0) size 0x0 outlineClip at (0,0) size 785x600
  RenderTableCell {TD} at (2,44) size 604x20 [bgcolor=#808080] [border: (1px inset #808080)] [r=0 c=0 rs=1 cs=1]
layer at (8,1410) size 300x100 backgroundClip at (0,0) size 0x0 clip at (0,0) size 0x0 outlineClip at (0,0) size 785x600 scrollWidth 600
  RenderTableCell {DIV} at (0,42) size 300x16 [r=0 c=0 rs=1 cs=1]
    RenderBlock {DIV} at (0,0) size 300x16
      RenderBlock {DIV} at (0,0) size 600x16 [bgcolor=#FFA500]
        RenderText {#text} at (0,0) size 147x16
          text run at (0,0) width 147: "With display:table-cell"
layer at (10,1676) size 605x107 backgroundClip at (0,0) size 0x0 clip at (0,0) size 0x0 outlineClip at (0,0) size 785x600
  RenderTableCell {TD} at (0,42) size 605x23 [bgcolor=#808080] [border: (3px inset #808080)] [r=0 c=0 rs=1 cs=1]
    RenderBlock {DIV} at (4,4) size 600x16 [bgcolor=#FFFF00]
      RenderText {#text} at (0,0) size 221x16
        text run at (0,0) width 221: "Test with border-collapse:collapse"
layer at (10,1820) size 605x107 backgroundClip at (0,0) size 0x0 clip at (0,0) size 0x0 outlineClip at (0,0) size 785x600
  RenderTableCell {TD} at (0,42) size 605x23 [border: (3px inset #808080)] [r=0 c=0 rs=1 cs=1]
    RenderBlock {DIV} at (4,4) size 600x16 [bgcolor=#FFFF00]
      RenderText {#text} at (0,0) size 278x16
        text run at (0,0) width 278: "Test with border-collapse:collapse no color"
layer at (12,1966) size 304x103 backgroundClip at (0,0) size 0x0 clip at (0,0) size 0x0 outlineClip at (0,0) size 785x600 scrollWidth 601
  RenderTableCell {TD} at (2,44) size 304x19 [bgcolor=#808080] [border: (1px inset #808080)] [r=0 c=0 rs=1 cs=1]
    RenderBlock {DIV} at (2,-18) size 300x16 [bgcolor=#00FF00]
      RenderBlock {DIV} at (0,0) size 600x16 [bgcolor=#008000]
        RenderText {#text} at (0,0) size 154x16
          text run at (0,0) width 154: "Test with overflow:auto"
layer at (12,2110) size 319x104 backgroundClip at (0,0) size 0x0 clip at (0,0) size 0x0 outlineClip at (0,0) size 785x600 scrollWidth 601
  RenderTableCell {TD} at (2,44) size 319x19 [bgcolor=#808080] [border: (1px inset #808080)] [r=0 c=0 rs=1 cs=1]
    RenderBlock {DIV} at (2,-18) size 300x16 [bgcolor=#00FF00]
      RenderBlock {DIV} at (0,0) size 600x16 [bgcolor=#008000]
        RenderText {#text} at (0,0) size 162x16
          text run at (0,0) width 162: "Test with overflow:scroll"
layer at (10,2252) size 362x102 backgroundClip at (0,0) size 0x0 clip at (0,0) size 0x0 outlineClip at (0,0) size 785x600 scrollWidth 601
  RenderTableCell {TD} at (2,6) size 362x93 [bgcolor=#808080] [border: (30px solid #000000)] [r=0 c=0 rs=1 cs=1]
    RenderBlock {DIV} at (31,31) size 300x16 [bgcolor=#00FF00]
      RenderBlock {DIV} at (0,0) size 600x16 [bgcolor=#008000]
        RenderText {#text} at (0,0) size 154x16
          text run at (0,0) width 154: "Test with overflow:auto"
layer at (14,90) size 600x16
  RenderBlock (positioned) {DIV} at (14,90) size 600x16 [bgcolor=#00FFFF]
    RenderText {#text} at (0,0) size 214x16
      text run at (0,0) width 214: "With absolute positioning on div."
layer at (14,200) size 600x16 transparent
  RenderBlock {DIV} at (2,2) size 600x16 [bgcolor=#00FFFF]
    RenderText {#text} at (0,0) size 132x16
      text run at (0,0) width 132: "With opacity on div."
layer at (12,300) size 604x104 clip at (13,301) size 602x102 transparent
  RenderTableCell {TD} at (2,44) size 604x20 [bgcolor=#808080] [border: (1px inset #808080)] [r=0 c=0 rs=1 cs=1]
    RenderBlock {DIV} at (2,2) size 600x16 [bgcolor=#00FFFF]
      RenderText {#text} at (0,0) size 135x16
        text run at (0,0) width 135: "With opacity on cell."
layer at (14,1026) size 600x16 backgroundClip at (0,0) size 0x0 clip at (0,0) size 0x0 outlineClip at (0,0) size 0x0
  RenderBlock (relative positioned) {DIV} at (2,2) size 600x16 [bgcolor=#FFA500]
    RenderText {#text} at (0,0) size 209x16
      text run at (0,0) width 209: "With relative positioning on div."
layer at (12,1126) size 604x104 backgroundClip at (0,0) size 0x0 clip at (0,0) size 0x0 outlineClip at (0,0) size 785x600
  RenderTableCell {TD} at (2,44) size 604x20 [bgcolor=#808080] [border: (1px inset #808080)] [r=0 c=0 rs=1 cs=1]
    RenderBlock {DIV} at (2,2) size 600x16 [bgcolor=#FFC0CB]
      RenderText {#text} at (0,0) size 212x16
        text run at (0,0) width 212: "With relative positioning on cell."
layer at (112,1270) size 604x104 backgroundClip at (0,0) size 0x0 clip at (0,0) size 0x0 outlineClip at (0,0) size 785x600
  RenderTableCell {TD} at (2,44) size 604x20 [bgcolor=#808080] [border: (1px inset #808080)] [r=0 c=0 rs=1 cs=1]
    RenderBlock {DIV} at (2,2) size 600x16 [bgcolor=#FFC0CB]
      RenderText {#text} at (0,0) size 298x16
        text run at (0,0) width 298: "With relative positioning and an offset on cell."
layer at (108,1542) size 300x100 backgroundClip at (0,0) size 0x0 clip at (0,0) size 0x0 outlineClip at (0,0) size 785x600 scrollWidth 600
  RenderTableCell {DIV} at (0,42) size 300x16 [r=0 c=0 rs=1 cs=1]
    RenderBlock {DIV} at (0,0) size 300x16
      RenderBlock {DIV} at (0,0) size 600x16 [bgcolor=#FFA500]
        RenderText {#text} at (0,0) size 288x16
          text run at (0,0) width 288: "With display:table-cell + relative positioning"
