layer at (0,0) size 800x600
  RenderView at (0,0) size 800x600
layer at (0,0) size 800x600
  RenderBlock {HTML} at (0,0) size 800x600
    RenderBody {BODY} at (8,8) size 784x584
      RenderBlock {P} at (0,0) size 784x32
        RenderText {#text} at (0,0) size 213x16
          text run at (0,0) width 213: "This tests for regressions against "
        RenderInline {I} at (0,0) size 738x32
          RenderInline {A} at (0,0) size 355x16 [color=#0000EE]
            RenderText {#text} at (212,0) size 355x16
              text run at (212,0) width 355: "http://bugzilla.opendarwin.org/show_bug.cgi?id=8420"
          RenderText {#text} at (566,0) size 738x32
            text run at (566,0) width 5: " "
            text run at (570,0) width 168: "iExploder(#12): Assertion"
            text run at (0,16) width 302: "failure in RenderContainer::removeChildNode"
        RenderText {#text} at (301,16) size 5x16
          text run at (301,16) width 5: "."
      RenderBlock {P} at (0,48) size 784x32
        RenderText {#text} at (0,0) size 716x32
          text run at (0,0) width 568: "In the render tree, the button should have only one child, an anonymous block wrapping "
          text run at (567,0) width 149: "all of the button's other"
          text run at (0,16) width 82: "descendants."
      RenderBlock {HR} at (0,96) size 784x2 [border: (1px inset #EEEEEE)]
      RenderBlock (anonymous) at (0,106) size 784x15
        RenderButton {BUTTON} at (0,0) size 16x15 [bgcolor=#C0C0C0] [border: none (2px outset #C0C0C0) none (2px outset #C0C0C0)]
          RenderBlock (anonymous) at (8,7) size 0x0
            RenderBlock (anonymous) at (0,0) size 0x0
              RenderInline {SPAN} at (0,0) size 0x0
            RenderBlock (anonymous) at (0,0) size 0x0
              RenderBlock {DIV} at (0,0) size 0x0
            RenderBlock (anonymous) at (0,0) size 0x0
              RenderInline {SPAN} at (0,0) size 0x0
        RenderText {#text} at (0,0) size 0x0
