layer at (0,0) size 800x600
  RenderView at (0,0) size 800x600
layer at (0,0) size 800x600
  RenderBlock {HTML} at (0,0) size 800x600
    RenderBody {BODY} at (8,8) size 784x584
      RenderBlock {P} at (0,0) size 784x16
        RenderText {#text} at (0,0) size 55x16
          text run at (0,0) width 55: "Test for "
        RenderInline {I} at (0,0) size 334x16
          RenderInline {A} at (0,0) size 157x16 [color=#0000EE]
            RenderText {#text} at (54,0) size 157x16
              text run at (54,0) width 157: "rdar://problem/7898436"
          RenderText {#text} at (210,0) size 178x16
            text run at (210,0) width 178: " :after content is duplicated"
        RenderText {#text} at (387,0) size 5x16
          text run at (387,0) width 5: "."
      RenderBlock {P} at (0,32) size 784x16
        RenderText {#text} at (0,0) size 518x16
          text run at (0,0) width 518: "The test passed if the word \x{201C}not\x{201D} appears exactly once in the following sentence:"
      RenderBlock {DIV} at (0,64) size 784x192
        RenderBlock (anonymous) at (0,0) size 784x96
          RenderText {#text} at (0,0) size 454x96
            text run at (0,0) width 454: "The test did"
          RenderInline {SPAN} at (0,0) size 0x0
            RenderInline {B} at (0,0) size 0x0
        RenderBlock (anonymous) at (0,96) size 784x0
          RenderBlock {DIV} at (0,0) size 784x0
        RenderBlock (anonymous) at (0,96) size 784x96
          RenderInline {SPAN} at (0,0) size 147x96
            RenderInline {B} at (0,0) size 0x0
            RenderInline {<pseudo:after>} at (0,0) size 147x96
              RenderTextFragment at (0,0) size 147x96
                text run at (0,0) width 147: "not "
          RenderText {#text} at (146,0) size 153x96
            text run at (146,0) width 153: "fail."
