layer at (0,0) size 800x600 clip at (0,0) size 785x600 scrollHeight 663
  RenderView at (0,0) size 800x600
layer at (0,0) size 785x663 backgroundClip at (0,0) size 785x600 clip at (0,0) size 785x600 outlineClip at (0,0) size 785x600
  RenderBlock {html} at (0,0) size 785x662.58
    RenderBody {body} at (11.52,23.03) size 761.97x628.03
      RenderBlock {p} at (0,0) size 761.97x23 [color=#000080]
        RenderText {#text} at (0,0) size 591x23
          text run at (0,0) width 591: "There should be a blue circle with the word \"TEST\" in it below."
      RenderBlock (anonymous) at (0,46.03) size 761.97x582
        RenderSVGRoot {svg} at (11,69) size 577x577
          RenderSVGRect {rect} at (11,69) size 577x577 [fill={[type=SOLID] [color=#0000FF]}] [x=0.00] [y=0.00] [width=400.00] [height=400.00]
          RenderSVGEllipse {circle} at (11,69) size 577x577 [fill={[type=SOLID] [color=#000080]}] [cx=200.00] [cy=200.00] [r=200.00]
          RenderSVGForeignObject {foreignObject} at (0,175) size 400x50 [color=#FFFFFF]
            RenderBlock {div} at (0,0) size 400x51
              RenderText {#text} at (140,0) size 120x51
                text run at (140,0) width 120: "TEST"
        RenderText {#text} at (0,0) size 0x0
        RenderText {#text} at (0,0) size 0x0
        RenderText {#text} at (0,0) size 0x0
        RenderText {#text} at (0,0) size 0x0
