layer at (0,0) size 800x600
  RenderView at (0,0) size 800x600
layer at (0,0) size 800x426
  RenderBlock {HTML} at (0,0) size 800x426
    RenderBody {BODY} at (8,16) size 784x400
      RenderBlock {P} at (0,0) size 784x16
        RenderText {#text} at (0,0) size 332x16
          text run at (0,0) width 332: "You should not see double text when the div scrolls"
      RenderBlock {DIV} at (10,32) size 302x206 [border: (1px solid #000000)]
        RenderText {#text} at (0,0) size 0x0
layer at (19,49) size 300x200
  RenderVideo {VIDEO} at (1,1) size 300x200
layer at (18,264) size 302x152 clip at (19,265) size 285x150 scrollY 24.00 scrollHeight 500
  RenderBlock {DIV} at (10,248) size 302x152 [border: (1px solid #000000)]
    RenderBlock {DIV} at (1,1) size 285x500
      RenderText {#text} at (0,8) size 107x32
        text run at (0,8) width 107: "Scrolled"
      RenderBR {BR} at (106,8) size 1x32
      RenderText {#text} at (0,56) size 48x32
        text run at (0,56) width 48: "text"
      RenderBR {BR} at (47,56) size 1x32
      RenderText {#text} at (0,104) size 64x32
        text run at (0,104) width 64: "here."
layer at (19,49) size 300x200
  RenderFlexibleBox {DIV} at (0,0) size 300x200
    RenderBlock {DIV} at (0,165) size 300x35
layer at (19,49) size 300x165
  RenderFlexibleBox {DIV} at (0,0) size 300x165
