layer at (0,0) size 480x360
  RenderView at (0,0) size 480x360
layer at (0,0) size 480x360
  RenderSVGRoot {svg} at (0,0) size 480x360
    RenderSVGContainer {g} at (39,60) size 423x191 [transform={m=((1.00,0.00)(0.00,1.00)) t=(80.00,80.00)}]
      RenderSVGContainer {g} at (39,92) size 66x156 [transform={m=((1.00,0.00)(0.00,1.00)) t=(20.00,10.00)}]
        RenderSVGText {text} at (-60,2) size 65x16 contains 1 chunk(s)
          RenderSVGInlineText {#text} at (0,0) size 65x16
            chunk 1 (end anchor) text run 1 at (-60.00,15.00) startOffset 0 endOffset 11 width 65.00: "text-anchor"
        RenderSVGText {text} at (-44,37) size 49x16 contains 1 chunk(s)
          RenderSVGInlineText {#text} at (0,0) size 49x16
            chunk 1 (end anchor) text run 1 at (-44.00,50.00) startOffset 0 endOffset 9 width 49.00: "font-size"
        RenderSVGText {text} at (-58,72) size 63x16 contains 1 chunk(s)
          RenderSVGInlineText {#text} at (0,0) size 63x16
            chunk 1 (end anchor) text run 1 at (-58.00,85.00) startOffset 0 endOffset 11 width 63.00: "font-family"
        RenderSVGText {text} at (-49,107) size 54x16 contains 1 chunk(s)
          RenderSVGInlineText {#text} at (0,0) size 54x16
            chunk 1 (end anchor) text run 1 at (-49.00,120.00) startOffset 0 endOffset 10 width 54.00: "font-style"
        RenderSVGText {text} at (-61,142) size 66x16 contains 1 chunk(s)
          RenderSVGInlineText {#text} at (0,0) size 66x16
            chunk 1 (end anchor) text run 1 at (-61.00,155.00) startOffset 0 endOffset 11 width 66.00: "font-weight"
      RenderSVGContainer {g} at (171,60) size 260x16 [transform={m=((1.00,0.00)(0.00,1.00)) t=(90.00,-10.00)}]
        RenderSVGText {text} at (1,-10) size 38x16 contains 1 chunk(s)
          RenderSVGInlineText {#text} at (0,0) size 37x16
            chunk 1 (middle anchor) text run 1 at (1.50,3.00) startOffset 0 endOffset 6 width 37.00: "<text>"
        RenderSVGText {text} at (123,-10) size 24x16 contains 1 chunk(s)
          RenderSVGInlineText {#text} at (0,0) size 23x16
            chunk 1 (middle anchor) text run 1 at (123.50,3.00) startOffset 0 endOffset 3 width 23.00: "<g>"
        RenderSVGText {text} at (239,-10) size 22x16 contains 1 chunk(s)
          RenderSVGInlineText {#text} at (0,0) size 22x16
            chunk 1 (middle anchor) text run 1 at (239.00,3.00) startOffset 0 endOffset 3 width 22.00: "<a>"
      RenderSVGContainer {g} at (138,78) size 324x173 [transform={m=((1.00,0.00)(0.00,1.00)) t=(80.00,5.00)}]
        RenderSVGContainer {g} at (138,78) size 324x33
          RenderSVGHiddenContainer {defs} at (0,0) size 0x0
            RenderSVGContainer {g} at (138,78) size 104x33
              RenderSVGText {text} at (-22,-7) size 22x33 contains 1 chunk(s)
                RenderSVGInlineText {#text} at (0,0) size 22x33
                  chunk 1 (end anchor) text run 1 at (-21.67,20.00) startOffset 0 endOffset 1 width 21.67: "A"
              RenderSVGRect {rect} at (158,103) size 4x4 [fill={[type=SOLID] [color=#AAAAAA]}] [x=-2.00] [y=18.00] [width=4.00] [height=4.00]
              RenderSVGText {text} at (-11,-7) size 22x33 contains 1 chunk(s)
                RenderSVGInlineText {#text} at (0,0) size 22x33
                  chunk 1 (middle anchor) text run 1 at (-10.83,20.00) startOffset 0 endOffset 1 width 21.67: "A"
              RenderSVGRect {rect} at (188,103) size 4x4 [transform={m=((1.00,0.00)(0.00,1.00)) t=(30.00,0.00)}] [fill={[type=SOLID] [color=#AAAAAA]}] [x=-2.00] [y=18.00] [width=4.00] [height=4.00]
              RenderSVGText {text} at (0,-7) size 22x33 contains 1 chunk(s)
                RenderSVGInlineText {#text} at (0,0) size 22x33
                  chunk 1 text run 1 at (0.00,20.00) startOffset 0 endOffset 1 width 21.67: "A"
              RenderSVGRect {rect} at (218,103) size 4x4 [transform={m=((1.00,0.00)(0.00,1.00)) t=(60.00,0.00)}] [fill={[type=SOLID] [color=#AAAAAA]}] [x=-2.00] [y=18.00] [width=4.00] [height=4.00]
              RenderSVGRect {rect} at (158,103) size 4x4 [fill={[type=SOLID] [color=#CC0066]}] [x=-2.00] [y=18.00] [width=4.00] [height=4.00]
          RenderSVGContainer {use} at (138,78) size 104x33
            RenderSVGContainer {g} at (138,78) size 104x33
              RenderSVGText {text} at (-22,-7) size 22x33 contains 1 chunk(s)
                RenderSVGInlineText {#text} at (0,0) size 22x33
                  chunk 1 (end anchor) text run 1 at (-21.67,20.00) startOffset 0 endOffset 1 width 21.67: "A"
              RenderSVGRect {rect} at (158,103) size 4x4 [fill={[type=SOLID] [color=#AAAAAA]}] [x=-2.00] [y=18.00] [width=4.00] [height=4.00]
              RenderSVGText {text} at (-11,-7) size 22x33 contains 1 chunk(s)
                RenderSVGInlineText {#text} at (0,0) size 22x33
                  chunk 1 (middle anchor) text run 1 at (-10.83,20.00) startOffset 0 endOffset 1 width 21.67: "A"
              RenderSVGRect {rect} at (188,103) size 4x4 [transform={m=((1.00,0.00)(0.00,1.00)) t=(30.00,0.00)}] [fill={[type=SOLID] [color=#AAAAAA]}] [x=-2.00] [y=18.00] [width=4.00] [height=4.00]
              RenderSVGText {text} at (0,-7) size 22x33 contains 1 chunk(s)
                RenderSVGInlineText {#text} at (0,0) size 22x33
                  chunk 1 text run 1 at (0.00,20.00) startOffset 0 endOffset 1 width 21.67: "A"
              RenderSVGRect {rect} at (218,103) size 4x4 [transform={m=((1.00,0.00)(0.00,1.00)) t=(60.00,0.00)}] [fill={[type=SOLID] [color=#AAAAAA]}] [x=-2.00] [y=18.00] [width=4.00] [height=4.00]
              RenderSVGRect {rect} at (158,103) size 4x4 [fill={[type=SOLID] [color=#CC0066]}] [x=-2.00] [y=18.00] [width=4.00] [height=4.00]
          RenderSVGContainer {use} at (248,78) size 104x33 [transform={m=((1.00,0.00)(0.00,1.00)) t=(110.00,0.00)}]
            RenderSVGContainer {g} at (248,78) size 104x33
              RenderSVGText {text} at (-22,-7) size 22x33 contains 1 chunk(s)
                RenderSVGInlineText {#text} at (0,0) size 22x33
                  chunk 1 (end anchor) text run 1 at (-21.67,20.00) startOffset 0 endOffset 1 width 21.67: "A"
              RenderSVGRect {rect} at (268,103) size 4x4 [fill={[type=SOLID] [color=#AAAAAA]}] [x=-2.00] [y=18.00] [width=4.00] [height=4.00]
              RenderSVGText {text} at (-11,-7) size 22x33 contains 1 chunk(s)
                RenderSVGInlineText {#text} at (0,0) size 22x33
                  chunk 1 (middle anchor) text run 1 at (-10.83,20.00) startOffset 0 endOffset 1 width 21.67: "A"
              RenderSVGRect {rect} at (298,103) size 4x4 [transform={m=((1.00,0.00)(0.00,1.00)) t=(30.00,0.00)}] [fill={[type=SOLID] [color=#AAAAAA]}] [x=-2.00] [y=18.00] [width=4.00] [height=4.00]
              RenderSVGText {text} at (0,-7) size 22x33 contains 1 chunk(s)
                RenderSVGInlineText {#text} at (0,0) size 22x33
                  chunk 1 text run 1 at (0.00,20.00) startOffset 0 endOffset 1 width 21.67: "A"
              RenderSVGRect {rect} at (328,103) size 4x4 [transform={m=((1.00,0.00)(0.00,1.00)) t=(60.00,0.00)}] [fill={[type=SOLID] [color=#AAAAAA]}] [x=-2.00] [y=18.00] [width=4.00] [height=4.00]
              RenderSVGRect {rect} at (268,103) size 4x4 [fill={[type=SOLID] [color=#CC0066]}] [x=-2.00] [y=18.00] [width=4.00] [height=4.00]
          RenderSVGContainer {use} at (358,78) size 104x33 [transform={m=((1.00,0.00)(0.00,1.00)) t=(220.00,0.00)}]
            RenderSVGContainer {g} at (358,78) size 104x33
              RenderSVGText {text} at (-22,-7) size 22x33 contains 1 chunk(s)
                RenderSVGInlineText {#text} at (0,0) size 22x33
                  chunk 1 (end anchor) text run 1 at (-21.67,20.00) startOffset 0 endOffset 1 width 21.67: "A"
              RenderSVGRect {rect} at (378,103) size 4x4 [fill={[type=SOLID] [color=#AAAAAA]}] [x=-2.00] [y=18.00] [width=4.00] [height=4.00]
              RenderSVGText {text} at (-11,-7) size 22x33 contains 1 chunk(s)
                RenderSVGInlineText {#text} at (0,0) size 22x33
                  chunk 1 (middle anchor) text run 1 at (-10.83,20.00) startOffset 0 endOffset 1 width 21.67: "A"
              RenderSVGRect {rect} at (408,103) size 4x4 [transform={m=((1.00,0.00)(0.00,1.00)) t=(30.00,0.00)}] [fill={[type=SOLID] [color=#AAAAAA]}] [x=-2.00] [y=18.00] [width=4.00] [height=4.00]
              RenderSVGText {text} at (0,-7) size 22x33 contains 1 chunk(s)
                RenderSVGInlineText {#text} at (0,0) size 22x33
                  chunk 1 text run 1 at (0.00,20.00) startOffset 0 endOffset 1 width 21.67: "A"
              RenderSVGRect {rect} at (438,103) size 4x4 [transform={m=((1.00,0.00)(0.00,1.00)) t=(60.00,0.00)}] [fill={[type=SOLID] [color=#AAAAAA]}] [x=-2.00] [y=18.00] [width=4.00] [height=4.00]
              RenderSVGRect {rect} at (378,103) size 4x4 [fill={[type=SOLID] [color=#CC0066]}] [x=-2.00] [y=18.00] [width=4.00] [height=4.00]
          RenderSVGText {text} at (-22,-7) size 22x33 contains 1 chunk(s)
            RenderSVGInlineText {#text} at (0,0) size 22x33
              chunk 1 (end anchor) text run 1 at (-21.67,20.00) startOffset 0 endOffset 1 width 21.67: "A"
          RenderSVGContainer {g} at (248,78) size 22x33 [transform={m=((1.00,0.00)(0.00,1.00)) t=(110.00,0.00)}]
            RenderSVGText {text} at (-22,-7) size 22x33 contains 1 chunk(s)
              RenderSVGInlineText {#text} at (0,0) size 22x33
                chunk 1 (end anchor) text run 1 at (-21.67,20.00) startOffset 0 endOffset 1 width 21.67: "A"
          RenderSVGContainer {a} at (358,78) size 22x33 [transform={m=((1.00,0.00)(0.00,1.00)) t=(220.00,0.00)}]
            RenderSVGText {text} at (-22,-7) size 22x33 contains 1 chunk(s)
              RenderSVGInlineText {#text} at (0,0) size 22x33
                chunk 1 (end anchor) text run 1 at (-21.67,20.00) startOffset 0 endOffset 1 width 21.67: "A"
        RenderSVGContainer {g} at (160,113) size 302x33 [transform={m=((1.00,0.00)(0.00,1.00)) t=(0.00,35.00)}]
          RenderSVGHiddenContainer {defs} at (0,0) size 0x0
            RenderSVGContainer {g} at (160,113) size 82x33
              RenderSVGText {text} at (0,-7) size 22x33 contains 1 chunk(s)
                RenderSVGInlineText {#text} at (0,0) size 22x33
                  chunk 1 text run 1 at (0.00,20.00) startOffset 0 endOffset 1 width 21.67: "A"
              RenderSVGText {text} at (0,8) size 8x15 contains 1 chunk(s)
                RenderSVGInlineText {#text} at (0,0) size 8x15
                  chunk 1 text run 1 at (0.00,20.00) startOffset 0 endOffset 1 width 8.00: "A"
              RenderSVGText {text} at (0,-7) size 22x33 contains 1 chunk(s)
                RenderSVGInlineText {#text} at (0,0) size 22x33
                  chunk 1 text run 1 at (0.00,20.00) startOffset 0 endOffset 1 width 21.67: "A"
          RenderSVGContainer {use} at (160,113) size 82x33
            RenderSVGContainer {g} at (160,113) size 82x33
              RenderSVGText {text} at (0,-7) size 22x33 contains 1 chunk(s)
                RenderSVGInlineText {#text} at (0,0) size 22x33
                  chunk 1 text run 1 at (0.00,20.00) startOffset 0 endOffset 1 width 21.67: "A"
              RenderSVGText {text} at (0,8) size 8x15 contains 1 chunk(s)
                RenderSVGInlineText {#text} at (0,0) size 8x15
                  chunk 1 text run 1 at (0.00,20.00) startOffset 0 endOffset 1 width 8.00: "A"
              RenderSVGText {text} at (0,-7) size 22x33 contains 1 chunk(s)
                RenderSVGInlineText {#text} at (0,0) size 22x33
                  chunk 1 text run 1 at (0.00,20.00) startOffset 0 endOffset 1 width 21.67: "A"
          RenderSVGContainer {use} at (270,113) size 82x33 [transform={m=((1.00,0.00)(0.00,1.00)) t=(110.00,0.00)}]
            RenderSVGContainer {g} at (270,113) size 82x33
              RenderSVGText {text} at (0,-7) size 22x33 contains 1 chunk(s)
                RenderSVGInlineText {#text} at (0,0) size 22x33
                  chunk 1 text run 1 at (0.00,20.00) startOffset 0 endOffset 1 width 21.67: "A"
              RenderSVGText {text} at (0,8) size 8x15 contains 1 chunk(s)
                RenderSVGInlineText {#text} at (0,0) size 8x15
                  chunk 1 text run 1 at (0.00,20.00) startOffset 0 endOffset 1 width 8.00: "A"
              RenderSVGText {text} at (0,-7) size 22x33 contains 1 chunk(s)
                RenderSVGInlineText {#text} at (0,0) size 22x33
                  chunk 1 text run 1 at (0.00,20.00) startOffset 0 endOffset 1 width 21.67: "A"
          RenderSVGContainer {use} at (380,113) size 82x33 [transform={m=((1.00,0.00)(0.00,1.00)) t=(220.00,0.00)}]
            RenderSVGContainer {g} at (380,113) size 82x33
              RenderSVGText {text} at (0,-7) size 22x33 contains 1 chunk(s)
                RenderSVGInlineText {#text} at (0,0) size 22x33
                  chunk 1 text run 1 at (0.00,20.00) startOffset 0 endOffset 1 width 21.67: "A"
              RenderSVGText {text} at (0,8) size 8x15 contains 1 chunk(s)
                RenderSVGInlineText {#text} at (0,0) size 8x15
                  chunk 1 text run 1 at (0.00,20.00) startOffset 0 endOffset 1 width 8.00: "A"
              RenderSVGText {text} at (0,-7) size 22x33 contains 1 chunk(s)
                RenderSVGInlineText {#text} at (0,0) size 22x33
                  chunk 1 text run 1 at (0.00,20.00) startOffset 0 endOffset 1 width 21.67: "A"
          RenderSVGText {text} at (0,-7) size 22x33 contains 1 chunk(s)
            RenderSVGInlineText {#text} at (0,0) size 22x33
              chunk 1 text run 1 at (0.00,20.00) startOffset 0 endOffset 1 width 21.67: "A"
          RenderSVGContainer {g} at (270,113) size 22x33 [transform={m=((1.00,0.00)(0.00,1.00)) t=(110.00,0.00)}]
            RenderSVGText {text} at (0,-7) size 22x33 contains 1 chunk(s)
              RenderSVGInlineText {#text} at (0,0) size 22x33
                chunk 1 text run 1 at (0.00,20.00) startOffset 0 endOffset 1 width 21.67: "A"
          RenderSVGContainer {a} at (380,113) size 22x33 [transform={m=((1.00,0.00)(0.00,1.00)) t=(220.00,0.00)}]
            RenderSVGText {text} at (0,-7) size 22x33 contains 1 chunk(s)
              RenderSVGInlineText {#text} at (0,0) size 22x33
                chunk 1 text run 1 at (0.00,20.00) startOffset 0 endOffset 1 width 21.67: "A"
        RenderSVGContainer {g} at (160,148) size 302x33 [transform={m=((1.00,0.00)(0.00,1.00)) t=(0.00,70.00)}]
          RenderSVGHiddenContainer {defs} at (0,0) size 0x0
            RenderSVGContainer {g} at (160,148) size 82x33
              RenderSVGText {text} at (0,-7) size 22x33 contains 1 chunk(s)
                RenderSVGInlineText {#text} at (0,0) size 22x33
                  chunk 1 text run 1 at (0.00,20.00) startOffset 0 endOffset 1 width 21.67: "A"
              RenderSVGText {text} at (30,-7) size 22x33 contains 1 chunk(s)
                RenderSVGInlineText {#text} at (0,0) size 22x33
                  chunk 1 text run 1 at (30.00,20.00) startOffset 0 endOffset 1 width 21.67: "A"
              RenderSVGText {text} at (60,-7) size 22x33 contains 1 chunk(s)
                RenderSVGInlineText {#text} at (0,0) size 22x33
                  chunk 1 text run 1 at (60.00,20.00) startOffset 0 endOffset 1 width 21.67: "A"
          RenderSVGContainer {use} at (160,148) size 82x33
            RenderSVGContainer {g} at (160,148) size 82x33
              RenderSVGText {text} at (0,-7) size 22x33 contains 1 chunk(s)
                RenderSVGInlineText {#text} at (0,0) size 22x33
                  chunk 1 text run 1 at (0.00,20.00) startOffset 0 endOffset 1 width 21.67: "A"
              RenderSVGText {text} at (30,-7) size 22x33 contains 1 chunk(s)
                RenderSVGInlineText {#text} at (0,0) size 22x33
                  chunk 1 text run 1 at (30.00,20.00) startOffset 0 endOffset 1 width 21.67: "A"
              RenderSVGText {text} at (60,-7) size 22x33 contains 1 chunk(s)
                RenderSVGInlineText {#text} at (0,0) size 22x33
                  chunk 1 text run 1 at (60.00,20.00) startOffset 0 endOffset 1 width 21.67: "A"
          RenderSVGContainer {use} at (270,148) size 82x33 [transform={m=((1.00,0.00)(0.00,1.00)) t=(110.00,0.00)}]
            RenderSVGContainer {g} at (270,148) size 82x33
              RenderSVGText {text} at (0,-7) size 22x33 contains 1 chunk(s)
                RenderSVGInlineText {#text} at (0,0) size 22x33
                  chunk 1 text run 1 at (0.00,20.00) startOffset 0 endOffset 1 width 21.67: "A"
              RenderSVGText {text} at (30,-7) size 22x33 contains 1 chunk(s)
                RenderSVGInlineText {#text} at (0,0) size 22x33
                  chunk 1 text run 1 at (30.00,20.00) startOffset 0 endOffset 1 width 21.67: "A"
              RenderSVGText {text} at (60,-7) size 22x33 contains 1 chunk(s)
                RenderSVGInlineText {#text} at (0,0) size 22x33
                  chunk 1 text run 1 at (60.00,20.00) startOffset 0 endOffset 1 width 21.67: "A"
          RenderSVGContainer {use} at (380,148) size 82x33 [transform={m=((1.00,0.00)(0.00,1.00)) t=(220.00,0.00)}]
            RenderSVGContainer {g} at (380,148) size 82x33
              RenderSVGText {text} at (0,-7) size 22x33 contains 1 chunk(s)
                RenderSVGInlineText {#text} at (0,0) size 22x33
                  chunk 1 text run 1 at (0.00,20.00) startOffset 0 endOffset 1 width 21.67: "A"
              RenderSVGText {text} at (30,-7) size 22x33 contains 1 chunk(s)
                RenderSVGInlineText {#text} at (0,0) size 22x33
                  chunk 1 text run 1 at (30.00,20.00) startOffset 0 endOffset 1 width 21.67: "A"
              RenderSVGText {text} at (60,-7) size 22x33 contains 1 chunk(s)
                RenderSVGInlineText {#text} at (0,0) size 22x33
                  chunk 1 text run 1 at (60.00,20.00) startOffset 0 endOffset 1 width 21.67: "A"
          RenderSVGText {text} at (0,-7) size 22x33 contains 1 chunk(s)
            RenderSVGInlineText {#text} at (0,0) size 22x33
              chunk 1 text run 1 at (0.00,20.00) startOffset 0 endOffset 1 width 21.67: "A"
          RenderSVGContainer {g} at (270,148) size 22x33 [transform={m=((1.00,0.00)(0.00,1.00)) t=(110.00,0.00)}]
            RenderSVGText {text} at (0,-7) size 22x33 contains 1 chunk(s)
              RenderSVGInlineText {#text} at (0,0) size 22x33
                chunk 1 text run 1 at (0.00,20.00) startOffset 0 endOffset 1 width 21.67: "A"
          RenderSVGContainer {a} at (380,148) size 22x33 [transform={m=((1.00,0.00)(0.00,1.00)) t=(220.00,0.00)}]
            RenderSVGText {text} at (0,-7) size 22x33 contains 1 chunk(s)
              RenderSVGInlineText {#text} at (0,0) size 22x33
                chunk 1 text run 1 at (0.00,20.00) startOffset 0 endOffset 1 width 21.67: "A"
        RenderSVGContainer {g} at (160,183) size 302x33 [transform={m=((1.00,0.00)(0.00,1.00)) t=(0.00,105.00)}]
          RenderSVGHiddenContainer {defs} at (0,0) size 0x0
            RenderSVGContainer {g} at (160,183) size 82x33
              RenderSVGText {text} at (0,-7) size 22x33 contains 1 chunk(s)
                RenderSVGInlineText {#text} at (0,0) size 22x33
                  chunk 1 text run 1 at (0.00,20.00) startOffset 0 endOffset 1 width 21.67: "A"
              RenderSVGText {text} at (30,-7) size 21x33 contains 1 chunk(s)
                RenderSVGInlineText {#text} at (0,0) size 21x33
                  chunk 1 text run 1 at (30.00,20.00) startOffset 0 endOffset 1 width 20.01: "A"
              RenderSVGText {text} at (60,-7) size 22x33 contains 1 chunk(s)
                RenderSVGInlineText {#text} at (0,0) size 22x33
                  chunk 1 text run 1 at (60.00,20.00) startOffset 0 endOffset 1 width 21.67: "A"
          RenderSVGContainer {use} at (160,183) size 82x33
            RenderSVGContainer {g} at (160,183) size 82x33
              RenderSVGText {text} at (0,-7) size 22x33 contains 1 chunk(s)
                RenderSVGInlineText {#text} at (0,0) size 22x33
                  chunk 1 text run 1 at (0.00,20.00) startOffset 0 endOffset 1 width 21.67: "A"
              RenderSVGText {text} at (30,-7) size 21x33 contains 1 chunk(s)
                RenderSVGInlineText {#text} at (0,0) size 21x33
                  chunk 1 text run 1 at (30.00,20.00) startOffset 0 endOffset 1 width 20.01: "A"
              RenderSVGText {text} at (60,-7) size 22x33 contains 1 chunk(s)
                RenderSVGInlineText {#text} at (0,0) size 22x33
                  chunk 1 text run 1 at (60.00,20.00) startOffset 0 endOffset 1 width 21.67: "A"
          RenderSVGContainer {use} at (270,183) size 82x33 [transform={m=((1.00,0.00)(0.00,1.00)) t=(110.00,0.00)}]
            RenderSVGContainer {g} at (270,183) size 82x33
              RenderSVGText {text} at (0,-7) size 22x33 contains 1 chunk(s)
                RenderSVGInlineText {#text} at (0,0) size 22x33
                  chunk 1 text run 1 at (0.00,20.00) startOffset 0 endOffset 1 width 21.67: "A"
              RenderSVGText {text} at (30,-7) size 21x33 contains 1 chunk(s)
                RenderSVGInlineText {#text} at (0,0) size 21x33
                  chunk 1 text run 1 at (30.00,20.00) startOffset 0 endOffset 1 width 20.01: "A"
              RenderSVGText {text} at (60,-7) size 22x33 contains 1 chunk(s)
                RenderSVGInlineText {#text} at (0,0) size 22x33
                  chunk 1 text run 1 at (60.00,20.00) startOffset 0 endOffset 1 width 21.67: "A"
          RenderSVGContainer {use} at (380,183) size 82x33 [transform={m=((1.00,0.00)(0.00,1.00)) t=(220.00,0.00)}]
            RenderSVGContainer {g} at (380,183) size 82x33
              RenderSVGText {text} at (0,-7) size 22x33 contains 1 chunk(s)
                RenderSVGInlineText {#text} at (0,0) size 22x33
                  chunk 1 text run 1 at (0.00,20.00) startOffset 0 endOffset 1 width 21.67: "A"
              RenderSVGText {text} at (30,-7) size 21x33 contains 1 chunk(s)
                RenderSVGInlineText {#text} at (0,0) size 21x33
                  chunk 1 text run 1 at (30.00,20.00) startOffset 0 endOffset 1 width 20.01: "A"
              RenderSVGText {text} at (60,-7) size 22x33 contains 1 chunk(s)
                RenderSVGInlineText {#text} at (0,0) size 22x33
                  chunk 1 text run 1 at (60.00,20.00) startOffset 0 endOffset 1 width 21.67: "A"
          RenderSVGText {text} at (0,-7) size 22x33 contains 1 chunk(s)
            RenderSVGInlineText {#text} at (0,0) size 22x33
              chunk 1 text run 1 at (0.00,20.00) startOffset 0 endOffset 1 width 21.67: "A"
          RenderSVGContainer {g} at (270,183) size 22x33 [transform={m=((1.00,0.00)(0.00,1.00)) t=(110.00,0.00)}]
            RenderSVGText {text} at (0,-7) size 22x33 contains 1 chunk(s)
              RenderSVGInlineText {#text} at (0,0) size 22x33
                chunk 1 text run 1 at (0.00,20.00) startOffset 0 endOffset 1 width 21.67: "A"
          RenderSVGContainer {a} at (380,183) size 22x33 [transform={m=((1.00,0.00)(0.00,1.00)) t=(220.00,0.00)}]
            RenderSVGText {text} at (0,-7) size 22x33 contains 1 chunk(s)
              RenderSVGInlineText {#text} at (0,0) size 22x33
                chunk 1 text run 1 at (0.00,20.00) startOffset 0 endOffset 1 width 21.67: "A"
        RenderSVGContainer {g} at (160,218) size 302x33 [transform={m=((1.00,0.00)(0.00,1.00)) t=(0.00,140.00)}]
          RenderSVGHiddenContainer {defs} at (0,0) size 0x0
            RenderSVGContainer {g} at (160,218) size 82x33
              RenderSVGText {text} at (0,-7) size 22x33 contains 1 chunk(s)
                RenderSVGInlineText {#text} at (0,0) size 22x33
                  chunk 1 text run 1 at (0.00,20.00) startOffset 0 endOffset 1 width 21.67: "A"
              RenderSVGText {text} at (30,-7) size 22x33 contains 1 chunk(s)
                RenderSVGInlineText {#text} at (0,0) size 22x33
                  chunk 1 text run 1 at (30.00,20.00) startOffset 0 endOffset 1 width 21.67: "A"
              RenderSVGText {text} at (60,-7) size 22x33 contains 1 chunk(s)
                RenderSVGInlineText {#text} at (0,0) size 22x33
                  chunk 1 text run 1 at (60.00,20.00) startOffset 0 endOffset 1 width 21.67: "A"
          RenderSVGContainer {use} at (160,218) size 82x33
            RenderSVGContainer {g} at (160,218) size 82x33
              RenderSVGText {text} at (0,-7) size 22x33 contains 1 chunk(s)
                RenderSVGInlineText {#text} at (0,0) size 22x33
                  chunk 1 text run 1 at (0.00,20.00) startOffset 0 endOffset 1 width 21.67: "A"
              RenderSVGText {text} at (30,-7) size 22x33 contains 1 chunk(s)
                RenderSVGInlineText {#text} at (0,0) size 22x33
                  chunk 1 text run 1 at (30.00,20.00) startOffset 0 endOffset 1 width 21.67: "A"
              RenderSVGText {text} at (60,-7) size 22x33 contains 1 chunk(s)
                RenderSVGInlineText {#text} at (0,0) size 22x33
                  chunk 1 text run 1 at (60.00,20.00) startOffset 0 endOffset 1 width 21.67: "A"
          RenderSVGContainer {use} at (270,218) size 82x33 [transform={m=((1.00,0.00)(0.00,1.00)) t=(110.00,0.00)}]
            RenderSVGContainer {g} at (270,218) size 82x33
              RenderSVGText {text} at (0,-7) size 22x33 contains 1 chunk(s)
                RenderSVGInlineText {#text} at (0,0) size 22x33
                  chunk 1 text run 1 at (0.00,20.00) startOffset 0 endOffset 1 width 21.67: "A"
              RenderSVGText {text} at (30,-7) size 22x33 contains 1 chunk(s)
                RenderSVGInlineText {#text} at (0,0) size 22x33
                  chunk 1 text run 1 at (30.00,20.00) startOffset 0 endOffset 1 width 21.67: "A"
              RenderSVGText {text} at (60,-7) size 22x33 contains 1 chunk(s)
                RenderSVGInlineText {#text} at (0,0) size 22x33
                  chunk 1 text run 1 at (60.00,20.00) startOffset 0 endOffset 1 width 21.67: "A"
          RenderSVGContainer {use} at (380,218) size 82x33 [transform={m=((1.00,0.00)(0.00,1.00)) t=(220.00,0.00)}]
            RenderSVGContainer {g} at (380,218) size 82x33
              RenderSVGText {text} at (0,-7) size 22x33 contains 1 chunk(s)
                RenderSVGInlineText {#text} at (0,0) size 22x33
                  chunk 1 text run 1 at (0.00,20.00) startOffset 0 endOffset 1 width 21.67: "A"
              RenderSVGText {text} at (30,-7) size 22x33 contains 1 chunk(s)
                RenderSVGInlineText {#text} at (0,0) size 22x33
                  chunk 1 text run 1 at (30.00,20.00) startOffset 0 endOffset 1 width 21.67: "A"
              RenderSVGText {text} at (60,-7) size 22x33 contains 1 chunk(s)
                RenderSVGInlineText {#text} at (0,0) size 22x33
                  chunk 1 text run 1 at (60.00,20.00) startOffset 0 endOffset 1 width 21.67: "A"
          RenderSVGText {text} at (0,-7) size 22x33 contains 1 chunk(s)
            RenderSVGInlineText {#text} at (0,0) size 22x33
              chunk 1 text run 1 at (0.00,20.00) startOffset 0 endOffset 1 width 21.67: "A"
          RenderSVGContainer {g} at (270,218) size 22x33 [transform={m=((1.00,0.00)(0.00,1.00)) t=(110.00,0.00)}]
            RenderSVGText {text} at (0,-7) size 22x33 contains 1 chunk(s)
              RenderSVGInlineText {#text} at (0,0) size 22x33
                chunk 1 text run 1 at (0.00,20.00) startOffset 0 endOffset 1 width 21.67: "A"
          RenderSVGContainer {g} at (380,218) size 22x33 [transform={m=((1.00,0.00)(0.00,1.00)) t=(220.00,0.00)}]
            RenderSVGText {text} at (0,-7) size 22x33 contains 1 chunk(s)
              RenderSVGInlineText {#text} at (0,0) size 22x33
                chunk 1 text run 1 at (0.00,20.00) startOffset 0 endOffset 1 width 21.67: "A"
    RenderSVGText {text} at (10,304) size 264x45 contains 1 chunk(s)
      RenderSVGInlineText {#text} at (0,0) size 264x45
        chunk 1 text run 1 at (10.00,340.00) startOffset 0 endOffset 16 width 263.34: "$Revision: 1.8 $"
    RenderSVGRect {rect} at (0,0) size 480x360 [stroke={[type=SOLID] [color=#000000]}] [x=1.00] [y=1.00] [width=478.00] [height=358.00]
