layer at (0,0) size 480x360
  RenderView at (0,0) size 480x360
layer at (0,0) size 480x360
  RenderSVGRoot {svg} at (0,0) size 480x360
    RenderSVGContainer {g} at (9,9) size 462x292
      RenderSVGHiddenContainer {defs} at (0,0) size 0x0
      RenderSVGText {text} at (60,9) size 323x44 contains 1 chunk(s)
        RenderSVGInlineText {#text} at (0,0) size 323x44
          chunk 1 text run 1 at (60.00,45.00) startOffset 0 endOffset 18 width 322.44: "Event bubbling - b"
      RenderSVGContainer {g} at (9,59) size 462x242
        RenderSVGRect {rect} at (9,59) size 462x122 [stroke={[type=SOLID] [color=#000000]}] [fill={[type=SOLID] [color=#EEEEEE]}] [x=10.00] [y=60.00] [width=460.00] [height=120.00]
        RenderSVGRect {rect} at (9,179) size 462x122 [stroke={[type=SOLID] [color=#000000]}] [fill={[type=SOLID] [color=#FFFFFF]}] [x=10.00] [y=180.00] [width=460.00] [height=120.00]
      RenderSVGContainer {g} at (20,70) size 378x220
        RenderSVGContainer {a} at (20,70) size 100x220
          RenderSVGEllipse {circle} at (20,70) size 100x100 [fill={[type=SOLID] [color=#000000]}] [cx=70.00] [cy=120.00] [r=50.00]
          RenderSVGEllipse {circle} at (20,190) size 100x100 [fill={[type=SOLID] [color=#000000]}] [cx=70.00] [cy=240.00] [r=50.00]
        RenderSVGText {text} at (135,74) size 258x44 contains 1 chunk(s)
          RenderSVGInlineText {#text} at (0,0) size 258x44
            chunk 1 text run 1 at (135.00,110.00) startOffset 0 endOffset 16 width 257.83: "Click on circle,"
        RenderSVGText {text} at (135,114) size 263x44 contains 1 chunk(s)
          RenderSVGInlineText {#text} at (0,0) size 263x44
            chunk 1 text run 1 at (135.00,150.00) startOffset 0 endOffset 16 width 262.30: "circle turns red"
        RenderSVGText {text} at (135,194) size 258x44 contains 1 chunk(s)
          RenderSVGInlineText {#text} at (0,0) size 258x44
            chunk 1 text run 1 at (135.00,230.00) startOffset 0 endOffset 16 width 257.83: "Click on circle,"
        RenderSVGText {text} at (135,234) size 161x44 contains 1 chunk(s)
          RenderSVGInlineText {#text} at (0,0) size 161x44
            chunk 1 text run 1 at (135.00,270.00) startOffset 0 endOffset 9 width 160.08: "hyperlink"
    RenderSVGText {text} at (10,304) size 264x45 contains 1 chunk(s)
      RenderSVGInlineText {#text} at (0,0) size 264x45
        chunk 1 text run 1 at (10.00,340.00) startOffset 0 endOffset 16 width 263.34: "$Revision: 1.3 $"
    RenderSVGRect {rect} at (0,0) size 480x360 [stroke={[type=SOLID] [color=#000000]}] [x=1.00] [y=1.00] [width=478.00] [height=358.00]
