layer at (0,0) size 800x600
  RenderView at (0,0) size 800x600
layer at (0,0) size 800x410
  RenderBlock {html} at (0,0) size 800x410
    RenderBody {body} at (0,0) size 800x410
      RenderSVGRoot {svg} at (0,0) size 406x410
        RenderSVGEllipse {circle} at (150,150) size 100x100 [fill={[type=SOLID] [color=#008000]}] [cx=197.00] [cy=197.00] [r=50.00]
        RenderSVGText {text} at (90,38) size 220x16 contains 1 chunk(s)
          RenderSVGInlineText {#text} at (0,0) size 219x16
            chunk 1 (middle anchor) text run 1 at (90.70,50.00) startOffset 0 endOffset 34 width 218.60: "The circle should be in the middle"
      RenderText {#text} at (0,0) size 0x0
      RenderText {#text} at (0,0) size 0x0
caret: position 0 of child 0 {#text} of child 3 {text} of child 1 {svg} of body
