layer at (0,0) size 800x600
  RenderView at (0,0) size 800x600
layer at (0,0) size 800x600
  RenderSVGRoot {svg} at (0,0) size 800x600
    RenderSVGContainer {g} at (71,78) size 696x335
      RenderSVGText {text} at (106,47) size 354x46 contains 1 chunk(s)
        RenderSVGInlineText {#text} at (0,0) size 354x46
          chunk 1 (end anchor) text run 1 at (106.60,80.00) startOffset 0 endOffset 37 width 353.40 RTL: "\x{644}\x{645}\x{627}\x{630}\x{627} \x{644}\x{627} \x{64A}\x{62A}\x{643}\x{644}\x{645}\x{648}\x{646} \x{627}\x{644}\x{644}\x{651}\x{63A}\x{629} \x{627}\x{644}\x{639}\x{631}\x{628}\x{64A}\x{629} \x{641}\x{62D}\x{633}\x{628}\x{61F}"
      RenderSVGText {text} at (43,127) size 417x42 contains 1 chunk(s)
        RenderSVGInlineText {#text} at (0,0) size 417x41
          chunk 1 (end anchor) text run 1 at (43.00,160.00) startOffset 0 endOffset 37 width 417.00 RTL: "\x{644}\x{645}\x{627}\x{630}\x{627} \x{644}\x{627} \x{64A}\x{62A}\x{643}\x{644}\x{645}\x{648}\x{646} \x{627}\x{644}\x{644}\x{651}\x{63A}\x{629} \x{627}\x{644}\x{639}\x{631}\x{628}\x{64A}\x{629} \x{641}\x{62D}\x{633}\x{628}\x{61F}"
      RenderSVGText {text} at (113,213) size 347x35 contains 1 chunk(s)
        RenderSVGInlineText {#text} at (0,0) size 347x35
          chunk 1 (end anchor) text run 1 at (113.20,240.00) startOffset 0 endOffset 37 width 346.80 RTL: "\x{644}\x{645}\x{627}\x{630}\x{627} \x{644}\x{627} \x{64A}\x{62A}\x{643}\x{644}\x{645}\x{648}\x{646} \x{627}\x{644}\x{644}\x{651}\x{63A}\x{629} \x{627}\x{644}\x{639}\x{631}\x{628}\x{64A}\x{629} \x{641}\x{62D}\x{633}\x{628}\x{61F}"
    RenderSVGText {text} at (10,304) size 260x46 contains 1 chunk(s)
      RenderSVGInlineText {#text} at (0,0) size 260x45
        chunk 1 text run 1 at (10.00,340.00) startOffset 0 endOffset 16 width 259.80: "$Revision: 1.4 $"
    RenderSVGRect {rect} at (0,0) size 800x600 [stroke={[type=SOLID] [color=#000000]}] [x=1.00] [y=1.00] [width=478.00] [height=358.00]
selection start: position 0 of child 0 {#text} of child 1 {text} of child 33 {g} of child 0 {svg} of document
selection end:   position 16 of child 0 {#text} of child 35 {text} of child 0 {svg} of document
