{
  "bounds": [800, 600],
  "children": [
    {
      "bounds": [800, 600],
      "contentsOpaque": true,
      "drawsContent": true,
      "repaintRects": [
        [400, 128, 392, 160],
        [400, 128, 392, 160],
        [148, 128, 644, 100],
        [148, 128, 644, 100],
        [148, 128, 644, 100],
        [148, 128, 644, 100],
        [148, 128, 252, 160],
        [139, 128, 653, 100],
        [139, 128, 653, 100],
        [139, 128, 9, 100],
        [8, 228, 784, 60],
        [8, 228, 784, 60],
        [8, 228, 392, 60],
        [0, 236, 800, 60]
      ]
    }
  ]
}

