{
  "bounds": [200, 300],
  "children": [
    {
      "bounds": [200, 300],
      "contentsOpaque": true,
      "drawsContent": true,
      "repaintRects": [
        [0, 200, 200, 100],
        [0, 50, 100, 25]
      ]
    }
  ]
}
{
  "bounds": [300, 300],
  "children": [
    {
      "bounds": [300, 300],
      "contentsOpaque": true,
      "drawsContent": true,
      "repaintRects": [
        [0, 0, 300, 300],
        [0, 0, 200, 300]
      ]
    }
  ]
}
{
  "bounds": [300, 250],
  "children": [
    {
      "bounds": [300, 250],
      "contentsOpaque": true,
      "drawsContent": true,
      "repaintRects": [
        [0, 63, 150, 12]
      ]
    }
  ]
}
{
  "bounds": [250, 250],
  "children": [
    {
      "bounds": [250, 250],
      "contentsOpaque": true,
      "drawsContent": true,
      "repaintRects": [
        [0, 0, 300, 250],
        [0, 0, 250, 250]
      ]
    }
  ]
}

