layer at (0,0) size 800x600
  RenderView at (0,0) size 800x600
layer at (0,0) size 800x183
  RenderBlock {HTML} at (0,0) size 800x183
    RenderBody {BODY} at (8,8) size 784x167
      RenderBlock (anonymous) at (0,0) size 784x17
        RenderInline {DIV} at (0,0) size 528x16 [color=#FFFFFF] [bgcolor=#FF0000]
          RenderText {#text} at (0,0) size 528x16
            text run at (0,0) width 528: "Ahem_font_required_for_this_test."
        RenderText {#text} at (0,0) size 0x0
      RenderTable {TABLE} at (0,17) size 342x150
        RenderTableSection {TBODY} at (0,0) size 342x150
          RenderTableRow {TR} at (0,2) size 342x146
            RenderTableCell {TD} at (2,2) size 338x146 [r=0 c=0 rs=1 cs=1]
              RenderBlock {PRE} at (1,17) size 336x112 [color=#00FF00] [bgcolor=#008000]
                RenderText {#text} at (0,0) size 336x112
                  text run at (0,0) width 336: "                     "
                  text run at (336,0) width 0: " "
                  text run at (0,16) width 336: " xxxx xxxx xxxx xxxx "
                  text run at (336,16) width 0: " "
                  text run at (0,32) width 336: " x  x x  x x    x    "
                  text run at (336,32) width 0: " "
                  text run at (0,48) width 320: " xxxx xxxx xxxx xxxx"
                  text run at (320,48) width 0: " "
                  text run at (0,64) width 336: " x    x  x    x    x "
                  text run at (336,64) width 0: " "
                  text run at (0,80) width 336: " x    x  x xxxx xxxx "
                  text run at (336,80) width 0: " "
                  text run at (0,96) width 336: "                     "
