layer at (0,0) size 800x600
  RenderView at (0,0) size 800x600
layer at (0,0) size 800x600
  RenderBlock {HTML} at (0,0) size 800x600
    RenderBody {BODY} at (8,8) size 784x570.56
      RenderBlock {H1} at (0,0) size 784x32 [bgcolor=#008000]
        RenderText {#text} at (0,0) size 581x32
          text run at (0,0) width 581: "This text should have a green background."
