layer at (0,0) size 800x600
  RenderView at (0,0) size 800x600
layer at (0,0) size 800x264
  RenderBlock {HTML} at (0,0) size 800x264
    RenderBody {BODY} at (8,8) size 784x236
      RenderBlock (anonymous) at (0,0) size 784x16
        RenderSVGRoot {svg} at (8,20) size 0x0
          RenderSVGHiddenContainer {defs} at (0,0) size 0x0
            RenderSVGResourceFilter {filter} [id="merge"] [filterUnits=objectBoundingBox] [primitiveUnits=userSpaceOnUse]
              [feMerge mergeNodes="2"]
                [feOffset dx="-80.00" dy="-80.00"]
                  [feColorMatrix type="MATRIX" values="1.00 0.00 0.00 0.00 0.00 0.00 1.00 0.00 0.00 0.00 0.00 0.00 1.00 0.00 0.00 0.00 0.00 0.00 0.30 0.00"]
                    [SourceGraphic]
                [feOffset dx="80.00" dy="80.00"]
                  [feColorMatrix type="MATRIX" values="1.00 0.00 0.00 0.00 0.00 0.00 1.00 0.00 0.00 0.00 0.00 0.00 1.00 0.00 0.00 0.00 0.00 0.00 0.30 0.00"]
                    [SourceGraphic]
        RenderText {#text} at (0,0) size 0x0
layer at (28,44) size 200x200
  RenderBlock {DIV} at (20,36) size 200x200 [bgcolor=#008000]
