layer at (0,0) size 800x600
  RenderView at (0,0) size 800x600
layer at (0,0) size 450x500
  RenderSVGRoot {svg} at (0,0) size 448x498
    RenderSVGHiddenContainer {defs} at (0,0) size 0x0
      RenderSVGResourceFilter {filter} [id="gaussianBlur"] [filterUnits=userSpaceOnUse] [primitiveUnits=userSpaceOnUse]
        [feGaussianBlur stdDeviation="2.00, 2.00"]
          [SourceGraphic]
      RenderSVGText {text} at (-23,-12) size 46x16 contains 1 chunk(s)
        RenderSVGInlineText {#text} at (0,0) size 46x16
          chunk 1 (middle anchor) text run 1 at (-22.66,0.00) startOffset 0 endOffset 6 width 45.32: "sample"
    RenderSVGContainer {g} at (0,36) size 432x434
      RenderSVGText {text} at (55,36) size 340x17 contains 1 chunk(s)
        RenderSVGInlineText {#text} at (0,0) size 340x17
          chunk 1 (middle anchor) text run 1 at (55.33,50.00) startOffset 0 endOffset 47 width 339.33: "Text Alignment, Geometry, References, and Spans"
      RenderSVGContainer {g} at (114,70) size 226x70
        RenderSVGPath {line} at (224,70) size 2x70 [stroke={[type=SOLID] [color=#808080]}] [fill={[type=SOLID] [color=#000000]}] [x1=225.00] [y1=70.00] [x2=225.00] [y2=140.00]
        RenderSVGText {text} at (225,79) size 115x15 contains 1 chunk(s)
          RenderSVGInlineText {#text} at (0,0) size 115x15
            chunk 1 text run 1 at (225.00,90.00) startOffset 0 endOffset 19 width 114.83: "text-anchor=\"start\""
        RenderSVGText {text} at (159,99) size 132x15 contains 1 chunk(s)
          RenderSVGInlineText {#text} at (0,0) size 131x15
            chunk 1 (middle anchor) text run 1 at (159.67,110.00) startOffset 0 endOffset 20 width 130.66: "text-anchor=\"middle\""
        RenderSVGText {text} at (114,119) size 111x15 contains 1 chunk(s)
          RenderSVGInlineText {#text} at (0,0) size 111x15
            chunk 1 (end anchor) text run 1 at (114.34,130.00) startOffset 0 endOffset 17 width 110.66: "text-anchor=\"end\""
      RenderSVGContainer {g} at (46,152) size 108x47 [transform={m=((1.00,0.00)(0.00,1.00)) t=(100.00,180.00)}]
        RenderSVGText {text} at (-54,-28) size 108x37 contains 1 chunk(s)
          RenderSVGInlineText {#text} at (0,0) size 108x37
            chunk 1 (middle anchor) text run 1 at (-53.52,0.00) startOffset 0 endOffset 6 width 107.04: "sample"
        RenderSVGText {text} at (-53,3) size 106x16 contains 1 chunk(s)
          RenderSVGInlineText {#text} at (0,0) size 106x16
            chunk 1 (middle anchor) text run 1 at (-52.80,15.00) startOffset 0 endOffset 15 width 105.61: "font-size=\"1cm\""
      RenderSVGContainer {g} at (167,156) size 116x43 [transform={m=((1.00,0.00)(0.00,1.00)) t=(225.00,180.00)}]
        RenderSVGText {text} at (-46,-24) size 92x32 contains 1 chunk(s)
          RenderSVGInlineText {#text} at (0,0) size 91x32
            chunk 1 (middle anchor) text run 1 at (-45.32,0.00) startOffset 0 endOffset 6 width 90.64: "sample"
        RenderSVGText {text} at (-58,3) size 116x16 contains 1 chunk(s)
          RenderSVGInlineText {#text} at (0,0) size 116x16
            chunk 1 (middle anchor) text run 1 at (-57.70,15.00) startOffset 0 endOffset 16 width 115.39: "font-size=\"200%\""
      RenderSVGContainer {g} at (293,150) size 114x49 [transform={m=((1.00,0.00)(0.00,1.00)) t=(350.00,180.00)}]
        RenderSVGText {text} at (-57,-30) size 114x40 contains 1 chunk(s)
          RenderSVGInlineText {#text} at (0,0) size 114x40
            chunk 1 (middle anchor) text run 1 at (-56.65,0.00) startOffset 0 endOffset 6 width 113.30: "sample"
        RenderSVGText {text} at (-48,3) size 96x16 contains 1 chunk(s)
          RenderSVGInlineText {#text} at (0,0) size 95x16
            chunk 1 (middle anchor) text run 1 at (-47.03,15.00) startOffset 0 endOffset 14 width 94.06: "font-size=\"28\""
      RenderSVGContainer {g} at (18,228) size 164x16 [transform={m=((1.00,0.00)(0.00,1.00)) t=(100.00,225.00)}]
        RenderSVGText {text}
        RenderSVGText {text} at (-82,3) size 164x16 contains 1 chunk(s)
          RenderSVGInlineText {#text} at (0,0) size 164x16
            chunk 1 (middle anchor) text run 1 at (-81.64,15.00) startOffset 0 endOffset 26 width 163.28: "referenced text via <tref>"
      RenderSVGContainer {g} at (177,202) size 96x42 [transform={m=((1.00,0.00)(0.00,1.00)) t=(225.00,225.00)}]
        RenderSVGText {text} at (-44,-23) size 88x31 contains 1 chunk(s)
          RenderSVGInlineText {#text} at (0,0) size 25x31
            chunk 1 (middle anchor) text run 1 at (-43.32,0.00) startOffset 0 endOffset 2 width 24.99: "sa"
          RenderSVGTSpan {tspan} at (0,0) size 26x31
            RenderSVGInlineText {#text} at (24,0) size 25x31
              chunk 1 (middle anchor) text run 1 at (-18.33,0.00) startOffset 0 endOffset 1 width 24.99: "m"
          RenderSVGInlineText {#text} at (49,0) size 37x31
            chunk 1 (middle anchor) text run 1 at (6.67,0.00) startOffset 0 endOffset 3 width 36.65: "ple"
        RenderSVGText {text} at (-48,3) size 96x16 contains 1 chunk(s)
          RenderSVGInlineText {#text} at (0,0) size 95x16
            chunk 1 (middle anchor) text run 1 at (-47.24,15.00) startOffset 0 endOffset 14 width 94.48: "use of <tspan>"
      RenderSVGContainer {g} at (268,202) size 164x42 [transform={m=((1.00,0.00)(0.00,1.00)) t=(350.00,225.00)}]
        RenderSVGContainer {g} at (307,202) size 86x31
          RenderSVGContainer {use} at (307,202) size 86x31
            RenderSVGText {text} at (-43,-23) size 86x31 contains 1 chunk(s)
              RenderSVGInlineText {#text} at (0,0) size 85x31
                chunk 1 (middle anchor) text run 1 at (-42.49,0.00) startOffset 0 endOffset 6 width 84.98: "sample"
        RenderSVGText {text} at (-82,3) size 164x16 contains 1 chunk(s)
          RenderSVGInlineText {#text} at (0,0) size 164x16
            chunk 1 (middle anchor) text run 1 at (-81.66,15.00) startOffset 0 endOffset 25 width 163.32: "predefined text via <use>"
      RenderSVGText {text} at (145,269) size 160x15 contains 1 chunk(s)
        RenderSVGInlineText {#text} at (0,0) size 159x15
          chunk 1 (middle anchor) text run 1 at (145.85,280.00) startOffset 0 endOffset 25 width 158.29: "Text Rendering Properties"
      RenderSVGContainer {g} at (22,297) size 156x42 [transform={m=((1.00,0.00)(0.00,1.00)) t=(100.00,305.00)}]
        RenderSVGContainer {g} at (57,297) size 86x31 [transform={m=((-1.00,0.00)(-0.00,-1.00)) t=(0.00,0.00)}]
          RenderSVGContainer {use} at (57,297) size 86x31
            RenderSVGText {text} at (-43,-23) size 86x31 contains 1 chunk(s)
              RenderSVGInlineText {#text} at (0,0) size 85x31
                chunk 1 (middle anchor) text run 1 at (-42.49,0.00) startOffset 0 endOffset 6 width 84.98: "sample"
        RenderSVGText {text} at (-78,18) size 156x16 contains 1 chunk(s)
          RenderSVGInlineText {#text} at (0,0) size 156x16
            chunk 1 (middle anchor) text run 1 at (-77.68,30.00) startOffset 0 endOffset 23 width 155.37: "transform=\"rotate(180)\""
      RenderSVGContainer {g} at (180,297) size 90x42 [transform={m=((1.00,0.00)(0.00,1.00)) t=(225.00,320.00)}]
        RenderSVGContainer {g} at (182,297) size 86x31 [opacity=0.50]
          RenderSVGContainer {use} at (182,297) size 86x31
            RenderSVGText {text} at (-43,-23) size 86x31 contains 1 chunk(s)
              RenderSVGInlineText {#text} at (0,0) size 85x31
                chunk 1 (middle anchor) text run 1 at (-42.49,0.00) startOffset 0 endOffset 6 width 84.98: "sample"
        RenderSVGText {text} at (-45,3) size 90x16 contains 1 chunk(s)
          RenderSVGInlineText {#text} at (0,0) size 90x16
            chunk 1 (middle anchor) text run 1 at (-44.59,15.00) startOffset 0 endOffset 13 width 89.18: "opacity=\"0.5\""
      RenderSVGContainer {g} at (300,297) size 100x42 [transform={m=((1.00,0.00)(0.00,1.00)) t=(350.00,320.00)}]
        RenderSVGContainer {g} at (307,297) size 86x31
          RenderSVGContainer {use} at (307,297) size 86x31
            RenderSVGText {text} at (-43,-23) size 86x31 contains 1 chunk(s)
              RenderSVGInlineText {#text} at (0,0) size 85x31
                chunk 1 (middle anchor) text run 1 at (-42.49,0.00) startOffset 0 endOffset 6 width 84.98: "sample"
        RenderSVGText {text} at (-50,3) size 100x16 contains 1 chunk(s)
          RenderSVGInlineText {#text} at (0,0) size 99x16
            chunk 1 (middle anchor) text run 1 at (-49.25,15.00) startOffset 0 endOffset 14 width 98.51: "fill=\"DarkRed\""
      RenderSVGContainer {g} at (0,270) size 200x200 [transform={m=((1.00,0.00)(0.00,1.00)) t=(100.00,370.00)}]
        RenderSVGContainer {g} at (0,270) size 200x200
          [filter="gaussianBlur"] RenderSVGResourceFilter {filter} at (-100,-100) size 200x200
          RenderSVGContainer {use} at (57,347) size 86x31
            RenderSVGText {text} at (-43,-23) size 86x31 contains 1 chunk(s)
              RenderSVGInlineText {#text} at (0,0) size 85x31
                chunk 1 (middle anchor) text run 1 at (-42.49,0.00) startOffset 0 endOffset 6 width 84.98: "sample"
        RenderSVGText {text} at (-87,3) size 174x16 contains 1 chunk(s)
          RenderSVGInlineText {#text} at (0,0) size 174x16
            chunk 1 (middle anchor) text run 1 at (-86.58,15.00) startOffset 0 endOffset 27 width 173.16: "filter=\"url(#gaussianBlur)\""
      RenderSVGContainer {g} at (149,346) size 152x53 [transform={m=((1.00,0.00)(0.00,1.00)) t=(225.00,370.00)}]
        RenderSVGContainer {g} at (181,346) size 88x33
          RenderSVGContainer {use} at (181,346) size 88x33
            RenderSVGText {text} at (-43,-23) size 86x31 contains 1 chunk(s)
              RenderSVGInlineText {#text} at (0,0) size 85x31
                chunk 1 (middle anchor) text run 1 at (-42.49,0.00) startOffset 0 endOffset 6 width 84.98: "sample"
        RenderSVGText {text} at (-45,3) size 90x16 contains 1 chunk(s)
          RenderSVGInlineText {#text} at (0,0) size 89x16
            chunk 1 (middle anchor) text run 1 at (-44.37,15.00) startOffset 0 endOffset 14 width 88.74: "fill=\"yellow\";"
        RenderSVGText {text} at (-76,13) size 152x16 contains 1 chunk(s)
          RenderSVGInlineText {#text} at (0,0) size 151x16
            chunk 1 (middle anchor) text run 1 at (-75.48,25.00) startOffset 0 endOffset 21 width 150.97: "stroke=\"MidnightBlue\""
      RenderSVGHiddenContainer {defs} at (0,0) size 0x0
        RenderSVGResourceClipper {clipPath} [id="textClip"] [clipPathUnits=userSpaceOnUse]
          RenderSVGText {text} at (-43,-23) size 86x31 contains 1 chunk(s)
            RenderSVGInlineText {#text} at (0,0) size 85x31
              chunk 1 (middle anchor) text run 1 at (-42.49,0.00) startOffset 0 endOffset 6 width 84.98: "sample"
        RenderSVGResourceLinearGradient {linearGradient} [id="gradient"] [gradientUnits=userSpaceOnUse] [start=(-50,-25)] [end=(50,25)]
          RenderSVGGradientStop {stop} [offset=0.00] [color=#0000FF]
          RenderSVGGradientStop {stop} [offset=1.00] [color=#008000]
      RenderSVGContainer {g} at (298,347) size 104x42 [transform={m=((1.00,0.00)(0.00,1.00)) t=(350.00,370.00)}]
        RenderSVGRect {rect} at (307,347) size 86x31 [fill={[type=LINEAR-GRADIENT] [id="gradient"]}] [x=-50.00] [y=-25.00] [width=100.00] [height=50.00]
          [clipPath="textClip"] RenderSVGResourceClipper {clipPath} at (-42.50,-23) size 85x31
        RenderSVGText {text} at (-52,3) size 104x16 contains 1 chunk(s)
          RenderSVGInlineText {#text} at (0,0) size 103x16
            chunk 1 (middle anchor) text run 1 at (-51.09,15.00) startOffset 0 endOffset 17 width 102.19: "text as clip-path"
      RenderSVGText {text} at (136,395) size 28x60 contains 1 chunk(s)
        RenderSVGInlineText {#text} at (0,0) size 27x60
          chunk 1 (middle anchor) text run 1 at (136.68,440.00) startOffset 0 endOffset 1 width 26.63: "a"
      RenderSVGText {text} at (75,443) size 150x16 contains 1 chunk(s)
        RenderSVGInlineText {#text} at (0,0) size 150x16
          chunk 1 (middle anchor) text run 1 at (75.42,455.00) startOffset 0 endOffset 23 width 149.16: "stroke-linejoin=\"miter\""
      RenderSVGText {text} at (72,453) size 156x16 contains 1 chunk(s)
        RenderSVGInlineText {#text} at (0,0) size 155x16
          chunk 1 (middle anchor) text run 1 at (72.77,465.00) startOffset 0 endOffset 23 width 154.47: "stroke-linecap=\"square\""
      RenderSVGText {text} at (286,395) size 28x60 contains 1 chunk(s)
        RenderSVGInlineText {#text} at (0,0) size 27x60
          chunk 1 (middle anchor) text run 1 at (286.68,440.00) startOffset 0 endOffset 1 width 26.63: "a"
      RenderSVGText {text} at (223,443) size 154x16 contains 1 chunk(s)
        RenderSVGInlineText {#text} at (0,0) size 153x16
          chunk 1 (middle anchor) text run 1 at (223.64,455.00) startOffset 0 endOffset 23 width 152.73: "stroke-linejoin=\"round\""
      RenderSVGText {text} at (224,453) size 152x16 contains 1 chunk(s)
        RenderSVGInlineText {#text} at (0,0) size 151x16
          chunk 1 (middle anchor) text run 1 at (224.98,465.00) startOffset 0 endOffset 22 width 150.04: "stroke-linecap=\"round\""
    RenderSVGContainer {use} at (0,0) size 448x498
      RenderSVGContainer {g} at (0,0) size 448x498
        RenderSVGRect {rect} at (0,0) size 448x498 [stroke={[type=SOLID] [color=#000000]}] [x=1.00] [y=1.00] [width=446.00] [height=496.00]
        RenderSVGContainer {g} at (418,466) size 28x30 [transform={m=((1.00,0.00)(0.00,1.00)) t=(418.00,467.00)}]
          RenderSVGViewportContainer {svg} at (418,466) size 28x30
            RenderSVGPath {path} at (418,468) size 14x19 [fill={[type=SOLID] [color=#6666FF]}] [data="M 172 44 C 137 60 31 135 11 199 C 3 226 33 247 55 232 C 14 306 -1 332 0 356 C 0 370 13 398 44 383 C 52 379 79 358 96 342 C 110 341 120 331 138 314 C 155 328 174 324 190 307 C 212 309 272 229 234 199 C 231 175 204 162 181 181 C 175 179 168 180 163 182 C 185 147 206 100 212 77 C 219 47 188 36 172 44 Z"]
            RenderSVGPath {path} at (432,466) size 14x17 [fill={[type=SOLID] [color=#FF0000]}] [data="M 400 0 C 382 3 351 31 351 31 C 322 54 308 89 323 126 C 310 140 294 170 294 193 C 294 221 314 245 344 222 C 351 230 365 238 381 227 C 376 256 384 275 407 276 C 408 286 420 307 443 293 C 459 283 501 254 522 237 C 547 214 547 143 504 148 C 537 89 501 52 477 64 C 467 68 431 89 425 94 C 424 87 420 82 414 80 C 436 45 436 -5 401 0 Z"]
            RenderSVGPath {path} at (425,484) size 16x12 [fill={[type=SOLID] [color=#33CC33]}] [data="M 275 353 C 229 365 187 396 161 444 C 152 460 167 481 186 477 C 172 501 146 544 171 558 C 199 574 223 550 231 543 C 249 564 281 553 312 526 C 353 540 380 524 415 473 C 423 461 445 430 445 408 C 445 392 430 378 410 387 C 409 375 401 349 357 368 C 347 362 326 363 303 385 C 308 375 300 347 275 353 Z"]
