layer at (0,0) size 480x360
  RenderView at (0,0) size 480x360
layer at (0,0) size 480x360
  RenderSVGRoot {svg} at (0,0) size 480x360
    RenderSVGContainer {g} at (0,0) size 480x277 [transform={m=((1.20,0.00)(0.00,1.20)) t=(0.00,0.00)}]
      RenderSVGContainer {g} at (0,0) size 273x277
        RenderSVGContainer {g} at (0,0) size 273x277
          RenderSVGPath {path} at (28,8) size 244x269 [fill={[type=SOLID] [color=#000000]}] [data="M 132.386 113.177 C 132.78 110.532 133.364 106.988 134.067 102.915 C 126.47 97.26 114.803 88.427 107.303 76.927 L 105.636 76.26 C 110.969 91.427 130.636 109.093 132.386 113.177 L 147.969 128.427 C 147.969 128.427 157.969 139.094 160.136 142.26 C 162.303 145.427 163.636 149.427 161.469 152.093 C 159.802 151.093 156.636 146.76 153.469 142.926 C 153.469 142.926 146.469 141.426 139.636 141.593 C 139.636 141.593 142.303 147.093 143.469 149.593 C 144.032 150.8 143.934 151.734 143.533 152.64 C 149.774 157.468 155.785 166.441 159.635 171.093 C 163.635 175.926 165.183 179.915 171.802 181.26 C 182.469 183.427 188.469 188.76 191.469 191.26 C 194.469 193.76 194.469 195.26 193.302 196.093 C 193.302 196.093 189.135 197.593 182.302 198.093 C 175.469 198.593 169.969 194.76 167.135 194.76 C 162.802 194.593 160.802 191.76 159.302 188.427 C 157.802 185.094 154.802 183.594 150.135 180.76 C 145.842 178.154 135.277 172.866 131.082 166.586 C 126.291 169.749 120.439 172.342 113.635 174.926 L 112.302 173.593 C 110.369 174.366 107.764 175.113 104.728 175.518 C 106.841 181.688 112.654 190.641 114.885 192.426 C 117.385 194.426 119.135 196.676 119.135 198.926 C 119.135 201.176 118.385 204.426 115.385 208.426 C 114.885 221.426 109.385 228.176 102.885 230.676 C 98.385 215.676 102.385 205.426 104.385 199.426 C 104.385 199.426 96.913 192.613 91.447 186.818 C 92.177 190.797 92.915 194.521 93.635 197.76 C 93.635 197.76 92.403 199.335 90.135 198.593 C 81.468 195.76 67.968 188.26 62.802 182.26 C 60.135 174.427 56.302 148.593 55.135 137.927 C 55.135 137.927 49.968 136.594 44.968 135.26 C 44.968 135.26 44.301 134.927 43.468 131.76 C 43.468 131.76 37.801 130.093 31.635 128.76 C 25.468 127.427 25.968 126.093 24.968 122.593 C 23.968 119.093 25.635 94.0931 27.468 85.9261 C 29.301 77.7591 37.968 63.7591 43.301 57.9261 C 43.301 57.9261 42.295 57.7911 41.468 55.4261 C 35.635 38.7591 33.635 28.0931 40.801 17.7591 C 47.968 7.42606 60.968 11.7591 67.468 14.9261 C 73.968 18.0931 74.135 23.2591 75.635 25.7591 C 77.135 28.2591 75.968 30.5921 77.635 32.9261 C 95.302 39.9261 104.468 49.5931 116.468 60.0931 C 123.968 63.7601 130.135 69.7601 135.135 73.9261 C 136.259 74.8631 137.458 76.0771 138.691 77.4511 C 140.135 69.7881 141.549 62.5151 142.635 57.1761 C 145.635 42.4261 152.135 10.1761 152.885 7.92606 L 155.885 8.17606 C 185.135 8.42606 225.635 7.17606 225.635 7.17606 C 225.885 27.4261 225.885 69.6761 225.885 81.4261 C 225.885 93.1761 225.885 120.426 226.135 123.676 C 226.135 123.676 222.385 125.676 217.802 126.426 C 218.802 126.593 219.469 128.926 217.635 129.759 C 214.635 129.926 192.302 129.926 184.635 128.759 C 183.39 128.57 181.712 128.433 179.756 128.337 C 182.197 130.821 188.662 137.176 199.385 146.175 L 199.135 154.425 L 190.135 154.675 L 158.183 128.249 C 153.518 128.33 149.658 128.425 147.968 128.425 L 132.385 113.175 Z"]
          RenderSVGPath {path} at (0,0) size 75x163 [fill={[type=SOLID] [color=#000000]}] [data="M 60.654 1.358 C 59.81 2.273 58.846 3.621 57.797 5.296 C 56.602 4.226 54.057 2.08 51.455 0.73 L 49.551 3.143 L 55.609 9.025 C 55.478 9.261 55.345 9.502 55.212 9.746 C 46.57 3.133 43.441 0.554 43.441 0.554 L 41.051 3.32 C 45.023 7.952 50.504 12.236 52.942 14.049 C 52.731 14.462 52.519 14.88 52.306 15.304 C 39.417 5.651 34.449 0.917 34.449 0.917 L 31.732 3.862 C 39.379 11.192 47.649 18.616 49.756 20.5 C 49.552 20.925 49.348 21.354 49.143 21.784 C 36.8 12.691 27.994 4.367 25.422 0.449 L 23.032 3.214 C 31.136 11.753 43.351 22.425 47.259 25.797 C 47.053 26.24 46.848 26.685 46.642 27.13 C 37.115 20.82 32.015 15.82 27.711 11.698 C 23.201 7.377 17.976 1.917 15.896 0 L 13.02 3.119 C 20.737 11.622 38.128 27.123 44.639 31.518 C 44.396 32.055 44.154 32.591 43.913 33.125 C 30.32 22.46 10.721 5.175 6.985 2.362 L 4.901 4.448 C 13.773 13.522 36.57 33.784 41.516 38.486 C 41.216 39.163 40.919 39.832 40.626 40.492 C 25.883 27.823 2.664 6.874 2.664 6.874 L 1.12 9.939 C 11.613 20.509 35.072 42.483 38.378 45.577 C 38.119 46.162 37.866 46.735 37.62 47.292 C 22.515 33.526 7.848 20.476 3.401 16.852 L 1.164 19.278 C 12.303 30.264 31.642 47.796 35.745 51.505 C 35.422 52.225 35.117 52.899 34.832 53.52 C 21.063 40.369 5.95 27.057 2.685 23.887 L 0.302 26.819 C 8.993 35.279 30.011 54.559 33.04 57.334 C 32.736 57.985 32.392 58.738 32.011 59.581 C 18.259 46.584 5.606 34.76 2.869 32.553 L 0.619 34.645 C 10.568 45.47 26.957 60.551 30.439 63.096 C 30.119 63.82 29.783 64.581 29.433 65.376 C 16.333 52.826 2.679 40.233 2.679 40.233 L 0.455 42.992 C 9.522 52.67 23.596 66.032 27.798 69.112 C 27.501 69.795 27.196 70.495 26.886 71.21 C 15.543 60.602 2.703 49.073 2.703 49.073 C 1.238 49.966 0 52.352 0 52.352 C 11.334 63.218 22.136 73.12 24.95 75.689 C 24.689 76.295 24.425 76.909 24.158 77.53 C 8.771 63.626 2.36 57.093 2.36 57.093 L 0.476 60.005 C 8.895 68.856 19.285 79.065 22.254 81.968 C 22.097 82.334 21.941 82.701 21.782 83.07 C 10.825 74.056 2.944 67.412 2.944 67.412 L 1.207 69.817 C 9.581 77.94 17.667 84.8 20.155 86.882 C 19.913 87.449 19.671 88.019 19.427 88.591 C 10.261 82.019 3.115 75.745 3.115 75.745 L 1.265 79.49 C 9.426 87.427 15.635 92.395 17.27 93.673 C 17.026 94.249 16.782 94.825 16.538 95.402 C 7.159 87.785 4.131 84.377 4.131 84.377 L 1.768 87.809 C 7.21 93.487 13.147 97.562 15.087 98.832 C 14.837 99.424 14.587 100.015 14.339 100.605 L 3.629 92.57 L 1.745 95.482 L 12.462 105.061 C 12.31 105.423 12.159 105.784 12.007 106.144 L 3.404 99.419 L 1.68 102.157 L 10.472 109.804 C 10.196 110.463 9.923 111.117 9.651 111.766 L 3.201 106.766 L 1.464 109.171 L 7.973 115.789 C 7.783 116.246 7.594 116.7 7.407 117.149 L 2.312 113.64 L 0.928 116.532 L 5.888 120.81 C 5.744 121.157 5.602 121.5 5.461 121.841 L 2.915 120.288 L 1.704 123.339 L 3.903 125.62 C 2.562 128.882 1.395 131.751 0.47 134.064 L 3.195 135.455 C 4.399 132.237 34.423 62.133 39.195 52.266 C 43.967 42.399 60.577 7.7 62.173 1.797 L 60.654 1.358 Z"]
          RenderSVGPath {path} at (160,8) size 113x145 [fill={[type=SOLID] [color=#FFFFFF]}] [data="M 142.803 106.261 C 141.803 106.761 139.803 107.261 137.803 105.761 C 137.803 105.761 134.136 118.094 135.136 123.428 C 138.803 125.261 177.969 125.928 187.803 125.928 C 204.636 125.928 213.97 126.928 217.803 126.428 C 222.386 125.678 226.136 123.678 226.136 123.678 C 225.886 120.428 225.886 93.178 225.886 81.428 C 225.886 69.678 227.219 27.074 225.636 7.178 C 225.636 7.178 185.136 8.428 155.886 8.178 C 156.386 13.928 153.491 26.007 151.886 32.428 C 150.386 38.428 146.886 57.678 141.957 81.322 C 145.213 85.362 148.456 89.791 150.969 92.595 C 150.969 92.595 151.058 94.292 150.78 96.116 C 154.636 97.178 157.261 99.178 158.761 101.428 C 160.261 103.678 161.011 107.053 160.136 109.303 C 160.761 112.428 160.636 114.678 159.261 115.053 C 157.886 115.428 156.761 116.053 154.761 115.303 C 153.886 118.553 153.511 118.803 153.511 118.803 C 151.761 118.803 151.136 118.678 151.136 118.678 C 148.136 114.553 142.469 110.845 142.803 106.261 Z"]
          RenderSVGPath {path} at (188,22) size 68x74 [fill={[type=SOLID] [color=#000000]}] [data="M 207.303 18.594 C 207.303 18.594 188.303 24.761 168.136 31.927 C 168.136 31.927 168.852 37.939 169.753 43.331 C 165.124 45.489 160.657 47.574 157.136 49.261 C 157.136 49.261 162.136 67.261 167.469 79.594 C 170.302 77.427 190.469 67.761 204.636 59.927 C 204.636 59.927 203.748 57.069 202.48 53.094 C 204.289 52.507 210.363 50.544 211.636 50.261 C 213.136 49.928 213.136 47.428 213.136 47.428 C 213.136 47.428 208.803 25.761 207.303 18.595 Z"]
          RenderSVGPath {path} at (99,115) size 70x95 [fill={[type=SOLID] [color=#FFFFFF]}] [data="M 133.469 159.427 C 127.431 165.139 106.851 174.524 88.629 170.062 C 86.796 158.285 85.284 146.83 84.636 140.427 C 83.303 127.26 83.136 113.26 83.136 113.26 C 90.136 114.093 94.469 112.927 94.469 112.927 C 94.136 108.927 94.969 103.427 94.969 103.427 C 97.469 106.594 101.969 108.427 103.302 105.26 C 104.635 102.093 105.802 96.593 105.802 96.593 C 109.302 98.76 115.802 106.26 121.635 115.593 C 127.468 124.926 133.468 134.426 136.968 142.093 C 140.468 149.76 139.635 153.593 133.468 159.426 Z"]
          RenderSVGPath {path} at (173,117) size 17x22 [fill={[type=SOLID] [color=#FFFFFF]}] [data="M 150.303 98.094 C 149.73 99.698 146.875 102.718 144.82 104.613 C 145.511 109.177 148.386 112.802 149.761 113.802 C 151.136 114.802 152.511 115.802 152.511 115.802 C 153.136 113.677 152.261 111.552 149.386 110.177 C 149.011 109.177 150.136 107.177 151.136 108.177 C 152.136 109.177 153.136 108.552 153.136 108.552 C 155.011 111.302 155.261 112.677 155.261 112.677 L 157.261 113.177 C 157.261 110.052 156.636 108.677 157.636 106.927 C 156.636 103.177 155.344 99.885 150.303 98.094 Z"]
          RenderSVGPath {path} at (107,208) size 32x56 [fill={[type=SOLID] [color=#FFFFFF]}] [data="M 115.386 197.677 C 113.886 204.927 112.136 210.927 110.886 213.927 C 109.636 216.927 110.136 219.177 106.136 218.927 C 102.886 217.427 102.636 215.177 103.886 210.427 C 105.136 205.677 107.386 201.427 107.386 198.177 C 100.803 191.03 93.513 183.6 90.306 180.358 C 89.952 178.285 89.603 176.177 89.263 174.063 C 93.32 175.449 97.287 175.904 100.87 175.82 C 104.198 184.53 111.923 193.983 115.386 197.677 Z"]
          RenderSVGPath {path} at (160,186) size 61x48 [fill={[type=SOLID] [color=#FFFFFF]}] [data="M 141.636 155.761 C 141.69 155.667 141.744 155.574 141.8 155.484 C 149.317 163.591 154.058 170.343 156.47 172.595 C 158.97 174.928 162.97 181.262 166.47 182.428 C 169.97 183.595 178.303 186.595 180.803 187.761 C 183.303 188.927 183.47 189.594 182.97 191.428 C 182.47 193.261 181.637 194.261 175.97 193.595 C 170.303 192.928 164.137 192.095 163.803 189.762 C 163.47 187.429 156.47 180.262 151.97 178.262 C 147.903 176.454 136.348 169.61 133.671 164.741 C 136.948 162.203 139.621 159.289 141.636 155.762 Z"]
          RenderSVGPath {path} at (195,153) size 37x29 [fill={[type=SOLID] [color=#FFFFFF]}] [data="M 193.136 150.927 L 190.136 151.177 C 177.005 139.921 167.111 131.622 162.99 128.18 C 164.959 128.157 166.983 128.141 168.981 128.139 C 178.569 138.408 193.136 150.927 193.136 150.927 Z"]
          RenderSVGPath {path} at (193,42) size 48x48 [fill={[type=SOLID] [color=#FFFFFF]}] [data="M 169.303 74.427 C 164.636 62.594 161.47 50.76 161.47 50.76 C 174.803 44.427 193.47 35.593 193.47 35.593 C 195.97 44.76 200.803 58.926 200.803 58.926 C 184.97 66.426 169.303 74.426 169.303 74.426 Z"]
          RenderSVGPath {path} at (205,27) size 47x34 [fill={[type=SOLID] [color=#FFFFFF]}] [data="M 201.697 50.65 C 199.49 43.787 196.582 34.984 194.969 31.094 C 192.752 32.572 182.913 37.192 172.99 41.822 C 172.635 40.32 171.735 36.316 171.469 33.261 C 173.969 32.761 193.802 26.594 204.969 23.094 C 205.302 25.927 207.302 35.927 209.636 48.261 C 208.512 49.011 203.927 50.134 201.698 50.65 Z"]
          RenderSVGPath {path} at (145,80) size 32x34 [fill={[type=SOLID] [color=#FFFFFF]}] [data="M 121.636 69.302 L 121.303 66.969 C 126.636 70.302 141.97 84.969 147.47 92.636 C 147.47 94.636 145.637 93.969 144.637 92.969 C 143.637 91.969 140.97 87.802 135.637 82.469 C 130.304 77.136 123.637 69.136 121.637 69.302 Z"]
          RenderSVGPath {path} at (96,44) size 47x45 [fill={[type=SOLID] [color=#FFFFFF]}] [data="M 119.136 74.136 C 118.469 67.303 115.803 62.803 107.136 55.636 C 98.469 48.469 87.303 38.969 80.469 37.136 C 81.636 38.303 81.969 39.469 81.969 39.469 C 91.136 44.136 107.636 58.302 111.469 63.802 C 115.302 69.302 117.802 73.802 119.136 74.135 Z"]
          RenderSVGPath {path} at (75,192) size 8x7 [fill={[type=SOLID] [color=#FFFFFF]}] [data="M 68.441 165.532 C 68.212 164.402 67.995 163.317 67.792 162.281 C 65.805 161.9 63.884 161.015 62.62 160.338 C 62.82 161.51 63.019 162.665 63.215 163.791 C 65.16 164.525 67.134 165.144 68.442 165.532 Z"]
          RenderSVGPath {path} at (77,203) size 8x8 [fill={[type=SOLID] [color=#FFFFFF]}] [data="M 69.66 171.421 C 67.305 170.544 65.345 169.805 64.206 169.375 C 64.423 170.58 64.632 171.722 64.828 172.787 C 67.094 173.62 69.088 174.479 70.446 175.095 C 70.172 173.829 69.91 172.604 69.66 171.421 Z"]
          RenderSVGPath {path} at (73,181) size 7x7 [fill={[type=SOLID] [color=#FFFFFF]}] [data="M 61.589 154.129 C 63.818 154.977 65.49 155.573 66.586 155.951 C 66.402 154.952 66.235 154.021 66.082 153.154 C 64.829 152.814 63.163 152.231 61.13 151.238 C 61.281 152.2 61.434 153.165 61.59 154.129 Z"]
          RenderSVGPath {path} at (78,213) size 10x11 [fill={[type=SOLID] [color=#FFFFFF]}] [data="M 65.795 177.971 C 66.164 179.917 66.385 181.053 66.385 181.053 C 66.385 181.053 69.635 184.803 72.885 186.053 C 72.568 184.669 72.263 183.321 71.969 182.011 C 69.572 180.937 67.167 179.107 65.795 177.971 Z"]
          RenderSVGPath {path} at (71,171) size 7x5 [fill={[type=SOLID] [color=#FFFFFF]}] [data="M 64.884 145.852 C 64.706 144.638 64.635 144.052 64.635 144.052 L 59.885 142.802 C 59.978 143.48 60.074 144.168 60.173 144.862 C 62.139 145.359 63.725 145.665 64.884 145.852 Z"]
          RenderSVGPath {path} at (49,112) size 40x23 [fill={[type=SOLID] [color=#FFFFFF]}] [data="M 41.469 94.136 C 41.969 99.636 44.302 109.469 44.302 109.469 L 51.635 110.302 L 53.135 111.802 C 54.135 108.135 56.635 106.469 59.635 106.635 C 62.635 106.801 72.802 106.635 72.802 106.635 C 72.969 102.135 73.635 95.635 73.635 95.635 C 71.635 99.635 70.135 100.468 67.302 99.802 C 64.469 99.135 45.135 94.302 41.469 94.135 Z"]
          RenderSVGPath {path} at (53,105) size 34x12 [fill={[type=SOLID] [color=#FFFFFF]}] [data="M 44.303 90.636 L 46.47 87.803 C 58.137 89.303 71.803 93.47 71.803 93.47 C 71.803 93.47 70.803 96.303 69.136 97.137 C 56.803 94.47 44.303 90.637 44.303 90.637 Z"]
          RenderSVGPath {path} at (58,129) size 35x28 [fill={[type=SOLID] [color=#FFFFFF]}] [data="M 49.636 114.969 C 49.136 117.136 49.136 123.469 49.136 123.469 C 52.469 123.469 53.969 123.969 53.803 125.302 C 55.303 125.469 56.636 126.802 56.636 126.802 C 59.469 126.469 61.803 128.135 65.803 128.302 C 69.803 128.469 71.303 130.302 74.303 127.635 C 70.803 127.802 65.136 127.468 64.803 125.302 C 69.136 124.969 73.97 125.635 75.136 124.802 C 75.969 123.802 75.136 123.135 75.136 123.135 C 69.969 123.135 63.969 122.802 64.136 121.135 C 64.303 119.468 68.469 120.802 70.636 120.968 C 72.803 121.135 76.636 121.301 76.803 119.468 C 76.97 117.635 73.97 118.635 71.97 118.635 C 69.97 118.635 64.47 118.802 64.637 117.135 C 64.804 115.468 66.637 116.135 70.137 116.302 C 73.637 116.469 76.137 116.302 76.304 114.969 C 73.304 114.469 68.804 113.636 66.471 113.302 C 64.138 112.969 60.971 113.135 60.971 113.135 C 60.471 111.468 62.304 110.302 64.971 110.968 C 67.638 111.635 69.971 111.635 69.971 111.635 C 69.971 111.635 73.471 110.968 72.471 109.968 C 71.471 108.968 65.138 109.635 61.971 108.968 C 58.804 108.301 55.804 108.635 55.138 111.135 C 54.471 113.635 54.305 115.468 49.638 114.968 Z"]
          RenderSVGPath {path} at (61,153) size 23x10 [fill={[type=SOLID] [color=#FFFFFF]}] [data="M 52.969 128.302 C 52.802 131.302 51.636 132.802 51.636 132.802 C 58.636 133.969 65.303 134.802 67.469 135.469 C 69.969 133.802 69.969 131.469 69.969 131.469 C 63.969 131.302 58.969 130.302 52.969 128.302 Z"]
          RenderSVGPath {path} at (32,71) size 42x78 [fill={[type=SOLID] [color=#FFFFFF]}] [data="M 48.303 83.802 C 48.623 83.161 49.015 82.417 49.461 81.607 C 45.846 78.649 42.97 76.635 42.97 76.635 C 43.501 75.591 44.011 74.62 44.505 73.708 C 47.162 76.406 49.551 78.149 50.922 79.053 C 51.306 78.407 51.711 77.742 52.133 77.069 C 49.644 75.211 47.072 72.975 45.632 71.688 C 46.133 70.817 46.618 70.013 47.09 69.274 C 49.37 71.728 52.569 73.56 53.953 74.288 C 54.313 73.761 54.681 73.239 55.053 72.725 C 52.239 70.563 50.136 68.079 48.982 66.557 C 49.608 65.744 50.22 65.04 50.826 64.431 C 53.565 66.97 56.042 68.904 57.287 69.841 C 57.601 69.467 57.914 69.108 58.227 68.764 C 55.651 66.343 53.562 63.861 52.714 62.815 C 53.398 62.331 54.089 61.944 54.804 61.634 C 56.549 64.193 58.779 66.101 59.968 67.021 C 60.422 66.617 60.869 66.262 61.304 65.967 L 57.804 61.8 C 57.804 61.8 53.304 60.633 46.637 59.467 C 43.804 61.967 36.47 73.467 32.97 79.967 C 29.47 86.467 27.97 102.467 27.803 108.134 C 27.636 113.801 26.97 120.134 28.303 123.467 C 28.303 123.467 28.809 123.442 29.672 123.384 C 29.74 120.112 29.47 117.133 29.47 117.133 C 29.47 117.133 30.11 117.063 31.137 116.97 L 31.137 123.277 C 31.781 123.226 32.512 123.164 33.304 123.089 L 33.304 116.791 C 33.83 116.751 34.391 116.712 34.972 116.676 L 35.977 122.807 C 36.412 122.756 36.855 122.702 37.304 122.644 L 37.304 116.558 C 38.062 116.528 38.824 116.509 39.565 116.503 L 39.885 122.276 C 40.801 122.131 41.716 121.971 42.608 121.794 L 42.497 116.579 C 43.176 116.627 43.789 116.699 44.303 116.802 L 45.277 121.186 C 45.341 121.169 45.406 121.152 45.469 121.135 C 45.636 118.468 45.802 114.802 47.136 113.135 C 47.136 113.135 42.803 112.302 39.303 111.468 C 35.803 110.635 32.136 112.801 32.136 112.801 L 31.136 109.634 C 31.136 109.634 33.469 109.467 36.969 106.467 C 36.969 106.467 38.302 103.634 39.302 99.467 C 39.302 99.467 39.802 96.8 38.802 94.467 C 37.802 92.134 38.969 90.467 40.469 90.467 C 40.469 90.467 42.136 89.467 43.302 86.467 C 42.469 85.467 42.969 83.634 41.135 82.134 L 42.135 78.634 C 42.135 78.634 44.468 81.467 48.302 83.801 Z"]
          RenderSVGPath {path} at (81,67) size 30x39 [fill={[type=SOLID] [color=#FFFFFF]}] [data="M 72.469 87.636 C 69.469 77.636 68.136 66.303 68.136 66.303 C 69.969 66.47 71.136 64.636 70.969 62.97 C 70.802 61.303 71.136 59.137 71.136 59.137 C 73.636 59.137 77.969 61.804 77.636 56.97 L 79.469 56.47 L 78.802 57.803 C 84.469 60.303 88.969 65.803 91.802 68.803 C 91.635 71.97 90.469 73.636 90.469 73.636 C 82.969 65.136 79.802 61.969 72.969 60.136 C 72.136 59.969 71.802 60.969 71.802 60.969 C 75.469 72.469 79.469 79.469 78.302 85.802 C 77.135 87.635 72.469 87.635 72.469 87.635 Z"]
          RenderSVGPath {path} at (86,67) size 5x4 [fill={[type=SOLID] [color=#FFFFFF]}] [data="M 71.803 57.136 C 73.136 56.636 75.303 56.969 75.303 56.969 L 75.303 57.969 C 75.303 57.969 73.47 58.802 71.803 57.136 Z"]
          RenderSVGPath {path} at (71,67) size 13x11 [fill={[type=SOLID] [color=#FFFFFF]}] [data="M 69.303 59.469 C 68.803 61.469 68.47 64.302 68.47 64.302 C 65.637 63.802 61.47 62.135 60.137 59.302 C 59.97 57.469 59.637 55.969 59.637 55.969 C 63.804 58.302 67.47 59.802 69.304 59.469 Z"]
          RenderSVGPath {path} at (50,17) size 32x11 [fill={[type=SOLID] [color=#FFFFFF]}] [data="M 61.041 22.638 C 62.305 22.618 65.454 22.43 68.303 21.136 C 66.803 14.803 51.803 15.469 49.303 15.969 C 46.803 16.469 43.303 19.802 41.97 22.636 C 42.377 22.714 42.791 22.783 43.211 22.845 C 43.564 21.874 43.976 21.415 44.178 21.235 C 44.717 21.094 45.242 20.966 45.757 20.849 L 45.636 23.123 C 46.084 23.161 46.533 23.192 46.983 23.217 C 47.261 22.578 47.819 21.332 48.351 20.338 C 49.267 20.189 50.147 20.08 50.999 20.013 L 50.366 23.304 C 51.1 23.303 51.82 23.289 52.517 23.268 L 53.536 19.932 C 54.656 19.952 55.737 20.048 56.802 20.219 L 56.802 23.024 C 57.075 23.002 57.337 22.979 57.586 22.956 L 58.791 20.627 C 59.497 20.803 60.2 21.012 60.909 21.254 L 61.041 22.64 Z"]
          RenderSVGPath {path} at (66,30) size 35x37 [fill={[type=SOLID] [color=#FFFFFF]}] [data="M 80.719 45.948 C 79.503 47.878 77.102 49.067 75.886 49.177 C 75.886 49.177 77.151 46.544 79.389 44.177 C 79.969 43.698 79.969 42.948 79.269 42.531 C 78.802 42.769 78.071 43.192 77.385 43.801 C 76.26 44.801 74.635 43.551 74.135 42.301 C 74.916 40.851 77.486 40.893 79.096 40.474 C 79.718 39.947 78.968 39.134 78.968 39.134 C 76.135 36.134 71.801 34.801 71.801 32.301 C 71.801 30.887 72.174 29.794 72.498 29.11 C 71.855 29.232 71.026 28.745 70.884 28.176 C 70.683 27.371 70.561 26.807 69.477 25.444 C 69.33 25.534 69.182 25.625 69.033 25.717 C 69.425 26.744 70.02 28.244 70.76 29.926 C 72.135 33.051 68.635 32.551 68.51 31.051 C 68.417 29.933 67.768 28.399 66.822 27.12 C 66.703 27.198 66.585 27.277 66.466 27.356 C 67.216 29.234 67.776 31.853 68.259 34.175 C 68.884 37.175 65.884 36.425 65.634 35.175 C 65.429 34.152 64.804 31.62 63.555 29.431 C 63.428 29.529 63.302 29.627 63.176 29.727 C 63.736 32.015 64.123 35.367 64.509 37.3 C 65.009 39.8 62.134 39.8 61.884 37.8 C 61.672 36.104 61.639 34.856 60.642 31.922 C 60.434 32.122 60.228 32.324 60.026 32.53 C 60.038 35.653 60.017 41.02 59.758 43.176 C 59.383 46.301 56.883 45.551 57.008 44.176 C 57.117 42.979 56.847 41.022 56.94 36.409 C 56.894 36.485 56.845 36.559 56.8 36.635 C 55.967 41.968 55.633 49.468 61.633 52.135 C 67.633 54.802 75.925 55.448 79.633 52.635 C 83.841 50.072 80.716 48.322 80.716 45.947 Z"]
          RenderSVGContainer {g} at (73,43) size 79x159
            RenderSVGPath {path} at (116,172) size 15x9 [fill={[type=SOLID] [color=#000000]}] [data="M 108.89 146.162 C 108.064 145.37 107.251 144.576 106.459 143.787 C 103.128 145.616 98.846 146.949 96.949 147.492 C 97.549 148.487 98.171 149.505 98.804 150.532 C 104.431 148.94 107.459 147.192 108.889 146.163 Z"]
            RenderSVGPath {path} at (112,165) size 13x9 [fill={[type=SOLID] [color=#000000]}] [data="M 101.191 138.181 C 99.009 139.89 95.206 141.322 93.656 141.863 C 94.156 142.758 94.71 143.72 95.303 144.731 C 99.506 143.633 102.346 142.216 103.969 141.239 C 102.976 140.193 102.043 139.169 101.191 138.181 Z"]
            RenderSVGPath {path} at (120,178) size 17x10 [fill={[type=SOLID] [color=#000000]}] [data="M 102.346 156.194 C 108.222 154.566 112.048 152.15 113.876 150.79 C 113.042 150.038 112.203 149.272 111.368 148.497 C 108.639 150.954 102.678 152.656 100.475 153.222 C 101.102 154.224 101.728 155.22 102.346 156.195 Z"]
            RenderSVGPath {path} at (129,190) size 23x12 [fill={[type=SOLID] [color=#000000]}] [data="M 123.275 158.893 C 119.317 161.685 111.34 164.38 108.241 165.367 C 109.409 167.16 110.136 168.261 110.136 168.261 C 110.136 168.261 122.636 164.928 126.636 161.594 C 125.744 160.9 124.597 159.981 123.275 158.893 Z"]
            RenderSVGPath {path} at (125,184) size 19x11 [fill={[type=SOLID] [color=#000000]}] [data="M 117.5 154 C 114.467 156.28 107.292 158.545 104.388 159.402 C 105.045 160.428 105.673 161.404 106.257 162.309 C 112.61 160.346 117.387 157.538 119.773 155.958 C 119.038 155.332 118.277 154.677 117.5 154 Z"]
            RenderSVGPath {path} at (109,160) size 11x7 [fill={[type=SOLID] [color=#000000]}] [data="M 99.333 135.915 C 98.751 135.16 98.236 134.439 97.802 133.761 C 95.469 135.261 91.135 136.761 91.135 136.761 C 91.308 137.28 91.618 137.982 92.037 138.827 C 94.796 138.819 97.022 138.053 99.333 135.914 Z"]
            RenderSVGPath {path} at (73,43) size 14x11 [fill={[type=SOLID] [color=#000000]}] [data="M 66.386 44.677 C 68.511 42.927 71.761 40.427 71.511 37.427 L 70.261 36.802 L 70.136 36.052 C 65.011 39.302 62.386 40.427 61.636 41.052 C 62.511 42.927 64.136 42.427 64.136 42.427 C 66.261 41.302 68.136 40.052 68.136 40.052 C 66.261 42.177 65.636 43.177 65.636 43.177 C 65.636 43.177 65.511 44.052 66.386 44.677 Z"]
      RenderSVGContainer {g} at (188,0) size 292x85 [transform={m=((0.04,-0.02)(0.02,0.04)) t=(153.00,58.00)}]
        RenderSVGContainer {g} at (194,50) size 43x28
          RenderSVGEllipse {ellipse} at (197,73) size 5x5 [stroke={[type=SOLID] [color=#426942]}] [fill={[type=SOLID] [color=#73BF73]}] [cx=195.00] [cy=210.00] [rx=27.00] [ry=18.00]
          RenderSVGEllipse {ellipse} at (208,50) size 26x15 [stroke={[type=SOLID] [color=#426942]}] [fill={[type=SOLID] [color=#73BF73]}] [cx=645.00] [cy=102.00] [rx=225.00] [ry=18.00]
          RenderSVGEllipse {ellipse} at (209,53) size 27x15 [stroke={[type=SOLID] [color=#426942]}] [fill={[type=SOLID] [color=#73BF73]}] [cx=645.00] [cy=156.00] [rx=230.00] [ry=18.00]
        RenderSVGContainer {g} at (215,58) size 20x16
          RenderSVGRect {rect} at (220,60) size 8x6 [stroke={[type=SOLID] [color=#847542]}] [fill={[type=SOLID] [color=#FFDF7B]}] [x=595.00] [y=192.00] [width=100.00] [height=36.00]
          RenderSVGRect {rect} at (217,61) size 17x10 [stroke={[type=SOLID] [color=#847542]}] [fill={[type=SOLID] [color=#FFDF7B]}] [x=507.00] [y=246.00] [width=276.00] [height=36.00]
          RenderSVGRect {rect} at (223,66) size 8x6 [stroke={[type=SOLID] [color=#847542]}] [fill={[type=SOLID] [color=#FFDF7B]}] [x=592.00] [y=300.00] [width=106.00] [height=36.00]
        RenderSVGContainer {g} at (197,59) size 28x24
          RenderSVGPath {path} at (197,63) size 15x12 [stroke={[type=SOLID] [color=#5A59CE]}] [data="M 201 193 C 212 170 215 158 240 143 C 279 122 377 112 428 107"]
          RenderSVGPath {path} at (199,66) size 13x9 [stroke={[type=SOLID] [color=#5A59CE]}] [data="M 216 200 C 224 196 232 193 240 191 C 311 174 390 165 423 161"]
          RenderSVGPath {path} at (201,64) size 21x11 [stroke={[type=SOLID] [color=#5A59CE]}] [data="M 221 210 C 295 210 497 210 595 210"]
          RenderSVGPath {path} at (201,64) size 21x11 [stroke={[type=SOLID] [color=#5A59CE]}] [data="M 221 210 C 295 210 497 210 595 210"]
          RenderSVGPath {path} at (201,67) size 17x11 [stroke={[type=SOLID] [color=#5A59CE]}] [data="M 216 220 C 224 224 232 227 240 229 C 334 252 444 261 506 264"]
          RenderSVGPath {path} at (200,65) size 25x18 [stroke={[type=SOLID] [color=#5A59CE]}] [data="M 201 227 C 212 253 215 265 240 280 C 352 344 508 337 592 325"]
        RenderSVGContainer {g} at (208,58) size 17x18
          RenderSVGPath {polygon} at (209,63) size 1x1 [fill={[type=SOLID] [color=#5A59CE]}] [points="433 107 425 111 425 103"]
          RenderSVGPath {polygon} at (210,66) size 1x1 [fill={[type=SOLID] [color=#5A59CE]}] [points="428 160 421 165 420 157"]
          RenderSVGPath {polygon} at (220,64) size 2x1 [fill={[type=SOLID] [color=#5A59CE]}] [points="600 210 592 214 592 206"]
          RenderSVGPath {polygon} at (217,69) size 2x2 [fill={[type=SOLID] [color=#5A59CE]}] [points="511 264 503 268 503 260"]
          RenderSVGPath {polygon} at (223,70) size 2x2 [fill={[type=SOLID] [color=#5A59CE]}] [points="597 324 590 329 588 321"]
        RenderSVGContainer {g} at (189,0) size 291x85
          RenderSVGText {text} at (458,-145) size 7900x300 contains 1 chunk(s)
            RenderSVGInlineText {#text} at (0,0) size 7900x300
              chunk 1 text run 1 at (458.00,105.00) startOffset 0 endOffset 67 width 7900.00: "http://prismstandard.org/vocabularies/1.0/resourcetype.xml#birdsEye"
          RenderSVGText {text} at (453,-91) size 8017x300 contains 1 chunk(s)
            RenderSVGInlineText {#text} at (0,0) size 8017x300
              chunk 1 text run 1 at (453.00,159.00) startOffset 0 endOffset 71 width 8016.67: "http://prismstandard.org/vocabularies/1.0/resourcetype.xml#illustration"
          RenderSVGText {text} at (604,-37) size 1734x300 contains 1 chunk(s)
            RenderSVGInlineText {#text} at (0,0) size 1734x300
              chunk 1 text run 1 at (604.00,213.00) startOffset 0 endOffset 13 width 1733.33: "image/svg+xml"
          RenderSVGText {text} at (530,17) size 4834x300 contains 1 chunk(s)
            RenderSVGInlineText {#text} at (0,0) size 4834x300
              chunk 1 text run 1 at (530.00,267.00) startOffset 0 endOffset 44 width 4833.33: "Line drawing of woman in antique attire, ..."
          RenderSVGText {text} at (177,-37) size 750x300 contains 1 chunk(s)
            RenderSVGInlineText {#text} at (0,0) size 750x300
              chunk 1 text run 1 at (177.00,213.00) startOffset 0 endOffset 7 width 750.00: "online:"
          RenderSVGText {text} at (601,71) size 1850x300 contains 1 chunk(s)
            RenderSVGInlineText {#text} at (0,0) size 1850x300
              chunk 1 text run 1 at (601.00,321.00) startOffset 0 endOffset 16 width 1850.00: "Sibyll Trelawney"
        RenderSVGContainer {g} at (192,0) size 267x81
          RenderSVGText {text} at (256,-92) size 3934x300 contains 1 chunk(s)
            RenderSVGInlineText {#text} at (0,0) size 3934x300
              chunk 1 text run 1 at (256.00,158.00) startOffset 0 endOffset 36 width 3933.33: "http://purl.org/dc/elements/1.1/type"
          RenderSVGText {text} at (250,-44) size 4184x300 contains 1 chunk(s)
            RenderSVGInlineText {#text} at (0,0) size 4184x300
              chunk 1 text run 1 at (250.00,206.00) startOffset 0 endOffset 38 width 4183.33: "http://purl.org/dc/elements/1.1/format"
          RenderSVGText {text} at (250,26) size 4267x300 contains 1 chunk(s)
            RenderSVGInlineText {#text} at (0,0) size 4267x300
              chunk 1 text run 1 at (250.00,276.00) startOffset 0 endOffset 39 width 4266.67: "http://purl.org/dc/elements/1.1/subject"
          RenderSVGText {text} at (256,-145) size 3934x300 contains 1 chunk(s)
            RenderSVGInlineText {#text} at (0,0) size 3934x300
              chunk 1 text run 1 at (256.00,105.00) startOffset 0 endOffset 36 width 3933.33: "http://purl.org/dc/elements/1.1/type"
          RenderSVGText {text} at (240,-25) size 4734x300 contains 1 chunk(s)
            RenderSVGInlineText {#text} at (0,0) size 4734x300
              chunk 1 text run 1 at (240.00,225.00) startOffset 0 endOffset 43 width 4733.33: "http://purl.org/dc/elements/1.1/description"
    RenderSVGText {text} at (10,304) size 261x46 contains 1 chunk(s)
      RenderSVGInlineText {#text} at (0,0) size 261x46
        chunk 1 text run 1 at (10.00,340.00) startOffset 0 endOffset 16 width 261.00: "$Revision: 1.7 $"
    RenderSVGRect {rect} at (0,0) size 480x360 [stroke={[type=SOLID] [color=#000000]}] [x=1.00] [y=1.00] [width=478.00] [height=358.00]
