layer at (0,0) size 480x360
  RenderView at (0,0) size 480x360
layer at (0,0) size 480x360
  RenderSVGRoot {svg} at (0,0) size 480x360
    RenderSVGHiddenContainer {defs} at (0,0) size 0x0
    RenderSVGContainer {g} at (0,0) size 480x360
      RenderSVGText {text} at (180,13) size 133x34 contains 1 chunk(s)
        RenderSVGInlineText {#text} at (0,0) size 133x34
          chunk 1 text run 1 at (180.00,40.00) startOffset 0 endOffset 11 width 133.00: "Text stroke"
      RenderSVGContainer {g} at (48,0) size 424x360
        RenderSVGText {text} at (60,8) size 217x342 contains 1 chunk(s)
          RenderSVGInlineText {#text} at (0,0) size 217x342
            chunk 1 text run 1 at (60.00,280.00) startOffset 0 endOffset 1 width 217.00: "A"
        RenderSVGText {text} at (260,8) size 200x342 contains 1 chunk(s)
          RenderSVGInlineText {#text} at (0,0) size 200x342
            chunk 1 text run 1 at (260.00,280.00) startOffset 0 endOffset 1 width 200.00: "B"
      RenderSVGText {text} at (10,304) size 261x46 contains 1 chunk(s)
        RenderSVGInlineText {#text} at (0,0) size 261x46
          chunk 1 text run 1 at (10.00,340.00) startOffset 0 endOffset 16 width 261.00: "$Revision: 1.4 $"
      RenderSVGRect {rect} at (0,0) size 480x360 [stroke={[type=SOLID] [color=#000000]}] [x=1.00] [y=1.00] [width=478.00] [height=358.00]
