layer at (0,0) size 800x600
  RenderView at (0,0) size 800x600
layer at (0,0) size 800x240
  RenderBlock {HTML} at (0,0) size 800x240
    RenderBody {BODY} at (8,8) size 784x224
      RenderButton {INPUT} at (4,4) size 33x22 [bgcolor=#C0C0C0] [border: (2px outset #C0C0C0)]
        RenderBlock (anonymous) at (8,3) size 17x16
          RenderText {#text} at (0,0) size 17x16
            text run at (0,0) width 17: "foo"
      RenderText {#text} at (41,5) size 4x19
        text run at (41,5) width 4: " "
      RenderBR {BR} at (45,5) size 0x19
      RenderButton {INPUT} at (4,34) size 35x24 [bgcolor=#C0C0C0] [border: (3px solid #00FF00)]
        RenderBlock (anonymous) at (9,4) size 17x16
          RenderText {#text} at (0,0) size 17x16
            text run at (0,0) width 17: "foo"
      RenderText {#text} at (43,36) size 4x19
        text run at (43,36) width 4: " "
      RenderButton {INPUT} at (51,35) size 33x22 [bgcolor=#C0C0C0] [border: (2px outset #C0C0C0)]
        RenderBlock (anonymous) at (8,3) size 17x16
          RenderText {#text} at (0,0) size 17x16
            text run at (0,0) width 17: "foo"
      RenderText {#text} at (88,36) size 4x19
        text run at (88,36) width 4: " "
      RenderBR {BR} at (92,36) size 0x19
      RenderButton {INPUT} at (4,66) size 33x22 [border: (2px outset #C0C0C0)]
        RenderBlock (anonymous) at (8,3) size 17x16
          RenderText {#text} at (0,0) size 17x16
            text run at (0,0) width 17: "foo"
      RenderText {#text} at (41,67) size 4x19
        text run at (41,67) width 4: " "
      RenderBR {BR} at (45,67) size 0x19
      RenderButton {INPUT} at (4,96) size 33x22 [bgcolor=#C0C0C0] [border: (2px outset #C0C0C0)]
        RenderBlock (anonymous) at (8,3) size 17x16
          RenderText {#text} at (0,0) size 17x16
            text run at (0,0) width 17: "foo"
      RenderText {#text} at (41,97) size 4x19
        text run at (41,97) width 4: " "
      RenderBR {BR} at (45,97) size 0x19
      RenderButton {INPUT} at (4,132) size 38x25 [bgcolor=#C0C0C0] [border: (2px outset #C0C0C0)]
        RenderBlock (anonymous) at (8,3) size 22x19
          RenderText {#text} at (0,0) size 22x18
            text run at (0,0) width 22: "foo"
      RenderText {#text} at (46,135) size 4x19
        text run at (46,135) width 4: " "
      RenderButton {INPUT} at (54,128) size 44x30 [bgcolor=#C0C0C0] [border: (2px outset #C0C0C0)]
        RenderBlock (anonymous) at (8,3) size 28x24
          RenderText {#text} at (0,0) size 28x23
            text run at (0,0) width 28: "foo"
      RenderText {#text} at (102,135) size 4x19
        text run at (102,135) width 4: " "
      RenderButton {INPUT} at (110,126) size 49x34 [bgcolor=#C0C0C0] [border: (2px outset #C0C0C0)]
        RenderBlock (anonymous) at (8,3) size 33x28
          RenderText {#text} at (0,0) size 33x27
            text run at (0,0) width 33: "foo"
      RenderText {#text} at (163,135) size 4x19
        text run at (163,135) width 4: " "
      RenderBR {BR} at (167,135) size 0x19
      RenderButton {INPUT} at (6,180) size 52x33 [bgcolor=#C0C0C0] [border: (3px outset #C0C0C0)]
        RenderBlock (anonymous) at (12,4.50) size 28x24
          RenderText {#text} at (0,0) size 28x23
            text run at (0,0) width 28: "foo"
      RenderText {#text} at (64,188) size 4x19
        text run at (64,188) width 4: " "
      RenderButton {INPUT} at (76,172) size 67x44 [bgcolor=#C0C0C0] [border: (4px outset #C0C0C0)]
        RenderBlock (anonymous) at (16,6) size 35x32
          RenderText {#text} at (0,0) size 35x31
            text run at (0,0) width 35: "foo"
      RenderText {#text} at (151,188) size 4x19
        text run at (151,188) width 4: " "
      RenderBR {BR} at (155,188) size 0x19
