{
  "bounds": [800, 600],
  "children": [
    {
      "bounds": [800, 600],
      "contentsOpaque": true,
      "drawsContent": true,
      "repaintRects": [
        [18, 18, 284, 16],
        [18, 18, 284, 16],
        [18, 18, 23, 16],
        [8, 182, 784, 16],
        [8, 182, 23, 16]
      ]
    }
  ]
}

