layer at (0,0) size 800x600
  RenderView at (0,0) size 800x600
layer at (0,0) size 800x319
  RenderBlock {HTML} at (0,0) size 800x319
    RenderBody {BODY} at (0,0) size 800x318
      RenderBlock {DIV} at (0,0) size 600x36
        RenderText {#text} at (0,0) size 203x15
          text run at (0,0) width 203: "Table autosizing tests - nested-tables.html"
        RenderBR {BR} at (203,0) size 0x15
        RenderText {#text} at (0,16) size 370x15
          text run at (0,16) width 370: "This test passes if \"This text should not overlap itself\" doesn't overlap itself."
      RenderTable {TABLE} at (1,37) size 798x281 [border: none]
        RenderTableSection {TBODY} at (0,0) size 797x280
          RenderTableRow {TR} at (0,0) size 797x280
            RenderTableCell {TD} at (0,0) size 797x280 [bgcolor=#F0FFF0] [border: (1px dotted #006400)] [r=0 c=0 rs=1 cs=1]
              RenderBlock (anonymous) at (2,2) size 794x204
                RenderText {#text} at (0,0) size 786x203
                  text run at (0,0) width 786: "Autosize Autosize Autosize Autosize Autosize Autosize Autosize"
                  text run at (0,34) width 786: "Autosize Autosize Autosize Autosize Autosize Autosize Autosize"
                  text run at (0,68) width 786: "Autosize Autosize Autosize Autosize Autosize Autosize Autosize"
                  text run at (0,102) width 786: "Autosize Autosize Autosize Autosize Autosize Autosize Autosize"
                  text run at (0,136) width 786: "Autosize Autosize Autosize Autosize Autosize Autosize Autosize"
                  text run at (0,170) width 106: "Autosize"
              RenderTable {TABLE} at (3,207) size 94x71 [border: none]
                RenderTableSection {TBODY} at (0,0) size 93x70
                  RenderTableRow {TR} at (0,0) size 93x51
                    RenderTableCell {TD} at (0,0) size 93x51 [bgcolor=#F0FFF0] [border: (1px dotted #006400)] [r=0 c=0 rs=1 cs=1]
                      RenderText {#text} at (2,2) size 43x15
                        text run at (2,2) width 43: "This text"
                      RenderBR {BR} at (45,2) size 0x15
                      RenderText {#text} at (2,18) size 90x15
                        text run at (2,18) width 90: "should not overlap"
                      RenderBR {BR} at (92,18) size 0x15
                      RenderText {#text} at (2,34) size 27x15
                        text run at (2,34) width 27: "itself."
                  RenderTableRow {TR} at (0,51) size 93x19
                    RenderTableCell {TD} at (0,51) size 93x19 [bgcolor=#F0FFF0] [border: (1px dotted #006400)] [r=1 c=0 rs=1 cs=1]
                      RenderBlock {IMG} at (2,2) size 5x5
layer at (6,304) size 5x5 clip at (7,305) size 3x3 scrollWidth 17 scrollHeight 18
  RenderBlock {DIV} at (0,7) size 5x5 [border: (1px solid #C0C0C0)]
    RenderImage {IMG} at (2,2) size 16x16
layer at (24,306) size 0x0
  RenderBlock {DIV} at (18,2) size 0x0
