layer at (0,0) size 800x600
  RenderView at (0,0) size 800x600
layer at (0,0) size 800x600
  RenderBlock {HTML} at (0,0) size 800x600
    RenderBody {BODY} at (8,8) size 784x584
      RenderBlock {P} at (0,0) size 784x32
        RenderText {#text} at (0,0) size 768x32
          text run at (0,0) width 768: "This is a regression test for https://bugs.webkit.org/show_bug.cgi?id=50434. It verifies that a marquee does not animate"
          text run at (0,16) width 256: "when scrollAmount is set to 0 by script."
      RenderBlock (anonymous) at (0,48) size 784x16
        RenderText {#text} at (0,0) size 0x0
layer at (8,56) size 100x16
  RenderBlock {MARQUEE} at (0,0) size 100x16 [color=#FFFFFF]
layer at (8,56) size 100x16
  RenderBlock {DIV} at (0,0) size 100x16
    RenderText {#text} at (0,0) size 28x16
      text run at (0,0) width 28: "Test"
