layer at (0,0) size 800x600
  RenderView at (0,0) size 800x600
layer at (0,0) size 800x600
  RenderBlock {HTML} at (0,0) size 800x600
    RenderBody {BODY} at (8,8) size 784x576
      RenderBlock {P} at (0,0) size 784x20
        RenderText {#text} at (0,0) size 705x19
          text run at (0,0) width 432: "You should see two 100x100 green squares with black borders below. "
          text run at (432,0) width 273: "If you see only one square, the test has failed."
      RenderBlock {P} at (0,36) size 784x104
        RenderBlock {IMG} at (0,0) size 104x104 [bgcolor=#008000] [border: (2px solid #000000)]
layer at (10,46) size 100x100 clip at (11,47) size 98x98
  RenderBlock {DIV} at (2,2) size 100x100 [border: (1px solid #C0C0C0)]
    RenderImage {IMG} at (2,2) size 16x16
layer at (28,48) size 80x0
  RenderBlock {DIV} at (18,2) size 80x0
