layer at (0,0) size 480x360
  RenderView at (0,0) size 480x360
layer at (0,0) size 480x360
  RenderSVGRoot {svg} at (0,0) size 480x360
    RenderSVGText {text} at (10,304) size 281x46 contains 1 chunk(s)
      RenderSVGInlineText {#text} at (0,0) size 281x46
        chunk 1 text run 1 at (10.00,340.00) startOffset 0 endOffset 17 width 281.00: "$Revision: 1.11 $"
    RenderSVGRect {rect} at (0,0) size 480x360 [stroke={[type=SOLID] [color=#000000]}] [x=1.00] [y=1.00] [width=478.00] [height=358.00]
    RenderSVGText {text} at (137,10) size 206x19 contains 1 chunk(s)
      RenderSVGInlineText {#text} at (0,0) size 205x19
        chunk 1 (middle anchor) text run 1 at (137.50,25.00) startOffset 0 endOffset 32 width 205.00: "<animateTransform> on structure,"
    RenderSVGText {text} at (150,30) size 180x19 contains 1 chunk(s)
      RenderSVGInlineText {#text} at (0,0) size 180x19
        chunk 1 (middle anchor) text run 1 at (150.00,45.00) startOffset 0 endOffset 30 width 180.00: "hyperlinking and text elements"
    RenderSVGContainer {g} at (29,59) size 422x225
      RenderSVGContainer {g} at (29,59) size 62x95 [transform={m=((1.00,0.00)(0.00,1.00)) t=(60.00,90.00)}]
        RenderSVGContainer {g} at (29,59) size 62x62
          RenderSVGPath {path} at (59,59) size 32x32 [stroke={[type=SOLID] [color=#FFB400]}] [fill={[type=SOLID] [color=#E6E6E6]}] [data="M 0 0 C 30 0 30 0 30 -30 C 0 -30 0 -30 0 0 Z"]
          RenderSVGPath {path} at (59,89) size 32x32 [transform={m=((0.00,1.00)(-1.00,0.00)) t=(0.00,0.00)}] [stroke={[type=SOLID] [color=#FFB400]}] [fill={[type=SOLID] [color=#E6E6E6]}] [data="M 0 0 C 30 0 30 0 30 -30 C 0 -30 0 -30 0 0 Z"]
          RenderSVGPath {path} at (29,89) size 32x32 [transform={m=((-1.00,0.00)(-0.00,-1.00)) t=(0.00,0.00)}] [stroke={[type=SOLID] [color=#FFB400]}] [fill={[type=SOLID] [color=#E6E6E6]}] [data="M 0 0 C 30 0 30 0 30 -30 C 0 -30 0 -30 0 0 Z"]
          RenderSVGPath {path} at (29,59) size 32x32 [transform={m=((-0.00,-1.00)(1.00,-0.00)) t=(0.00,0.00)}] [stroke={[type=SOLID] [color=#FFB400]}] [fill={[type=SOLID] [color=#E6E6E6]}] [data="M 0 0 C 30 0 30 0 30 -30 C 0 -30 0 -30 0 0 Z"]
          RenderSVGRect {rect} at (44,74) size 32x32 [stroke={[type=SOLID] [color=#FFB400]}] [fill={[type=SOLID] [color=#E6E6E6]}] [x=-15.00] [y=-15.00] [width=30.00] [height=30.00]
        RenderSVGText {text} at (-13,45) size 26x19 contains 1 chunk(s)
          RenderSVGInlineText {#text} at (0,0) size 25x19
            chunk 1 (middle anchor) text run 1 at (-12.50,60.00) startOffset 0 endOffset 3 width 25.00: "<g>"
      RenderSVGContainer {g} at (147,67) size 66x87 [transform={m=((1.00,0.00)(0.00,1.00)) t=(180.00,110.00)}]
        RenderSVGContainer {g} at (147,67) size 66x56
          RenderSVGContainer {use} at (147,67) size 26x26 [transform={m=((0.40,0.00)(0.00,0.40)) t=(-20.00,-30.00)}]
            RenderSVGContainer {g} at (147,67) size 26x26
              RenderSVGPath {path} at (159,67) size 14x14 [stroke={[type=SOLID] [color=#FFB400]}] [fill={[type=SOLID] [color=#E6E6E6]}] [data="M 0 0 C 30 0 30 0 30 -30 C 0 -30 0 -30 0 0 Z"]
              RenderSVGPath {path} at (159,79) size 14x14 [transform={m=((0.00,1.00)(-1.00,0.00)) t=(0.00,0.00)}] [stroke={[type=SOLID] [color=#FFB400]}] [fill={[type=SOLID] [color=#E6E6E6]}] [data="M 0 0 C 30 0 30 0 30 -30 C 0 -30 0 -30 0 0 Z"]
              RenderSVGPath {path} at (147,79) size 14x14 [transform={m=((-1.00,0.00)(-0.00,-1.00)) t=(0.00,0.00)}] [stroke={[type=SOLID] [color=#FFB400]}] [fill={[type=SOLID] [color=#E6E6E6]}] [data="M 0 0 C 30 0 30 0 30 -30 C 0 -30 0 -30 0 0 Z"]
              RenderSVGPath {path} at (147,67) size 14x14 [transform={m=((-0.00,-1.00)(1.00,-0.00)) t=(0.00,0.00)}] [stroke={[type=SOLID] [color=#FFB400]}] [fill={[type=SOLID] [color=#E6E6E6]}] [data="M 0 0 C 30 0 30 0 30 -30 C 0 -30 0 -30 0 0 Z"]
              RenderSVGRect {rect} at (153,73) size 14x14 [stroke={[type=SOLID] [color=#FFB400]}] [fill={[type=SOLID] [color=#E6E6E6]}] [x=-15.00] [y=-15.00] [width=30.00] [height=30.00]
          RenderSVGContainer {use} at (147,97) size 26x26 [transform={m=((0.40,0.00)(0.00,0.40)) t=(-20.00,0.00)}]
            RenderSVGContainer {g} at (147,97) size 26x26
              RenderSVGPath {path} at (159,97) size 14x14 [stroke={[type=SOLID] [color=#FFB400]}] [fill={[type=SOLID] [color=#E6E6E6]}] [data="M 0 0 C 30 0 30 0 30 -30 C 0 -30 0 -30 0 0 Z"]
              RenderSVGPath {path} at (159,109) size 14x14 [transform={m=((0.00,1.00)(-1.00,0.00)) t=(0.00,0.00)}] [stroke={[type=SOLID] [color=#FFB400]}] [fill={[type=SOLID] [color=#E6E6E6]}] [data="M 0 0 C 30 0 30 0 30 -30 C 0 -30 0 -30 0 0 Z"]
              RenderSVGPath {path} at (147,109) size 14x14 [transform={m=((-1.00,0.00)(-0.00,-1.00)) t=(0.00,0.00)}] [stroke={[type=SOLID] [color=#FFB400]}] [fill={[type=SOLID] [color=#E6E6E6]}] [data="M 0 0 C 30 0 30 0 30 -30 C 0 -30 0 -30 0 0 Z"]
              RenderSVGPath {path} at (147,97) size 14x14 [transform={m=((-0.00,-1.00)(1.00,-0.00)) t=(0.00,0.00)}] [stroke={[type=SOLID] [color=#FFB400]}] [fill={[type=SOLID] [color=#E6E6E6]}] [data="M 0 0 C 30 0 30 0 30 -30 C 0 -30 0 -30 0 0 Z"]
              RenderSVGRect {rect} at (153,103) size 14x14 [stroke={[type=SOLID] [color=#FFB400]}] [fill={[type=SOLID] [color=#E6E6E6]}] [x=-15.00] [y=-15.00] [width=30.00] [height=30.00]
          RenderSVGContainer {use} at (187,67) size 26x26 [transform={m=((0.40,0.00)(0.00,0.40)) t=(20.00,-30.00)}]
            RenderSVGContainer {g} at (187,67) size 26x26
              RenderSVGPath {path} at (199,67) size 14x14 [stroke={[type=SOLID] [color=#FFB400]}] [fill={[type=SOLID] [color=#E6E6E6]}] [data="M 0 0 C 30 0 30 0 30 -30 C 0 -30 0 -30 0 0 Z"]
              RenderSVGPath {path} at (199,79) size 14x14 [transform={m=((0.00,1.00)(-1.00,0.00)) t=(0.00,0.00)}] [stroke={[type=SOLID] [color=#FFB400]}] [fill={[type=SOLID] [color=#E6E6E6]}] [data="M 0 0 C 30 0 30 0 30 -30 C 0 -30 0 -30 0 0 Z"]
              RenderSVGPath {path} at (187,79) size 14x14 [transform={m=((-1.00,0.00)(-0.00,-1.00)) t=(0.00,0.00)}] [stroke={[type=SOLID] [color=#FFB400]}] [fill={[type=SOLID] [color=#E6E6E6]}] [data="M 0 0 C 30 0 30 0 30 -30 C 0 -30 0 -30 0 0 Z"]
              RenderSVGPath {path} at (187,67) size 14x14 [transform={m=((-0.00,-1.00)(1.00,-0.00)) t=(0.00,0.00)}] [stroke={[type=SOLID] [color=#FFB400]}] [fill={[type=SOLID] [color=#E6E6E6]}] [data="M 0 0 C 30 0 30 0 30 -30 C 0 -30 0 -30 0 0 Z"]
              RenderSVGRect {rect} at (193,73) size 14x14 [stroke={[type=SOLID] [color=#FFB400]}] [fill={[type=SOLID] [color=#E6E6E6]}] [x=-15.00] [y=-15.00] [width=30.00] [height=30.00]
          RenderSVGContainer {use} at (187,97) size 26x26 [transform={m=((0.40,0.00)(0.00,0.40)) t=(20.00,0.00)}]
            RenderSVGContainer {g} at (187,97) size 26x26
              RenderSVGPath {path} at (199,97) size 14x14 [stroke={[type=SOLID] [color=#FFB400]}] [fill={[type=SOLID] [color=#E6E6E6]}] [data="M 0 0 C 30 0 30 0 30 -30 C 0 -30 0 -30 0 0 Z"]
              RenderSVGPath {path} at (199,109) size 14x14 [transform={m=((0.00,1.00)(-1.00,0.00)) t=(0.00,0.00)}] [stroke={[type=SOLID] [color=#FFB400]}] [fill={[type=SOLID] [color=#E6E6E6]}] [data="M 0 0 C 30 0 30 0 30 -30 C 0 -30 0 -30 0 0 Z"]
              RenderSVGPath {path} at (187,109) size 14x14 [transform={m=((-1.00,0.00)(-0.00,-1.00)) t=(0.00,0.00)}] [stroke={[type=SOLID] [color=#FFB400]}] [fill={[type=SOLID] [color=#E6E6E6]}] [data="M 0 0 C 30 0 30 0 30 -30 C 0 -30 0 -30 0 0 Z"]
              RenderSVGPath {path} at (187,97) size 14x14 [transform={m=((-0.00,-1.00)(1.00,-0.00)) t=(0.00,0.00)}] [stroke={[type=SOLID] [color=#FFB400]}] [fill={[type=SOLID] [color=#E6E6E6]}] [data="M 0 0 C 30 0 30 0 30 -30 C 0 -30 0 -30 0 0 Z"]
              RenderSVGRect {rect} at (193,103) size 14x14 [stroke={[type=SOLID] [color=#FFB400]}] [fill={[type=SOLID] [color=#E6E6E6]}] [x=-15.00] [y=-15.00] [width=30.00] [height=30.00]
        RenderSVGText {text} at (-19,25) size 38x19 contains 1 chunk(s)
          RenderSVGInlineText {#text} at (0,0) size 38x19
            chunk 1 (middle anchor) text run 1 at (-19.00,40.00) startOffset 0 endOffset 5 width 38.00: "<use>"
      RenderSVGContainer {g} at (270,60) size 60x94 [transform={m=((1.00,0.00)(0.00,1.00)) t=(300.00,90.00)}]
        RenderSVGImage {image} at (270,60) size 60x60
        RenderSVGText {text} at (-27,45) size 54x19 contains 1 chunk(s)
          RenderSVGInlineText {#text} at (0,0) size 53x19
            chunk 1 (middle anchor) text run 1 at (-26.50,60.00) startOffset 0 endOffset 7 width 53.00: "<image>"
      RenderSVGContainer {g} at (389,59) size 62x95 [transform={m=((1.00,0.00)(0.00,1.00)) t=(420.00,90.00)}]
        RenderSVGContainer {switch} at (389,59) size 62x62
          RenderSVGContainer {g} at (389,59) size 62x62
            RenderSVGPath {path} at (419,59) size 32x32 [stroke={[type=SOLID] [color=#FFB400]}] [fill={[type=SOLID] [color=#E6E6E6]}] [data="M 0 0 C 30 0 30 0 30 -30 C 0 -30 0 -30 0 0 Z"]
            RenderSVGPath {path} at (419,89) size 32x32 [transform={m=((0.00,1.00)(-1.00,0.00)) t=(0.00,0.00)}] [stroke={[type=SOLID] [color=#FFB400]}] [fill={[type=SOLID] [color=#E6E6E6]}] [data="M 0 0 C 30 0 30 0 30 -30 C 0 -30 0 -30 0 0 Z"]
            RenderSVGPath {path} at (389,89) size 32x32 [transform={m=((-1.00,0.00)(-0.00,-1.00)) t=(0.00,0.00)}] [stroke={[type=SOLID] [color=#FFB400]}] [fill={[type=SOLID] [color=#E6E6E6]}] [data="M 0 0 C 30 0 30 0 30 -30 C 0 -30 0 -30 0 0 Z"]
            RenderSVGPath {path} at (389,59) size 32x32 [transform={m=((-0.00,-1.00)(1.00,-0.00)) t=(0.00,0.00)}] [stroke={[type=SOLID] [color=#FFB400]}] [fill={[type=SOLID] [color=#E6E6E6]}] [data="M 0 0 C 30 0 30 0 30 -30 C 0 -30 0 -30 0 0 Z"]
            RenderSVGRect {rect} at (404,74) size 32x32 [stroke={[type=SOLID] [color=#FFB400]}] [fill={[type=SOLID] [color=#E6E6E6]}] [x=-15.00] [y=-15.00] [width=30.00] [height=30.00]
        RenderSVGText {text} at (-28,45) size 56x19 contains 1 chunk(s)
          RenderSVGInlineText {#text} at (0,0) size 56x19
            chunk 1 (middle anchor) text run 1 at (-28.00,60.00) startOffset 0 endOffset 8 width 56.00: "<switch>"
      RenderSVGContainer {g} at (29,189) size 62x95 [transform={m=((1.00,0.00)(0.00,1.00)) t=(60.00,220.00)}]
        RenderSVGContainer {a} at (29,189) size 62x62
          RenderSVGContainer {g} at (29,189) size 62x62
            RenderSVGPath {path} at (59,189) size 32x32 [stroke={[type=SOLID] [color=#FFB400]}] [fill={[type=SOLID] [color=#E6E6E6]}] [data="M 0 0 C 30 0 30 0 30 -30 C 0 -30 0 -30 0 0 Z"]
            RenderSVGPath {path} at (59,219) size 32x32 [transform={m=((0.00,1.00)(-1.00,0.00)) t=(0.00,0.00)}] [stroke={[type=SOLID] [color=#FFB400]}] [fill={[type=SOLID] [color=#E6E6E6]}] [data="M 0 0 C 30 0 30 0 30 -30 C 0 -30 0 -30 0 0 Z"]
            RenderSVGPath {path} at (29,219) size 32x32 [transform={m=((-1.00,0.00)(-0.00,-1.00)) t=(0.00,0.00)}] [stroke={[type=SOLID] [color=#FFB400]}] [fill={[type=SOLID] [color=#E6E6E6]}] [data="M 0 0 C 30 0 30 0 30 -30 C 0 -30 0 -30 0 0 Z"]
            RenderSVGPath {path} at (29,189) size 32x32 [transform={m=((-0.00,-1.00)(1.00,-0.00)) t=(0.00,0.00)}] [stroke={[type=SOLID] [color=#FFB400]}] [fill={[type=SOLID] [color=#E6E6E6]}] [data="M 0 0 C 30 0 30 0 30 -30 C 0 -30 0 -30 0 0 Z"]
            RenderSVGRect {rect} at (44,204) size 32x32 [stroke={[type=SOLID] [color=#FFB400]}] [fill={[type=SOLID] [color=#E6E6E6]}] [x=-15.00] [y=-15.00] [width=30.00] [height=30.00]
        RenderSVGText {text} at (-13,45) size 26x19 contains 1 chunk(s)
          RenderSVGInlineText {#text} at (0,0) size 25x19
            chunk 1 (middle anchor) text run 1 at (-12.50,60.00) startOffset 0 endOffset 3 width 25.00: "<a>"
      RenderSVGContainer {g} at (149,183) size 62x101 [transform={m=((1.00,0.00)(0.00,1.00)) t=(180.00,220.00)}]
        RenderSVGHiddenContainer {defs} at (0,0) size 0x0
        RenderSVGText {text} at (-30,-36) size 60x46 contains 1 chunk(s)
          RenderSVGInlineText {#text} at (0,0) size 60x46
            chunk 1 (middle anchor) text run 1 at (-30.00,0.00) startOffset 0 endOffset 3 width 60.00: "123"
        RenderSVGText {text} at (-20,45) size 40x19 contains 1 chunk(s)
          RenderSVGInlineText {#text} at (0,0) size 40x19
            chunk 1 (middle anchor) text run 1 at (-20.00,60.00) startOffset 0 endOffset 6 width 40.00: "<text>"
