layer at (0,0) size 480x360
  RenderView at (0,0) size 480x360
layer at (0,0) size 480x360
  RenderSVGRoot {svg} at (0,0) size 480x360
    RenderSVGContainer {g} at (30,48) size 419x178
      RenderSVGContainer {g} at (30,48) size 419x178 [transform={m=((1.00,0.00)(0.00,1.00)) t=(20.00,40.00)}]
        RenderSVGHiddenContainer {defs} at (0,0) size 0x0
          RenderSVGResourceFilter {filter} [id="convolve1"] [filterUnits=objectBoundingBox] [primitiveUnits=userSpaceOnUse]
            [feConvolveMatrix order="width=3 height=3" kernelMatrix="[0.11, 0.11, 0.11, 0.11, 0.11, 0.11, 0.11, 0.11, 0.11]" divisor="1.00" bias="0.00" target="(1,1)" edgeMode="NONE" kernelUnitLength="(1,1)" preserveAlpha="0"]
              [SourceGraphic]
          RenderSVGResourceFilter {filter} [id="convolve2"] [filterUnits=objectBoundingBox] [primitiveUnits=userSpaceOnUse]
            [feConvolveMatrix order="width=3 height=3" kernelMatrix="[-1.00, -1.00, -1.00, -1.00, 8.00, -1.00, -1.00, -1.00, -1.00]" divisor="1.00" bias="0.00" target="(1,1)" edgeMode="DUPLICATE" kernelUnitLength="(1,1)" preserveAlpha="0"]
              [SourceGraphic]
          RenderSVGResourceFilter {filter} [id="convolve3"] [filterUnits=objectBoundingBox] [primitiveUnits=userSpaceOnUse]
            [feConvolveMatrix order="width=3 height=3" kernelMatrix="[-1.00, -1.00, -1.00, -1.00, 9.00, -1.00, -1.00, -1.00, -1.00]" divisor="1.00" bias="0.00" target="(1,1)" edgeMode="NONE" kernelUnitLength="(1,1)" preserveAlpha="0"]
              [SourceGraphic]
          RenderSVGResourceFilter {filter} [id="convolve4"] [filterUnits=objectBoundingBox] [primitiveUnits=userSpaceOnUse]
            [feConvolveMatrix order="width=3 height=3" kernelMatrix="[-2.00, 0.00, 0.00, 0.00, 1.00, 0.00, 0.00, 0.00, 2.00]" divisor="1.00" bias="0.00" target="(1,1)" edgeMode="NONE" kernelUnitLength="(1,1)" preserveAlpha="0"]
              [SourceGraphic]
          RenderSVGResourceFilter {filter} [id="convolve5"] [filterUnits=objectBoundingBox] [primitiveUnits=userSpaceOnUse]
            [feConvolveMatrix order="width=3 height=1" kernelMatrix="[0.33, 0.33, 0.33]" divisor="1.00" bias="0.00" target="(1,0)" edgeMode="NONE" kernelUnitLength="(1,1)" preserveAlpha="0"]
              [SourceGraphic]
          RenderSVGResourceFilter {filter} [id="convolve6"] [filterUnits=objectBoundingBox] [primitiveUnits=userSpaceOnUse]
            [feConvolveMatrix order="width=1 height=3" kernelMatrix="[0.33, 0.33, 0.33]" divisor="1.00" bias="0.00" target="(0,1)" edgeMode="NONE" kernelUnitLength="(1,1)" preserveAlpha="0"]
              [SourceGraphic]
        RenderSVGContainer {g} at (30,48) size 419x178
          RenderSVGText {text} at (10,8) size 68x16 contains 1 chunk(s)
            RenderSVGInlineText {#text} at (0,0) size 68x16
              chunk 1 text run 1 at (10.00,20.00) startOffset 0 endOffset 10 width 67.10: "Blur (3x3)"
          RenderSVGContainer {g} at (30,70) size 50x63
            RenderSVGImage {image} at (30,70) size 50x63
              [filter="convolve1"] RenderSVGResourceFilter {filter} at (10,30) size 50x63
          RenderSVGText {text} at (10,8) size 138x16 contains 1 chunk(s)
            RenderSVGInlineText {#text} at (0,0) size 138x16
              chunk 1 text run 1 at (10.00,20.00) startOffset 0 endOffset 20 width 137.73: "Edge Detection (3x3)"
          RenderSVGContainer {g} at (180,70) size 50x63 [transform={m=((1.00,0.00)(0.00,1.00)) t=(150.00,0.00)}]
            RenderSVGImage {image} at (180,70) size 50x63
              [filter="convolve2"] RenderSVGResourceFilter {filter} at (10,30) size 50x63
          RenderSVGText {text} at (10,8) size 112x16 contains 1 chunk(s)
            RenderSVGInlineText {#text} at (0,0) size 112x16
              chunk 1 text run 1 at (10.00,20.00) startOffset 0 endOffset 16 width 111.53: "Sharpening (3x3)"
          RenderSVGContainer {g} at (330,70) size 50x63 [transform={m=((1.00,0.00)(0.00,1.00)) t=(300.00,0.00)}]
            RenderSVGImage {image} at (330,70) size 50x63
              [filter="convolve3"] RenderSVGResourceFilter {filter} at (10,30) size 50x63
          RenderSVGText {text} at (10,8) size 110x16 contains 1 chunk(s)
            RenderSVGInlineText {#text} at (0,0) size 110x16
              chunk 1 text run 1 at (10.00,20.00) startOffset 0 endOffset 15 width 109.77: "Embossing (3x3)"
          RenderSVGContainer {g} at (30,163) size 50x63 [transform={m=((1.00,0.00)(0.00,1.00)) t=(0.00,93.00)}]
            RenderSVGImage {image} at (30,163) size 50x63
              [filter="convolve4"] RenderSVGResourceFilter {filter} at (10,30) size 50x63
          RenderSVGText {text} at (10,8) size 137x16 contains 1 chunk(s)
            RenderSVGInlineText {#text} at (0,0) size 137x16
              chunk 1 text run 1 at (10.00,20.00) startOffset 0 endOffset 21 width 136.85: "Horizontal blur (3x1)"
          RenderSVGContainer {g} at (180,163) size 50x63 [transform={m=((1.00,0.00)(0.00,1.00)) t=(150.00,93.00)}]
            RenderSVGImage {image} at (180,163) size 50x63
              [filter="convolve5"] RenderSVGResourceFilter {filter} at (10,30) size 50x63
          RenderSVGText {text} at (10,8) size 119x16 contains 1 chunk(s)
            RenderSVGInlineText {#text} at (0,0) size 119x16
              chunk 1 text run 1 at (10.00,20.00) startOffset 0 endOffset 19 width 118.18: "Vertical blur (1x3)"
          RenderSVGContainer {g} at (330,163) size 50x63 [transform={m=((1.00,0.00)(0.00,1.00)) t=(300.00,93.00)}]
            RenderSVGImage {image} at (330,163) size 50x63
              [filter="convolve6"] RenderSVGResourceFilter {filter} at (10,30) size 50x63
    RenderSVGText {text} at (10,310) size 264x40 contains 1 chunk(s)
      RenderSVGInlineText {#text} at (0,0) size 264x40
        chunk 1 text run 1 at (10.00,340.00) startOffset 0 endOffset 16 width 263.34: "$Revision: 1.5 $"
    RenderSVGRect {rect} at (0,0) size 480x360 [stroke={[type=SOLID] [color=#000000]}] [x=1.00] [y=1.00] [width=478.00] [height=358.00]
