layer at (0,0) size 480x360
  RenderView at (0,0) size 480x360
layer at (0,0) size 480x360
  RenderSVGRoot {svg} at (0,0) size 480x360
    RenderSVGContainer {g} at (10,7) size 470x281
      RenderSVGText {text} at (10,7) size 475x41 contains 1 chunk(s)
        RenderSVGInlineText {#text} at (0,0) size 475x41
          chunk 1 text run 1 at (10.00,40.00) startOffset 0 endOffset 31 width 474.22: "Basic paint: stroke properties."
      RenderSVGRect {rect} at (90,70) size 300x50 [fill={[type=SOLID] [color=#0000FF]}] [x=90.00] [y=70.00] [width=300.00] [height=50.00]
      RenderSVGRect {rect} at (80,180) size 320x70 [stroke={[type=SOLID] [color=#FF0000] [stroke width=20.00]}] [fill={[type=SOLID] [color=#0000FF]}] [x=90.00] [y=190.00] [width=300.00] [height=50.00]
      RenderSVGText {text} at (140,114) size 250x44 contains 1 chunk(s)
        RenderSVGInlineText {#text} at (0,0) size 250x44
          chunk 1 text run 1 at (140.00,150.00) startOffset 0 endOffset 13 width 249.67: "stroke=\"none\""
      RenderSVGText {text} at (148,244) size 219x44 contains 1 chunk(s)
        RenderSVGInlineText {#text} at (0,0) size 219x44
          chunk 1 text run 1 at (148.00,280.00) startOffset 0 endOffset 12 width 218.50: "stroke=\"red\""
    RenderSVGText {text} at (10,310) size 284x40 contains 1 chunk(s)
      RenderSVGInlineText {#text} at (0,0) size 284x40
        chunk 1 text run 1 at (10.00,340.00) startOffset 0 endOffset 17 width 283.34: "$Revision: 1.11 $"
    RenderSVGRect {rect} at (0,0) size 480x360 [stroke={[type=SOLID] [color=#000000]}] [x=1.00] [y=1.00] [width=478.00] [height=358.00]
