layer at (0,0) size 480x360
  RenderView at (0,0) size 480x360
layer at (0,0) size 480x360
  RenderSVGRoot {svg} at (0,0) size 480x360
    RenderSVGContainer {g} at (0,0) size 151x151
      RenderSVGEllipse {circle} at (0,0) size 51x51 [stroke={[type=SOLID] [color=#000000]}] [fill={[type=SOLID] [color=#FF0000]}] [cx=0.00] [cy=0.00] [r=50.00]
      RenderSVGEllipse {circle} at (0,49) size 51x102 [stroke={[type=SOLID] [color=#000000]}] [fill={[type=SOLID] [color=#FF0000]}] [cx=0.00] [cy=100.00] [r=50.00]
      RenderSVGEllipse {circle} at (49,0) size 102x51 [stroke={[type=SOLID] [color=#000000]}] [fill={[type=SOLID] [color=#FF0000]}] [cx=100.00] [cy=0.00] [r=50.00]
      RenderSVGEllipse {circle} at (99,99) size 2x2 [stroke={[type=SOLID] [color=#000000]}] [fill={[type=SOLID] [color=#FF0000]}] [cx=100.00] [cy=100.00] [r=0.00]
      RenderSVGEllipse {circle} at (49,49) size 102x102 [stroke={[type=SOLID] [color=#000000]}] [fill={[type=SOLID] [color=#FF0000]}] [cx=100.00] [cy=100.00] [r=50.00]
    RenderSVGText {text} at (10,310) size 264x40 contains 1 chunk(s)
      RenderSVGInlineText {#text} at (0,0) size 264x40
        chunk 1 text run 1 at (10.00,340.00) startOffset 0 endOffset 16 width 263.34: "$Revision: 1.3 $"
    RenderSVGRect {rect} at (0,0) size 480x360 [stroke={[type=SOLID] [color=#000000]}] [x=1.00] [y=1.00] [width=478.00] [height=358.00]
