layer at (0,0) size 480x360
  RenderView at (0,0) size 480x360
layer at (0,0) size 480x360
  RenderSVGRoot {svg} at (0,0) size 480x360
    RenderSVGContainer {g} at (0,50) size 480x170
      RenderSVGRect {rect} at (0,50) size 160x170 [fill={[type=SOLID] [color=#000000]}] [x=0.00] [y=50.00] [width=160.00] [height=170.00]
      RenderSVGRect {rect} at (160,50) size 160x170 [fill={[type=SOLID] [color=#992200]}] [x=160.00] [y=50.00] [width=160.00] [height=170.00]
      RenderSVGRect {rect} at (320,50) size 160x170 [fill={[type=SOLID] [color=#002299]}] [x=320.00] [y=50.00] [width=160.00] [height=170.00]
      RenderSVGImage {image} at (0,60) size 162x150
      RenderSVGImage {image} at (160,60) size 162x150
      RenderSVGImage {image} at (320,60) size 160x150
    RenderSVGText {text} at (10,310) size 264x40 contains 1 chunk(s)
      RenderSVGInlineText {#text} at (0,0) size 264x40
        chunk 1 text run 1 at (10.00,340.00) startOffset 0 endOffset 16 width 263.34: "$Revision: 1.5 $"
    RenderSVGRect {rect} at (0,0) size 480x360 [stroke={[type=SOLID] [color=#000000]}] [x=1.00] [y=1.00] [width=478.00] [height=358.00]
