layer at (0,0) size 480x360
  RenderView at (0,0) size 480x360
layer at (0,0) size 480x360
  RenderSVGRoot {svg} at (3,3) size 474x354
    RenderSVGContainer {g} at (18,4) size 439x301
      RenderSVGContainer {g} at (18,4) size 439x301
        RenderSVGText {text} at (3,0) size 55x10 contains 1 chunk(s)
          RenderSVGInlineText {#text} at (0,0) size 55x9
            chunk 1 text run 1 at (3.00,8.00) startOffset 0 endOffset 16 width 54.70: "letter-spacing:0"
        RenderSVGText {text} at (3,8) size 42x10 contains 1 chunk(s)
          RenderSVGInlineText {#text} at (0,0) size 42x9
            chunk 1 text run 1 at (3.00,16.00) startOffset 0 endOffset 1 width 1.78: "l"
            chunk 1 text run 2 at (3.78,16.00) startOffset 1 endOffset 2 width 4.45: "e"
            chunk 1 text run 3 at (7.23,16.00) startOffset 2 endOffset 3 width 2.22: "t"
            chunk 1 text run 4 at (8.45,16.00) startOffset 3 endOffset 4 width 2.22: "t"
            chunk 1 text run 5 at (9.67,16.00) startOffset 4 endOffset 5 width 4.45: "e"
            chunk 1 text run 6 at (13.12,16.00) startOffset 5 endOffset 6 width 2.66: "r"
            chunk 1 text run 7 at (14.79,16.00) startOffset 6 endOffset 7 width 2.66: "-"
            chunk 1 text run 8 at (16.45,16.00) startOffset 7 endOffset 8 width 4.00: "s"
            chunk 1 text run 9 at (19.45,16.00) startOffset 8 endOffset 9 width 4.45: "p"
            chunk 1 text run 10 at (22.90,16.00) startOffset 9 endOffset 10 width 4.45: "a"
            chunk 1 text run 11 at (26.35,16.00) startOffset 10 endOffset 11 width 4.00: "c"
            chunk 1 text run 12 at (29.35,16.00) startOffset 11 endOffset 12 width 1.78: "i"
            chunk 1 text run 13 at (30.13,16.00) startOffset 12 endOffset 13 width 4.45: "n"
            chunk 1 text run 14 at (33.57,16.00) startOffset 13 endOffset 14 width 4.45: "g"
            chunk 1 text run 15 at (37.02,16.00) startOffset 14 endOffset 15 width 2.22: ":"
            chunk 1 text run 16 at (38.25,16.00) startOffset 15 endOffset 16 width 2.66: "-"
            chunk 1 text run 17 at (39.91,16.00) startOffset 16 endOffset 17 width 4.45: "1"
        RenderSVGText {text} at (3,16) size 62x10 contains 1 chunk(s)
          RenderSVGInlineText {#text} at (0,0) size 62x9
            chunk 1 text run 1 at (3.00,24.00) startOffset 0 endOffset 1 width 1.78: "l"
            chunk 1 text run 2 at (5.08,24.00) startOffset 1 endOffset 2 width 4.45: "e"
            chunk 1 text run 3 at (9.83,24.00) startOffset 2 endOffset 3 width 2.22: "t"
            chunk 1 text run 4 at (12.35,24.00) startOffset 3 endOffset 4 width 2.22: "t"
            chunk 1 text run 5 at (14.87,24.00) startOffset 4 endOffset 5 width 4.45: "e"
            chunk 1 text run 6 at (19.62,24.00) startOffset 5 endOffset 6 width 2.66: "r"
            chunk 1 text run 7 at (22.59,24.00) startOffset 6 endOffset 7 width 2.66: "-"
            chunk 1 text run 8 at (25.55,24.00) startOffset 7 endOffset 8 width 4.00: "s"
            chunk 1 text run 9 at (29.85,24.00) startOffset 8 endOffset 9 width 4.45: "p"
            chunk 1 text run 10 at (34.60,24.00) startOffset 9 endOffset 10 width 4.45: "a"
            chunk 1 text run 11 at (39.35,24.00) startOffset 10 endOffset 11 width 4.00: "c"
            chunk 1 text run 12 at (43.65,24.00) startOffset 11 endOffset 12 width 1.78: "i"
            chunk 1 text run 13 at (45.72,24.00) startOffset 12 endOffset 13 width 4.45: "n"
            chunk 1 text run 14 at (50.47,24.00) startOffset 13 endOffset 14 width 4.45: "g"
            chunk 1 text run 15 at (55.22,24.00) startOffset 14 endOffset 15 width 2.22: ":"
            chunk 1 text run 16 at (57.75,24.00) startOffset 15 endOffset 16 width 2.22: "."
            chunk 1 text run 17 at (60.27,24.00) startOffset 16 endOffset 17 width 4.45: "3"
        RenderSVGText {text} at (3,25) size 65x10 contains 1 chunk(s)
          RenderSVGInlineText {#text} at (0,0) size 65x9
            chunk 1 text run 1 at (3.00,33.00) startOffset 0 endOffset 16 width 64.01: "ws:0 - Two Words"
        RenderSVGText {text} at (3,33) size 58x10 contains 1 chunk(s)
          RenderSVGInlineText {#text} at (0,0) size 58x9
            chunk 1 text run 1 at (3.00,41.00) startOffset 0 endOffset 6 width 21.34: "ws:-3 "
            chunk 1 text run 2 at (21.34,41.00) startOffset 6 endOffset 8 width 4.89: "- "
            chunk 1 text run 3 at (23.22,41.00) startOffset 8 endOffset 12 width 17.34: "Two "
            chunk 1 text run 4 at (37.56,41.00) startOffset 12 endOffset 17 width 23.11: "Words"
        RenderSVGText {text} at (3,41) size 74x10 contains 1 chunk(s)
          RenderSVGInlineText {#text} at (0,0) size 74x9
            chunk 1 text run 1 at (3.00,49.00) startOffset 0 endOffset 5 width 18.67: "ws:3 "
            chunk 1 text run 2 at (24.67,49.00) startOffset 5 endOffset 7 width 4.89: "- "
            chunk 1 text run 3 at (32.56,49.00) startOffset 7 endOffset 11 width 17.34: "Two "
            chunk 1 text run 4 at (52.89,49.00) startOffset 11 endOffset 16 width 23.11: "Words"
    RenderSVGText {text} at (5,52) size 40x7 contains 1 chunk(s)
      RenderSVGInlineText {#text} at (0,0) size 40x6
        chunk 1 text run 1 at (5.00,57.00) startOffset 0 endOffset 16 width 39.50: "$Revision: 1.6 $"
    RenderSVGRect {rect} at (3,3) size 474x354 [stroke={[type=SOLID] [color=#000000]}] [x=1.00] [y=1.00] [width=78.00] [height=58.00]
