layer at (0,0) size 800x600 clip at (0,0) size 785x600 scrollHeight 603
  RenderView at (0,0) size 800x600
layer at (0,0) size 785x600
  RenderBlock {html} at (0,0) size 785x600
    RenderInline {base} at (0,0) size 0x0
    RenderText {#text} at (0,0) size 0x0
    RenderText {#text} at (0,0) size 0x0
    RenderSVGRoot {svg} at (0,0) size 100x100
      RenderSVGHiddenContainer {defs} at (0,0) size 0x0
        RenderSVGResourceLinearGradient {linearGradient} [id="orange_red"] [gradientUnits=objectBoundingBox] [start=(0,0)] [end=(1,0)]
          RenderSVGGradientStop {stop} [offset=0.00] [color=#FF0000]
          RenderSVGGradientStop {stop} [offset=1.00] [color=#FF0000]
      RenderSVGRect {rect} at (0,0) size 100x100 [x=0.00] [y=0.00] [width=100.00] [height=100.00]
    RenderText {#text} at (0,0) size 0x0
