layer at (0,0) size 800x600
  RenderView at (0,0) size 800x600
layer at (0,0) size 800x32
  RenderBlock {html} at (0,0) size 800x32
    RenderBody {body} at (8,8) size 784x16
      RenderBlock {div} at (0,0) size 784x16
        RenderInline {testA} at (0,0) size 308x16 [bgcolor=#00FF00]
          RenderText {#text} at (0,0) size 308x16
            text run at (0,0) width 308: "This paragraph should have a green background"
        RenderText {#text} at (0,0) size 0x0
