layer at (0,0) size 800x600 scrollHeight 889
  RenderView at (0,0) size 800x600
layer at (0,0) size 800x825 backgroundClip at (0,0) size 800x600 clip at (0,0) size 800x600 outlineClip at (0,0) size 800x600
  RenderBlock {HTML} at (0,0) size 800x825
    RenderBody {BODY} at (8,8) size 242x802 [border: (1px dashed #C0C0C0)]
      RenderBlock {P} at (1,17) size 240x48
        RenderText {#text} at (0,0) size 233x48
          text run at (0,0) width 222: "The following six blue boxes must"
          text run at (0,16) width 233: "be of the same width. There must be"
          text run at (0,32) width 45: "no red."
      RenderBlock {P} at (17,81) size 208x48 [bgcolor=#008000] [border: (16px solid #0000FF)]
        RenderText {#text} at (16,16) size 4x16
          text run at (16,16) width 4: " "
      RenderBlock {P} at (1,225) size 240x16
        RenderText {#text} at (0,0) size 24x16
          text run at (0,0) width 24: "      "
        RenderText {#text} at (0,0) size 0x0
      RenderBlock {P} at (1,337) size 240x16
      RenderTable at (1,449) size 240x80
        RenderTableSection (anonymous) at (0,0) size 240x80
          RenderTableRow (anonymous) at (0,0) size 240x80
            RenderTableCell {P} at (0,0) size 240x80 [r=0 c=0 rs=1 cs=1]
      RenderTable {TABLE} at (1,625) size 240x80
        RenderTableSection {TBODY} at (0,0) size 240x80
          RenderTableRow {TR} at (0,0) size 240x80
            RenderTableCell {TD} at (0,0) size 240x80 [r=0 c=0 rs=1 cs=1]
      RenderBlock (floating) {P} at (1,801) size 240x16
layer at (25,233) size 208x76
  RenderEmbeddedObject {OBJECT} at (16,0) size 208x76 [bgcolor=#FF0000] [border: (16px solid #0000FF)]
    layer at (0,0) size 176x44
      RenderView at (0,0) size 176x44
    layer at (0,0) size 176x44
      RenderSVGRoot {svg} at (0,0) size 176x44
        RenderSVGRect {rect} at (0,0) size 176x44 [stroke={[type=SOLID] [color=#008000] [stroke width=12.00]}] [fill={[type=SOLID] [color=#00FF00]}] [x=0.00] [y=0.00] [width=1000.00] [height=250.00]
        RenderSVGPath {path} at (26,8) size 124x28 [fill={[type=SOLID] [color=#008000]}] [data="M 500 50 L 150 200 L 850 200 Z"]
layer at (25,345) size 208x76
  RenderEmbeddedObject {OBJECT} at (16,0) size 208x76 [bgcolor=#FF0000] [border: (16px solid #0000FF)]
    layer at (0,0) size 176x44
      RenderView at (0,0) size 176x44
    layer at (0,0) size 176x44
      RenderSVGRoot {svg} at (0,0) size 176x44
        RenderSVGRect {rect} at (0,0) size 176x44 [stroke={[type=SOLID] [color=#008000] [stroke width=12.00]}] [fill={[type=SOLID] [color=#00FF00]}] [x=0.00] [y=0.00] [width=1000.00] [height=250.00]
        RenderSVGPath {path} at (26,8) size 124x28 [fill={[type=SOLID] [color=#008000]}] [data="M 500 50 L 150 200 L 850 200 Z"]
layer at (25,457) size 208x76
  RenderEmbeddedObject {OBJECT} at (16,0) size 208x76 [bgcolor=#FF0000] [border: (16px solid #0000FF)]
    layer at (0,0) size 176x44
      RenderView at (0,0) size 176x44
    layer at (0,0) size 176x44
      RenderSVGRoot {svg} at (0,0) size 176x44
        RenderSVGRect {rect} at (0,0) size 176x44 [stroke={[type=SOLID] [color=#008000] [stroke width=12.00]}] [fill={[type=SOLID] [color=#00FF00]}] [x=0.00] [y=0.00] [width=1000.00] [height=250.00]
        RenderSVGPath {path} at (26,8) size 124x28 [fill={[type=SOLID] [color=#008000]}] [data="M 500 50 L 150 200 L 850 200 Z"]
layer at (25,633) size 208x76 backgroundClip at (0,0) size 800x600 clip at (0,0) size 800x600 outlineClip at (0,0) size 800x600
  RenderEmbeddedObject {OBJECT} at (16,0) size 208x76 [bgcolor=#FF0000] [border: (16px solid #0000FF)]
    layer at (0,0) size 176x44
      RenderView at (0,0) size 176x44
    layer at (0,0) size 176x44
      RenderSVGRoot {svg} at (0,0) size 176x44
        RenderSVGRect {rect} at (0,0) size 176x44 [stroke={[type=SOLID] [color=#008000] [stroke width=12.00]}] [fill={[type=SOLID] [color=#00FF00]}] [x=0.00] [y=0.00] [width=1000.00] [height=250.00]
        RenderSVGPath {path} at (26,8) size 124x28 [fill={[type=SOLID] [color=#008000]}] [data="M 500 50 L 150 200 L 850 200 Z"]
layer at (25,809) size 208x76 backgroundClip at (0,0) size 800x600 clip at (0,0) size 800x600 outlineClip at (0,0) size 800x600
  RenderEmbeddedObject {OBJECT} at (16,0) size 208x76 [bgcolor=#FF0000] [border: (16px solid #0000FF)]
    layer at (0,0) size 176x44
      RenderView at (0,0) size 176x44
    layer at (0,0) size 176x44
      RenderSVGRoot {svg} at (0,0) size 176x44
        RenderSVGRect {rect} at (0,0) size 176x44 [stroke={[type=SOLID] [color=#008000] [stroke width=12.00]}] [fill={[type=SOLID] [color=#00FF00]}] [x=0.00] [y=0.00] [width=1000.00] [height=250.00]
        RenderSVGPath {path} at (26,8) size 124x28 [fill={[type=SOLID] [color=#008000]}] [data="M 500 50 L 150 200 L 850 200 Z"]
