EDITING DELEGATE: webViewDidChangeSelection:WebViewDidChangeSelectionNotification
EDITING DELEGATE: webViewDidChangeSelection:WebViewDidChangeSelectionNotification
EDITING DELEGATE: webViewDidChangeSelection:WebViewDidChangeSelectionNotification
layer at (0,0) size 800x600
  RenderView at (0,0) size 800x600
layer at (0,0) size 800x600
  RenderBlock {HTML} at (0,0) size 800x600
    RenderBody {BODY} at (8,8) size 784x584
      RenderBlock {P} at (0,0) size 784x32
        RenderText {#text} at (0,0) size 735x32
          text run at (0,0) width 735: "This tests moving the caret backward through content of mixed editability. The caret should back to just before the"
          text run at (0,16) width 92: "outlined table."
      RenderBlock {DIV} at (0,48) size 784x58
        RenderBlock (anonymous) at (0,0) size 784x16
          RenderText {#text} at (0,0) size 51x16
            text run at (0,0) width 51: "editable"
        RenderTable {TABLE} at (0,16) size 95x26 [border: (1px outset #808080)]
          RenderTableSection {TBODY} at (1,1) size 93x24
            RenderTableRow {TR} at (0,2) size 93x20
              RenderTableCell {TD} at (2,2) size 89x20 [border: (1px inset #808080)] [r=0 c=0 rs=1 cs=1]
                RenderBlock {DIV} at (2,2) size 84.41x16
                  RenderInline {SPAN} at (0,0) size 34x16
                    RenderText {#text} at (0,0) size 34x16
                      text run at (0,0) width 34: "static"
                  RenderInline {SPAN} at (0,0) size 52x16
                    RenderText {#text} at (33,0) size 52x16
                      text run at (33,0) width 52: "editable"
        RenderBlock (anonymous) at (0,42) size 784x16
          RenderText {#text} at (0,0) size 51x16
            text run at (0,0) width 51: "editable"
caret: position 0 of child 1 {TABLE} of child 2 {DIV} of body
