layer at (0,0) size 800x600
  RenderView at (0,0) size 800x600
layer at (0,0) size 800x64
  RenderBlock {HTML} at (0,0) size 800x64
    RenderBody {BODY} at (8,8) size 784x48
      RenderText {#text} at (0,0) size 748x48
        text run at (0,0) width 307: "You should see a 100x100 green square below. "
        text run at (306,0) width 373: "If you see nothing at all or see any red, the test has failed. "
        text run at (678,0) width 70: "This test is"
        text run at (0,16) width 298: "checking to make sure overflow is done using "
        text run at (297,16) width 438: "a containing block model, and that a fixed positioned element inside"
        text run at (0,32) width 389: "another fixed positioned element is not considered overflow."
      RenderText {#text} at (0,0) size 0x0
layer at (8,56) size 100x100 scrollWidth 200 scrollHeight 200
  RenderBlock (positioned) {DIV} at (8,56) size 100x100
    RenderBlock {DIV} at (100,100) size 100x100 [bgcolor=#FF0000]
layer at (100,70) size 100x100
  RenderBlock (positioned) {DIV} at (100,70) size 100x100 [bgcolor=#008000]
