layer at (0,0) size 800x600
  RenderView at (0,0) size 800x600
layer at (0,0) size 450x500
  RenderSVGRoot {svg} at (0,0) size 448x498
    RenderSVGHiddenContainer {defs} at (0,0) size 0x0
      RenderSVGResourceFilter {filter} [id="gaussianBlur"] [filterUnits=userSpaceOnUse] [primitiveUnits=userSpaceOnUse]
        [feGaussianBlur stdDeviation="2.00, 2.00"]
          [SourceGraphic]
      RenderSVGText {text} at (-21,-15) size 42x19 contains 1 chunk(s)
        RenderSVGInlineText {#text} at (0,0) size 42x19
          chunk 1 (middle anchor) text run 1 at (-21.00,0.00) startOffset 0 endOffset 6 width 42.00: "sample"
    RenderSVGContainer {g} at (0,36) size 427x434
      RenderSVGText {text} at (60,36) size 330x17 contains 1 chunk(s)
        RenderSVGInlineText {#text} at (0,0) size 330x17
          chunk 1 (middle anchor) text run 1 at (60.00,50.00) startOffset 0 endOffset 47 width 330.00: "Text Alignment, Geometry, References, and Spans"
      RenderSVGContainer {g} at (119,70) size 217x70
        RenderSVGPath {line} at (224,70) size 2x70 [stroke={[type=SOLID] [color=#808080]}] [fill={[type=SOLID] [color=#000000]}] [x1=225.00] [y1=70.00] [x2=225.00] [y2=140.00]
        RenderSVGText {text} at (225,77) size 111x17 contains 1 chunk(s)
          RenderSVGInlineText {#text} at (0,0) size 111x17
            chunk 1 text run 1 at (225.00,90.00) startOffset 0 endOffset 19 width 111.00: "text-anchor=\"start\""
        RenderSVGText {text} at (163,97) size 124x17 contains 1 chunk(s)
          RenderSVGInlineText {#text} at (0,0) size 123x17
            chunk 1 (middle anchor) text run 1 at (163.50,110.00) startOffset 0 endOffset 20 width 123.00: "text-anchor=\"middle\""
        RenderSVGText {text} at (119,117) size 106x17 contains 1 chunk(s)
          RenderSVGInlineText {#text} at (0,0) size 106x17
            chunk 1 (end anchor) text run 1 at (119.00,130.00) startOffset 0 endOffset 17 width 106.00: "text-anchor=\"end\""
      RenderSVGContainer {g} at (49,147) size 102x52 [transform={m=((1.00,0.00)(0.00,1.00)) t=(100.00,180.00)}]
        RenderSVGText {text} at (-51,-33) size 102x42 contains 1 chunk(s)
          RenderSVGInlineText {#text} at (0,0) size 102x42
            chunk 1 (middle anchor) text run 1 at (-51.00,0.00) startOffset 0 endOffset 6 width 102.00: "sample"
        RenderSVGText {text} at (-48,0) size 96x19 contains 1 chunk(s)
          RenderSVGInlineText {#text} at (0,0) size 96x19
            chunk 1 (middle anchor) text run 1 at (-48.00,15.00) startOffset 0 endOffset 15 width 96.00: "font-size=\"1cm\""
      RenderSVGContainer {g} at (171,152) size 108x47 [transform={m=((1.00,0.00)(0.00,1.00)) t=(225.00,180.00)}]
        RenderSVGText {text} at (-44,-28) size 88x36 contains 1 chunk(s)
          RenderSVGInlineText {#text} at (0,0) size 87x36
            chunk 1 (middle anchor) text run 1 at (-43.50,0.00) startOffset 0 endOffset 6 width 87.00: "sample"
        RenderSVGText {text} at (-54,0) size 108x19 contains 1 chunk(s)
          RenderSVGInlineText {#text} at (0,0) size 107x19
            chunk 1 (middle anchor) text run 1 at (-53.50,15.00) startOffset 0 endOffset 16 width 107.00: "font-size=\"200%\""
      RenderSVGContainer {g} at (293,144) size 114x55 [transform={m=((1.00,0.00)(0.00,1.00)) t=(350.00,180.00)}]
        RenderSVGText {text} at (-57,-36) size 114x46 contains 1 chunk(s)
          RenderSVGInlineText {#text} at (0,0) size 113x46
            chunk 1 (middle anchor) text run 1 at (-56.50,0.00) startOffset 0 endOffset 6 width 113.00: "sample"
        RenderSVGText {text} at (-43,0) size 86x19 contains 1 chunk(s)
          RenderSVGInlineText {#text} at (0,0) size 86x19
            chunk 1 (middle anchor) text run 1 at (-43.00,15.00) startOffset 0 endOffset 14 width 86.00: "font-size=\"28\""
      RenderSVGContainer {g} at (23,225) size 154x19 [transform={m=((1.00,0.00)(0.00,1.00)) t=(100.00,225.00)}]
        RenderSVGText {text}
        RenderSVGText {text} at (-77,0) size 154x19 contains 1 chunk(s)
          RenderSVGInlineText {#text} at (0,0) size 153x19
            chunk 1 (middle anchor) text run 1 at (-76.50,15.00) startOffset 0 endOffset 26 width 153.00: "referenced text via <tref>"
      RenderSVGContainer {g} at (180,197) size 90x47 [transform={m=((1.00,0.00)(0.00,1.00)) t=(225.00,225.00)}]
        RenderSVGText {text} at (-42,-28) size 84x35 contains 1 chunk(s)
          RenderSVGInlineText {#text} at (0,1) size 24x34
            chunk 1 (middle anchor) text run 1 at (-41.50,0.00) startOffset 0 endOffset 2 width 24.00: "sa"
          RenderSVGTSpan {tspan} at (0,0) size 24x35
            RenderSVGInlineText {#text} at (24,0) size 24x35
              chunk 1 (middle anchor) text run 1 at (-17.50,0.00) startOffset 0 endOffset 1 width 24.00: "m"
          RenderSVGInlineText {#text} at (48,1) size 35x34
            chunk 1 (middle anchor) text run 1 at (6.50,0.00) startOffset 0 endOffset 3 width 35.00: "ple"
        RenderSVGText {text} at (-45,0) size 90x19 contains 1 chunk(s)
          RenderSVGInlineText {#text} at (0,0) size 90x19
            chunk 1 (middle anchor) text run 1 at (-45.00,15.00) startOffset 0 endOffset 14 width 90.00: "use of <tspan>"
      RenderSVGContainer {g} at (273,198) size 154x46 [transform={m=((1.00,0.00)(0.00,1.00)) t=(350.00,225.00)}]
        RenderSVGContainer {g} at (309,198) size 82x34
          RenderSVGContainer {use} at (309,198) size 82x34
            RenderSVGText {text} at (-41,-27) size 82x34 contains 1 chunk(s)
              RenderSVGInlineText {#text} at (0,0) size 82x34
                chunk 1 (middle anchor) text run 1 at (-41.00,0.00) startOffset 0 endOffset 6 width 82.00: "sample"
        RenderSVGText {text} at (-77,0) size 154x19 contains 1 chunk(s)
          RenderSVGInlineText {#text} at (0,0) size 153x19
            chunk 1 (middle anchor) text run 1 at (-76.50,15.00) startOffset 0 endOffset 25 width 153.00: "predefined text via <use>"
      RenderSVGText {text} at (147,267) size 156x17 contains 1 chunk(s)
        RenderSVGInlineText {#text} at (0,0) size 155x17
          chunk 1 (middle anchor) text run 1 at (147.50,280.00) startOffset 0 endOffset 25 width 155.00: "Text Rendering Properties"
      RenderSVGContainer {g} at (27,298) size 146x41 [transform={m=((1.00,0.00)(0.00,1.00)) t=(100.00,305.00)}]
        RenderSVGContainer {g} at (59,298) size 82x34 [transform={m=((-1.00,0.00)(-0.00,-1.00)) t=(0.00,0.00)}]
          RenderSVGContainer {use} at (59,298) size 82x34
            RenderSVGText {text} at (-41,-27) size 82x34 contains 1 chunk(s)
              RenderSVGInlineText {#text} at (0,0) size 82x34
                chunk 1 (middle anchor) text run 1 at (-41.00,0.00) startOffset 0 endOffset 6 width 82.00: "sample"
        RenderSVGText {text} at (-73,15) size 146x19 contains 1 chunk(s)
          RenderSVGInlineText {#text} at (0,0) size 145x19
            chunk 1 (middle anchor) text run 1 at (-72.50,30.00) startOffset 0 endOffset 23 width 145.00: "transform=\"rotate(180)\""
      RenderSVGContainer {g} at (183,293) size 84x46 [transform={m=((1.00,0.00)(0.00,1.00)) t=(225.00,320.00)}]
        RenderSVGContainer {g} at (184,293) size 82x34 [opacity=0.50]
          RenderSVGContainer {use} at (184,293) size 82x34
            RenderSVGText {text} at (-41,-27) size 82x34 contains 1 chunk(s)
              RenderSVGInlineText {#text} at (0,0) size 82x34
                chunk 1 (middle anchor) text run 1 at (-41.00,0.00) startOffset 0 endOffset 6 width 82.00: "sample"
        RenderSVGText {text} at (-42,0) size 84x19 contains 1 chunk(s)
          RenderSVGInlineText {#text} at (0,0) size 83x19
            chunk 1 (middle anchor) text run 1 at (-41.50,15.00) startOffset 0 endOffset 13 width 83.00: "opacity=\"0.5\""
      RenderSVGContainer {g} at (306,293) size 88x46 [transform={m=((1.00,0.00)(0.00,1.00)) t=(350.00,320.00)}]
        RenderSVGContainer {g} at (309,293) size 82x34
          RenderSVGContainer {use} at (309,293) size 82x34
            RenderSVGText {text} at (-41,-27) size 82x34 contains 1 chunk(s)
              RenderSVGInlineText {#text} at (0,0) size 82x34
                chunk 1 (middle anchor) text run 1 at (-41.00,0.00) startOffset 0 endOffset 6 width 82.00: "sample"
        RenderSVGText {text} at (-44,0) size 88x19 contains 1 chunk(s)
          RenderSVGInlineText {#text} at (0,0) size 88x19
            chunk 1 (middle anchor) text run 1 at (-44.00,15.00) startOffset 0 endOffset 14 width 88.00: "fill=\"DarkRed\""
      RenderSVGContainer {g} at (0,270) size 200x200 [transform={m=((1.00,0.00)(0.00,1.00)) t=(100.00,370.00)}]
        RenderSVGContainer {g} at (0,270) size 200x200
          [filter="gaussianBlur"] RenderSVGResourceFilter {filter} at (-100,-100) size 200x200
          RenderSVGContainer {use} at (59,343) size 82x34
            RenderSVGText {text} at (-41,-27) size 82x34 contains 1 chunk(s)
              RenderSVGInlineText {#text} at (0,0) size 82x34
                chunk 1 (middle anchor) text run 1 at (-41.00,0.00) startOffset 0 endOffset 6 width 82.00: "sample"
        RenderSVGText {text} at (-77,0) size 154x19 contains 1 chunk(s)
          RenderSVGInlineText {#text} at (0,0) size 153x19
            chunk 1 (middle anchor) text run 1 at (-76.50,15.00) startOffset 0 endOffset 27 width 153.00: "filter=\"url(#gaussianBlur)\""
      RenderSVGContainer {g} at (156,342) size 138x57 [transform={m=((1.00,0.00)(0.00,1.00)) t=(225.00,370.00)}]
        RenderSVGContainer {g} at (183,342) size 84x36
          RenderSVGContainer {use} at (183,342) size 84x36
            RenderSVGText {text} at (-41,-27) size 82x34 contains 1 chunk(s)
              RenderSVGInlineText {#text} at (0,0) size 82x34
                chunk 1 (middle anchor) text run 1 at (-41.00,0.00) startOffset 0 endOffset 6 width 82.00: "sample"
        RenderSVGText {text} at (-38,0) size 76x19 contains 1 chunk(s)
          RenderSVGInlineText {#text} at (0,0) size 75x19
            chunk 1 (middle anchor) text run 1 at (-37.50,15.00) startOffset 0 endOffset 14 width 75.00: "fill=\"yellow\";"
        RenderSVGText {text} at (-69,10) size 138x19 contains 1 chunk(s)
          RenderSVGInlineText {#text} at (0,0) size 137x19
            chunk 1 (middle anchor) text run 1 at (-68.50,25.00) startOffset 0 endOffset 21 width 137.00: "stroke=\"MidnightBlue\""
      RenderSVGHiddenContainer {defs} at (0,0) size 0x0
        RenderSVGResourceClipper {clipPath} [id="textClip"] [clipPathUnits=userSpaceOnUse]
          RenderSVGText {text} at (-41,-27) size 82x34 contains 1 chunk(s)
            RenderSVGInlineText {#text} at (0,0) size 82x34
              chunk 1 (middle anchor) text run 1 at (-41.00,0.00) startOffset 0 endOffset 6 width 82.00: "sample"
        RenderSVGResourceLinearGradient {linearGradient} [id="gradient"] [gradientUnits=userSpaceOnUse] [start=(-50,-25)] [end=(50,25)]
          RenderSVGGradientStop {stop} [offset=0.00] [color=#0000FF]
          RenderSVGGradientStop {stop} [offset=1.00] [color=#008000]
      RenderSVGContainer {g} at (302,345) size 96x44 [transform={m=((1.00,0.00)(0.00,1.00)) t=(350.00,370.00)}]
        RenderSVGRect {rect} at (309,345) size 82x32 [fill={[type=LINEAR-GRADIENT] [id="gradient"]}] [x=-50.00] [y=-25.00] [width=100.00] [height=50.00]
          [clipPath="textClip"] RenderSVGResourceClipper {clipPath} at (-41,-27) size 82x34
        RenderSVGText {text} at (-48,0) size 96x19 contains 1 chunk(s)
          RenderSVGInlineText {#text} at (0,0) size 96x19
            chunk 1 (middle anchor) text run 1 at (-48.00,15.00) startOffset 0 endOffset 17 width 96.00: "text as clip-path"
      RenderSVGText {text} at (136,386) size 28x68 contains 1 chunk(s)
        RenderSVGInlineText {#text} at (0,0) size 27x68
          chunk 1 (middle anchor) text run 1 at (136.50,440.00) startOffset 0 endOffset 1 width 27.00: "a"
      RenderSVGText {text} at (82,440) size 136x19 contains 1 chunk(s)
        RenderSVGInlineText {#text} at (0,0) size 135x19
          chunk 1 (middle anchor) text run 1 at (82.50,455.00) startOffset 0 endOffset 23 width 135.00: "stroke-linejoin=\"miter\""
      RenderSVGText {text} at (77,450) size 146x19 contains 1 chunk(s)
        RenderSVGInlineText {#text} at (0,0) size 145x19
          chunk 1 (middle anchor) text run 1 at (77.50,465.00) startOffset 0 endOffset 23 width 145.00: "stroke-linecap=\"square\""
      RenderSVGText {text} at (286,386) size 28x68 contains 1 chunk(s)
        RenderSVGInlineText {#text} at (0,0) size 27x68
          chunk 1 (middle anchor) text run 1 at (286.50,440.00) startOffset 0 endOffset 1 width 27.00: "a"
      RenderSVGText {text} at (230,440) size 140x19 contains 1 chunk(s)
        RenderSVGInlineText {#text} at (0,0) size 140x19
          chunk 1 (middle anchor) text run 1 at (230.00,455.00) startOffset 0 endOffset 23 width 140.00: "stroke-linejoin=\"round\""
      RenderSVGText {text} at (230,450) size 140x19 contains 1 chunk(s)
        RenderSVGInlineText {#text} at (0,0) size 140x19
          chunk 1 (middle anchor) text run 1 at (230.00,465.00) startOffset 0 endOffset 22 width 140.00: "stroke-linecap=\"round\""
    RenderSVGContainer {use} at (0,0) size 448x498
      RenderSVGContainer {g} at (0,0) size 448x498
        RenderSVGRect {rect} at (0,0) size 448x498 [stroke={[type=SOLID] [color=#000000]}] [x=1.00] [y=1.00] [width=446.00] [height=496.00]
        RenderSVGContainer {g} at (418,466) size 28x30 [transform={m=((1.00,0.00)(0.00,1.00)) t=(418.00,467.00)}]
          RenderSVGViewportContainer {svg} at (418,466) size 28x30
            RenderSVGPath {path} at (418,468) size 14x19 [fill={[type=SOLID] [color=#6666FF]}] [data="M 172 44 C 137 60 31 135 11 199 C 3 226 33 247 55 232 C 14 306 -1 332 0 356 C 0 370 13 398 44 383 C 52 379 79 358 96 342 C 110 341 120 331 138 314 C 155 328 174 324 190 307 C 212 309 272 229 234 199 C 231 175 204 162 181 181 C 175 179 168 180 163 182 C 185 147 206 100 212 77 C 219 47 188 36 172 44 Z"]
            RenderSVGPath {path} at (432,466) size 14x17 [fill={[type=SOLID] [color=#FF0000]}] [data="M 400 0 C 382 3 351 31 351 31 C 322 54 308 89 323 126 C 310 140 294 170 294 193 C 294 221 314 245 344 222 C 351 230 365 238 381 227 C 376 256 384 275 407 276 C 408 286 420 307 443 293 C 459 283 501 254 522 237 C 547 214 547 143 504 148 C 537 89 501 52 477 64 C 467 68 431 89 425 94 C 424 87 420 82 414 80 C 436 45 436 -5 401 0 Z"]
            RenderSVGPath {path} at (425,484) size 16x12 [fill={[type=SOLID] [color=#33CC33]}] [data="M 275 353 C 229 365 187 396 161 444 C 152 460 167 481 186 477 C 172 501 146 544 171 558 C 199 574 223 550 231 543 C 249 564 281 553 312 526 C 353 540 380 524 415 473 C 423 461 445 430 445 408 C 445 392 430 378 410 387 C 409 375 401 349 357 368 C 347 362 326 363 303 385 C 308 375 300 347 275 353 Z"]
