layer at (0,0) size 800x600
  RenderView at (0,0) size 800x600
layer at (0,0) size 800x492
  RenderBlock {HTML} at (0,0) size 800x491.63
    RenderBody {BODY} at (8,8) size 784x462.30
      RenderBlock (anonymous) at (0,0) size 784x20
        RenderText {#text} at (0,0) size 76x19
          text run at (0,0) width 76: "This is good:"
      RenderBlock {DIV} at (0,41.33) size 100x50
        RenderBlock {P} at (0,0) size 100x50 [border: (1px solid #008000)]
          RenderText {#text} at (44,1) size 55x47
            text run at (44,1) width 55: "Lorem"
            text run at (48,25) width 51: "ipsum"
      RenderBlock (anonymous) at (0,112.66) size 784x20
        RenderText {#text} at (0,0) size 264x19
          text run at (0,0) width 264: "The following three should look like \x{201C}good\x{201D}:"
      RenderBlock {DIV} at (0,153.98) size 100x195.66
        RenderBlock {P} at (0,0) size 100x50 [border: (1px solid #0000FF)]
          RenderText {#text} at (44,1) size 55x47
            text run at (44,1) width 55: "Lorem"
            text run at (48,25) width 51: "\x{131}psum"
        RenderBlock {P} at (0,71.33) size 100x50 [border: (1px solid #0000FF)]
          RenderText {#text} at (44,1) size 55x47
            text run at (44,1) width 55: "Lorem"
            text run at (48,25) width 51: "\x{131}psum"
        RenderBlock {P} at (0,142.66) size 100x53 [border: (1px solid #0000FF)]
          RenderText {#text} at (42,4) size 57x47
            text run at (42,4) width 57: "Lore\x{1E3F}"
            text run at (48,28) width 51: "ipsum"
      RenderBlock (anonymous) at (0,370.97) size 784x20
        RenderText {#text} at (0,0) size 68x19
          text run at (0,0) width 68: "This is bad:"
      RenderBlock {DIV} at (0,412.30) size 100x50
        RenderBlock {P} at (0,0) size 100x50 [border: (1px solid #FF0000)]
          RenderText {#text} at (39,1) size 60x47
            text run at (39,1) width 60: "Lorem "
            text run at (48,25) width 51: "ipsum"
