layer at (0,0) size 800x600
  RenderView at (0,0) size 800x600
layer at (0,0) size 800x286
  RenderBlock {HTML} at (0,0) size 800x285.61
    RenderBody {BODY} at (8,16) size 784x261.61
      RenderBlock {P} at (0,0) size 784x16
        RenderText {#text} at (0,0) size 522x16
          text run at (0,0) width 522: "Test passes if the box has rounded corners and there is no red visible on the page."
      RenderBlock {DIV} at (0,32) size 230x230 [border: (19px solid #FF0000)]
      RenderBlock {DIV} at (0,31.61) size 230x230 [border: (19px solid #008000)]
