layer at (0,0) size 800x600 clip at (0,0) size 785x600 scrollHeight 774
  RenderView at (0,0) size 800x600
layer at (0,0) size 785x600
  RenderBlock {html} at (0,0) size 785x600
    RenderBody {body} at (8,16) size 769x600
      RenderBlock {parsererror} at (16,0) size 737x137.88 [bgcolor=#FFDDDD] [border: (2px solid #CC7777)]
        RenderBlock {h3} at (18,20.72) size 701x22
          RenderText {#text} at (0,0) size 318x21
            text run at (0,0) width 318: "This page contains the following errors:"
        RenderBlock {div} at (18,61.44) size 701x15
          RenderText {#text} at (0,0) size 567x15
            text run at (0,0) width 567: "error on line 5 at column 7: Opening and ending tag mismatch: rect line 0 and svg"
            text run at (567,0) width 0: " "
        RenderBlock {h3} at (18,95.16) size 701x22
          RenderText {#text} at (0,0) size 421x21
            text run at (0,0) width 421: "Below is a rendering of the page up to the first error."
      RenderBlock (anonymous) at (0,153.88) size 769x604
        RenderSVGRoot {svg} at (18,179) size 200x201
          RenderSVGRect {rect} at (18,179) size 200x201 [fill={[type=SOLID] [color=#FF0000]}] [x=10.00] [y=10.00] [width=200.00] [height=200.00]
          RenderSVGRect {rect} at (18,179) size 200x201 [fill={[type=SOLID] [color=#FF0000]}] [x=10.00] [y=10.00] [width=200.00] [height=200.00]
