layer at (0,0) size 800x600
  RenderView at (0,0) size 800x600
layer at (0,0) size 800x600
  RenderBlock {HTML} at (0,0) size 800x600
    RenderBody {BODY} at (8,8) size 784x576
      RenderBlock (anonymous) at (0,0) size 784x20
        RenderText {#text} at (0,0) size 250x19
          text run at (0,0) width 250: "The select should not contain blank items "
        RenderBR {BR} at (250,15) size 0x0
      RenderBlock {FORM} at (0,20) size 784x22
        RenderInline {B} at (0,0) size 46x19
          RenderText {#text} at (0,1) size 46x19
            text run at (0,1) width 46: "Search"
        RenderText {#text} at (46,1) size 4x19
          text run at (46,1) width 4: " "
        RenderTextControl {INPUT} at (50,0) size 142x22 [bgcolor=#FFFFFF] [border: (2px inset #EEEEEE)]
        RenderText {#text} at (192,1) size 4x19
          text run at (192,1) width 4: " "
        RenderMenuList {SELECT} at (196,1) size 73x20 [bgcolor=#C0C0C0] [border: (1px solid #A9A9A9)]
          RenderBlock (anonymous) at (1,1) size 71x18
            RenderText at (4,1) size 37x16
              text run at (4,1) width 37: "Excite"
        RenderText {#text} at (0,0) size 0x0
      RenderBlock (anonymous) at (0,58) size 784x40
        RenderBR {BR} at (0,0) size 0x19
        RenderText {#text} at (0,20) size 250x19
          text run at (0,20) width 250: "The select should not contain blank items "
        RenderBR {BR} at (250,35) size 0x0
      RenderBlock {FORM} at (0,98) size 784x20
        RenderMenuList {SELECT} at (0,0) size 253x20 [bgcolor=#C0C0C0] [border: (1px solid #A9A9A9)]
          RenderBlock (anonymous) at (1,1) size 251x18
            RenderText at (4,1) size 62x16
              text run at (4,1) width 62: "Quick Link"
layer at (60,31) size 138x16
  RenderBlock {DIV} at (2,3) size 138x16
