layer at (0,0) size 800x600
  RenderView at (0,0) size 800x600
layer at (0,0) size 800x600
  RenderBlock {HTML} at (0,0) size 800x600
    RenderBody {BODY} at (8,8) size 784x584
layer at (8,8) size 784x22
  RenderBlock {DIV} at (0,0) size 784x22
    RenderTextControl {INPUT} at (0,0) size 154x22 [bgcolor=#FFFFFF] [border: (2px inset #EEEEEE)]
    RenderText {#text} at (0,0) size 0x0
layer at (10,11) size 150x16
  RenderBlock {DIV} at (2,3) size 150x16
caret: position 0 of child 0 {DIV} of {#document-fragment} of child 1 {INPUT} of child 1 {DIV} of body
