layer at (0,0) size 800x600
  RenderView at (0,0) size 800x600
layer at (0,0) size 800x88
  RenderBlock {HTML} at (0,0) size 800x88
    RenderBody {BODY} at (8,16) size 784x64
      RenderBlock {P} at (0,0) size 784x16
        RenderText {#text} at (0,0) size 284x16
          text run at (0,0) width 284: "The following two lines should be the same:"
      RenderBlock {DIV} at (0,32) size 784x16
        RenderInline {SPAN} at (0,0) size 491x16
          RenderInline {<pseudo:before>} at (0,0) size 24x16
            RenderTextFragment at (0,0) size 11x16
              text run at (0,0) width 11: "B"
            RenderCounter at (10,0) size 9x16
              text run at (10,0) width 9: "1"
            RenderTextFragment at (18,0) size 6x16
              text run at (18,0) width 6: "-"
          RenderInline {SPAN} at (0,0) size 442x16
            RenderInline {<pseudo:before>} at (0,0) size 24x16
              RenderTextFragment at (24,0) size 11x16
                text run at (24,0) width 11: "B"
              RenderCounter at (34,0) size 9x16
                text run at (34,0) width 9: "2"
              RenderTextFragment at (42,0) size 6x16
                text run at (42,0) width 6: "-"
            RenderInline {SPAN} at (0,0) size 219x16
              RenderInline {<pseudo:before>} at (0,0) size 36x16
                RenderTextFragment at (48,0) size 11x16
                  text run at (48,0) width 11: "B"
                RenderCounter at (58,0) size 21x16
                  text run at (58,0) width 21: "2.1"
                RenderTextFragment at (78,0) size 6x16
                  text run at (78,0) width 6: "-"
              RenderInline {SPAN} at (0,0) size 73x16
                RenderInline {<pseudo:before>} at (0,0) size 36x16
                  RenderTextFragment at (84,0) size 11x16
                    text run at (84,0) width 11: "B"
                  RenderCounter at (94,0) size 21x16
                    text run at (94,0) width 21: "2.2"
                  RenderTextFragment at (114,0) size 6x16
                    text run at (114,0) width 6: "-"
                RenderInline {<pseudo:after>} at (0,0) size 37x16
                  RenderTextFragment at (120,0) size 12x16
                    text run at (120,0) width 12: "A"
                  RenderCounter at (131,0) size 21x16
                    text run at (131,0) width 21: "2.3"
                  RenderTextFragment at (151,0) size 6x16
                    text run at (151,0) width 6: "-"
              RenderInline {SPAN} at (0,0) size 74x16
                RenderInline {<pseudo:before>} at (0,0) size 37x16
                  RenderTextFragment at (156,0) size 12x16
                    text run at (156,0) width 12: "B"
                  RenderCounter at (167,0) size 21x16
                    text run at (167,0) width 21: "2.4"
                  RenderTextFragment at (187,0) size 6x16
                    text run at (187,0) width 6: "-"
                RenderInline {<pseudo:after>} at (0,0) size 38x16
                  RenderTextFragment at (192,0) size 13x16
                    text run at (192,0) width 13: "A"
                  RenderCounter at (204,0) size 21x16
                    text run at (204,0) width 21: "2.5"
                  RenderTextFragment at (224,0) size 6x16
                    text run at (224,0) width 6: "-"
              RenderInline {<pseudo:after>} at (0,0) size 38x16
                RenderTextFragment at (229,0) size 13x16
                  text run at (229,0) width 13: "A"
                RenderCounter at (241,0) size 21x16
                  text run at (241,0) width 21: "2.6"
                RenderTextFragment at (261,0) size 6x16
                  text run at (261,0) width 6: "-"
            RenderInline {SPAN} at (0,0) size 155x16
              RenderInline {<pseudo:before>} at (0,0) size 37x16
                RenderTextFragment at (266,0) size 12x16
                  text run at (266,0) width 12: "B"
                RenderCounter at (277,0) size 21x16
                  text run at (277,0) width 21: "2.7"
                RenderTextFragment at (297,0) size 6x16
                  text run at (297,0) width 6: "-"
              RenderInline {SPAN} at (0,0) size 74x16
                RenderInline {<pseudo:before>} at (0,0) size 37x16
                  RenderTextFragment at (302,0) size 12x16
                    text run at (302,0) width 12: "B"
                  RenderCounter at (313,0) size 21x16
                    text run at (313,0) width 21: "2.8"
                  RenderTextFragment at (333,0) size 6x16
                    text run at (333,0) width 6: "-"
                RenderInline {<pseudo:after>} at (0,0) size 38x16
                  RenderTextFragment at (338,0) size 13x16
                    text run at (338,0) width 13: "A"
                  RenderCounter at (350,0) size 21x16
                    text run at (350,0) width 21: "2.9"
                  RenderTextFragment at (370,0) size 6x16
                    text run at (370,0) width 6: "-"
              RenderInline {<pseudo:after>} at (0,0) size 46x16
                RenderTextFragment at (375,0) size 13x16
                  text run at (375,0) width 13: "A"
                RenderCounter at (387,0) size 29x16
                  text run at (387,0) width 29: "2.10"
                RenderTextFragment at (415,0) size 6x16
                  text run at (415,0) width 6: "-"
            RenderInline {<pseudo:after>} at (0,0) size 46x16
              RenderTextFragment at (420,0) size 12x16
                text run at (420,0) width 12: "A"
              RenderCounter at (431,0) size 29x16
                text run at (431,0) width 29: "2.11"
              RenderTextFragment at (459,0) size 7x16
                text run at (459,0) width 7: "-"
          RenderInline {<pseudo:after>} at (0,0) size 26x16
            RenderTextFragment at (465,0) size 12x16
              text run at (465,0) width 12: "A"
            RenderCounter at (476,0) size 9x16
              text run at (476,0) width 9: "3"
            RenderTextFragment at (484,0) size 7x16
              text run at (484,0) width 7: "-"
      RenderBlock {DIV} at (0,48) size 784x16
        RenderText {#text} at (0,0) size 491x16
          text run at (0,0) width 491: "B1-B2-B2.1-B2.2-A2.3-B2.4-A2.5-A2.6-B2.7-B2.8-A2.9-A2.10-A2.11-A3-"
