layer at (0,0) size 800x600
  RenderView at (0,0) size 800x600
layer at (0,0) size 800x600
  RenderSVGRoot {svg} at (0,0) size 800x600
    RenderSVGRect {rect} at (0,0) size 800x600 [fill={[type=SOLID] [color=#FFFFFF]}] [x=-1000.00] [y=-1000.00] [width=3000.00] [height=3000.00]
    RenderSVGContainer {g} at (77,77) size 158x26
      RenderSVGContainer {g} at (77,77) size 158x26
        RenderSVGRect {rect} at (77,77) size 158x26 [stroke={[type=SOLID] [color=#696969] [stroke width=1.50]}] [fill={[type=SOLID] [color=#FFFFFF]}] [x=100.00] [y=100.00] [width=200.00] [height=30.00]
        RenderSVGViewportContainer {svg} at (77,84) size 2x14
          RenderSVGContainer {g} at (77,84) size 2x14
            RenderSVGText {text}
            RenderSVGPath {line} at (77,84) size 2x14 [stroke={[type=SOLID] [color=#FF0000] [stroke width=1.50]}] [fill={[type=SOLID] [color=#000000]}] [x1=100.00] [y1=125.00] [x2=100.00] [y2=108.50]
    RenderSVGContainer {g} at (77,22) size 49x26
      RenderSVGContainer {g} at (77,22) size 49x26
        RenderSVGRect {rect} at (77,22) size 49x26 [stroke={[type=SOLID] [color=#696969] [stroke width=1.50]}] [fill={[type=SOLID] [color=#FFFFFF]}] [x=100.00] [y=30.00] [width=60.00] [height=30.00]
        RenderSVGViewportContainer {svg} at (77,29) size 19x14
          RenderSVGContainer {g} at (77,29) size 19x14
            RenderSVGText {text} at (105,37) size 17x18 contains 1 chunk(s)
              RenderSVGInlineText {#text} at (0,0) size 17x17
                chunk 1 text run 1 at (105.00,52.00) startOffset 0 endOffset 2 width 16.67: "50"
            RenderSVGPath {line} at (77,30) size 2x13 [stroke={[type=SOLID] [color=#FF0000] [stroke width=1.50]}] [fill={[type=SOLID] [color=#000000]}] [x1=100.00] [y1=55.00] [x2=100.00] [y2=38.50]
    RenderSVGContainer {g} at (77,233) size 339x26 [transform={m=((1.00,0.00)(0.00,1.00)) t=(100.00,300.00)}]
      RenderSVGContainer {g} at (77,233) size 339x26
        RenderSVGRect {rect} at (77,233) size 182x26 [stroke={[type=SOLID] [color=#696969] [stroke width=1.50]}] [fill={[type=SOLID] [color=#FFFFFF]}] [x=0.00] [y=0.00] [width=230.00] [height=30.00]
        RenderSVGViewportContainer {svg} at (77,240) size 339x14
          RenderSVGContainer {g} at (77,240) size 339x14
            RenderSVGText {text} at (5,7) size 428x18 contains 1 chunk(s)
              RenderSVGInlineText {#text} at (0,0) size 428x17
                chunk 1 text run 1 at (5.00,22.00) startOffset 0 endOffset 66 width 427.36: "This is a transformed textbox with a very, very, very long content"
            RenderSVGPath {line} at (77,241) size 2x13 [stroke={[type=SOLID] [color=#FF0000] [stroke width=1.50]}] [fill={[type=SOLID] [color=#000000]}] [x1=0.00] [y1=25.00] [x2=0.00] [y2=8.50]
    RenderSVGContainer {g} at (78,30) size 656x256
      RenderSVGText {text} at (100,218) size 66x16 contains 1 chunk(s)
        RenderSVGInlineText {#text} at (0,0) size 66x16
          chunk 1 text run 1 at (100.00,230.00) startOffset 0 endOffset 10 width 65.77: "ResultText"
      RenderSVGText {text} at (170,38) size 310x16 contains 1 chunk(s)
        RenderSVGInlineText {#text} at (0,0) size 310x16
          chunk 1 text run 1 at (170.00,50.00) startOffset 0 endOffset 53 width 309.72: "This textbox (textbox 2) only accepts up to 5 digits."
      RenderSVGText {text} at (310,108) size 375x16 contains 1 chunk(s)
        RenderSVGInlineText {#text} at (0,0) size 375x16
          chunk 1 text run 1 at (310.00,120.00) startOffset 0 endOffset 63 width 374.99: "This textbox (textbox 1) accepts up to 25 characters [a-zA-Z ]."
      RenderSVGText {text} at (350,303) size 236x39 contains 1 chunk(s)
        RenderSVGInlineText {#text} at (0,0) size 236x16
          chunk 1 text run 1 at (350.00,315.00) startOffset 0 endOffset 39 width 235.20: "This textbox (textbox 3) is transformed"
        RenderSVGTSpan {tspan} at (0,0) size 224x16
          RenderSVGInlineText {#text} at (0,23) size 224x16
            chunk 1 text run 1 at (350.00,338.00) startOffset 0 endOffset 38 width 223.06: "and accepts all characters (up to 300)"
      RenderSVGText {text} at (620,303) size 291x16 contains 1 chunk(s)
        RenderSVGInlineText {#text} at (0,0) size 291x16
          chunk 1 text run 1 at (620.00,315.00) startOffset 0 endOffset 51 width 290.56: "Click on this text to reset content of textbox nr 3"
      RenderSVGText {text} at (620,326) size 320x16 contains 1 chunk(s)
        RenderSVGInlineText {#text} at (0,0) size 320x16
          chunk 1 text run 1 at (620.00,338.00) startOffset 0 endOffset 54 width 319.31: "Click on this text to randomly reposition textbox nr 3"
      RenderSVGText {text} at (620,349) size 295x16 contains 1 chunk(s)
        RenderSVGInlineText {#text} at (0,0) size 295x16
          chunk 1 text run 1 at (620.00,361.00) startOffset 0 endOffset 50 width 294.31: "Click on this text to randomly resize textbox nr 3"
