layer at (0,0) size 800x600
  RenderView at (0,0) size 800x600
layer at (0,0) size 800x60
  RenderBlock {HTML} at (0,0) size 800x60
    RenderBody {BODY} at (8,8) size 784x44
      RenderTextControl {INPUT} at (0,0) size 173x22 [bgcolor=#FFFFFF] [border: (2px inset #EEEEEE)]
        RenderFlexibleBox {DIV} at (2,3) size 169x16
          RenderBlock {DIV} at (0,0) size 136.14x16
          RenderDetailsMarker {DIV} at (136.14,1.33) size 17.86x13.33: down
          RenderBlock {DIV} at (154,0) size 15x16
      RenderText {#text} at (173,2) size 4x17
        text run at (173,2) width 4: " "
      RenderTextControl {INPUT} at (177,0) size 173x22 [bgcolor=#FFFFFF] [border: (2px inset #EEEEEE)]
        RenderFlexibleBox {DIV} at (2,3) size 169x16
          RenderBlock {DIV} at (0,0) size 136.14x16
          RenderDetailsMarker {DIV} at (136.14,1.33) size 17.86x13.33: down
          RenderBlock {DIV} at (154,0) size 15x16
      RenderText {#text} at (350,2) size 4x17
        text run at (350,2) width 4: " "
      RenderBR {BR} at (354,2) size 0x17
      RenderTextControl {INPUT} at (0,22) size 173x22 [color=#545454] [bgcolor=#EBEBE4] [border: (2px inset #EEEEEE)]
        RenderFlexibleBox {DIV} at (2,3) size 169x16
          RenderBlock {DIV} at (0,0) size 136.14x16
      RenderText {#text} at (173,24) size 4x17
        text run at (173,24) width 4: " "
      RenderTextControl {INPUT} at (177,22) size 173x22 [bgcolor=#FFFFFF] [border: (2px inset #EEEEEE)]
        RenderFlexibleBox {DIV} at (2,3) size 169x16
          RenderBlock {DIV} at (0,0) size 136.14x16
      RenderText {#text} at (0,0) size 0x0
      RenderText {#text} at (0,0) size 0x0
layer at (10,11) size 136x16
  RenderBlock {DIV} at (0,0) size 136.14x16
layer at (187,11) size 136x16
  RenderBlock {DIV} at (0,0) size 136.14x16
layer at (10,33) size 136x16
  RenderBlock {DIV} at (0,0) size 136.14x16
layer at (187,33) size 136x16
  RenderBlock {DIV} at (0,0) size 136.14x16
hidden layer at (146,34) size 18x14 transparent
  RenderDetailsMarker {DIV} at (136.14,1.33) size 17.86x13.33: down
layer at (164,33) size 15x16 transparent
  RenderBlock {DIV} at (154,0) size 15x16
hidden layer at (323,34) size 18x14 transparent
  RenderDetailsMarker {DIV} at (136.14,1.33) size 17.86x13.33: down
layer at (341,33) size 15x16 transparent
  RenderBlock {DIV} at (154,0) size 15x16
caret: position 0 of child 0 {DIV} of child 0 {DIV} of child 0 {DIV} of {#document-fragment} of child 3 {INPUT} of body
